%YAML 1.1
%TAG !u! tag:unity3d.com,2011:
--- !u!74 &7400000
AnimationClip:
  m_ObjectHideFlags: 0
  m_CorrespondingSourceObject: {fileID: 0}
  m_PrefabInstance: {fileID: 0}
  m_PrefabAsset: {fileID: 0}
  m_Name: Menu
  serializedVersion: 6
  m_Legacy: 0
  m_Compressed: 0
  m_UseHighQualityCurve: 1
  m_RotationCurves: []
  m_CompressedRotationCurves: []
  m_EulerCurves: []
  m_PositionCurves: []
  m_ScaleCurves: []
  m_FloatCurves: []
  m_PPtrCurves:
  - curve:
    - time: 0
      value: {fileID: 21300000, guid: 9f7f0a601ffda764b9199c7b6b076e4d, type: 3}
    - time: 0.041666668
      value: {fileID: 21300000, guid: 27f90366cc42f2f49aef53a8b99e4739, type: 3}
    - time: 0.083333336
      value: {fileID: 21300000, guid: 7f7a724018b83af4b9fe85ae4a903149, type: 3}
    - time: 0.125
      value: {fileID: 21300000, guid: 6147668c3c0539845960828b5689a40b, type: 3}
    - time: 0.16666667
      value: {fileID: 21300000, guid: 51090b71d6c9d50418d4ddc62b1c074b, type: 3}
    - time: 0.20833333
      value: {fileID: 21300000, guid: 38274e2b05a69264b84a97b674c06c3d, type: 3}
    - time: 0.25
      value: {fileID: 21300000, guid: e1205d26240d5154db6ea333a2dd393d, type: 3}
    - time: 0.29166666
      value: {fileID: 21300000, guid: 1502ad2f426dbbd4bb5ad5aea20efdde, type: 3}
    - time: 0.33333334
      value: {fileID: 21300000, guid: b8883216f7cc655459613fcdc11e2fe8, type: 3}
    - time: 0.375
      value: {fileID: 21300000, guid: 04815a96f26e87f43848cae49a7998c3, type: 3}
    - time: 0.41666666
      value: {fileID: 21300000, guid: a98943b2eddc35e4d8e2b307278ae7b4, type: 3}
    - time: 0.45833334
      value: {fileID: 21300000, guid: 44feb6682a391574cbf76aaac376159e, type: 3}
    - time: 0.5
      value: {fileID: 21300000, guid: 2b48eb008de002046b0628592d32d58f, type: 3}
    - time: 0.5416667
      value: {fileID: 21300000, guid: 622ff274031668b42b07985c4ff9bd71, type: 3}
    - time: 0.5833333
      value: {fileID: 21300000, guid: 3b43853ddbc086a4aa34f283a6ae5d7d, type: 3}
    - time: 0.625
      value: {fileID: 21300000, guid: 7cb15eff3561e2444b0052c2ad5e8fcb, type: 3}
    - time: 0.6666667
      value: {fileID: 21300000, guid: 08686fcf6d39c8246877676e0f105333, type: 3}
    - time: 0.7083333
      value: {fileID: 21300000, guid: 6f68125aaddc81a42b2ed0736b3c2a4b, type: 3}
    - time: 0.75
      value: {fileID: 21300000, guid: 6710eef5a2b19de44a9c6176dab3d127, type: 3}
    - time: 0.7916667
      value: {fileID: 21300000, guid: f8f87bfc5e378274f9955c28df71d5fb, type: 3}
    attribute: m_Sprite
    path: 
    classID: 212
    script: {fileID: 0}
  m_SampleRate: 24
  m_WrapMode: 0
  m_Bounds:
    m_Center: {x: 0, y: 0, z: 0}
    m_Extent: {x: 0, y: 0, z: 0}
  m_ClipBindingConstant:
    genericBindings:
    - serializedVersion: 2
      path: 0
      attribute: 0
      script: {fileID: 0}
      typeID: 212
      customType: 23
      isPPtrCurve: 1
    pptrCurveMapping:
    - {fileID: 21300000, guid: 9f7f0a601ffda764b9199c7b6b076e4d, type: 3}
    - {fileID: 21300000, guid: 27f90366cc42f2f49aef53a8b99e4739, type: 3}
    - {fileID: 21300000, guid: 7f7a724018b83af4b9fe85ae4a903149, type: 3}
    - {fileID: 21300000, guid: 6147668c3c0539845960828b5689a40b, type: 3}
    - {fileID: 21300000, guid: 51090b71d6c9d50418d4ddc62b1c074b, type: 3}
    - {fileID: 21300000, guid: 38274e2b05a69264b84a97b674c06c3d, type: 3}
    - {fileID: 21300000, guid: e1205d26240d5154db6ea333a2dd393d, type: 3}
    - {fileID: 21300000, guid: 1502ad2f426dbbd4bb5ad5aea20efdde, type: 3}
    - {fileID: 21300000, guid: b8883216f7cc655459613fcdc11e2fe8, type: 3}
    - {fileID: 21300000, guid: 04815a96f26e87f43848cae49a7998c3, type: 3}
    - {fileID: 21300000, guid: a98943b2eddc35e4d8e2b307278ae7b4, type: 3}
    - {fileID: 21300000, guid: 44feb6682a391574cbf76aaac376159e, type: 3}
    - {fileID: 21300000, guid: 2b48eb008de002046b0628592d32d58f, type: 3}
    - {fileID: 21300000, guid: 622ff274031668b42b07985c4ff9bd71, type: 3}
    - {fileID: 21300000, guid: 3b43853ddbc086a4aa34f283a6ae5d7d, type: 3}
    - {fileID: 21300000, guid: 7cb15eff3561e2444b0052c2ad5e8fcb, type: 3}
    - {fileID: 21300000, guid: 08686fcf6d39c8246877676e0f105333, type: 3}
    - {fileID: 21300000, guid: 6f68125aaddc81a42b2ed0736b3c2a4b, type: 3}
    - {fileID: 21300000, guid: 6710eef5a2b19de44a9c6176dab3d127, type: 3}
    - {fileID: 21300000, guid: f8f87bfc5e378274f9955c28df71d5fb, type: 3}
  m_AnimationClipSettings:
    serializedVersion: 2
    m_AdditiveReferencePoseClip: {fileID: 0}
    m_AdditiveReferencePoseTime: 0
    m_StartTime: 0
    m_StopTime: 0.8333334
    m_OrientationOffsetY: 0
    m_Level: 0
    m_CycleOffset: 0
    m_HasAdditiveReferencePose: 0
    m_LoopTime: 1
    m_LoopBlend: 0
    m_LoopBlendOrientation: 0
    m_LoopBlendPositionY: 0
    m_LoopBlendPositionXZ: 0
    m_KeepOriginalOrientation: 0
    m_KeepOriginalPositionY: 1
    m_KeepOriginalPositionXZ: 0
    m_HeightFromFeet: 0
    m_Mirror: 0
  m_EditorCurves: []
  m_EulerEditorCurves: []
  m_HasGenericRootTransform: 0
  m_HasMotionFloatCurves: 0
  m_Events: []
