%YAML 1.1
%TAG !u! tag:unity3d.com,2011:
--- !u!1001 &7819917428398069092
PrefabInstance:
  m_ObjectHideFlags: 0
  serializedVersion: 2
  m_Modification:
    m_TransformParent: {fileID: 0}
    m_Modifications:
    - target: {fileID: 3941507009041160034, guid: 949d68fc7adeb0948b5df61649ab93bc,
        type: 3}
      propertyPath: Loop
      value: 1
      objectReference: {fileID: 0}
    - target: {fileID: 3941507009041160034, guid: 949d68fc7adeb0948b5df61649ab93bc,
        type: 3}
      propertyPath: MinDistance
      value: 0.6147156
      objectReference: {fileID: 0}
    - target: {fileID: 3941507009041160034, guid: 949d68fc7adeb0948b5df61649ab93bc,
        type: 3}
      propertyPath: m_audioClip
      value: 
      objectReference: {fileID: 8300000, guid: 26db1dc83c1c2544f9ca1799415fcd99, type: 3}
    - target: {fileID: 5200926817138238320, guid: 949d68fc7adeb0948b5df61649ab93bc,
        type: 3}
      propertyPath: playOnAwake
      value: 0
      objectReference: {fileID: 0}
    - target: {fileID: 5624521863986261962, guid: 949d68fc7adeb0948b5df61649ab93bc,
        type: 3}
      propertyPath: m_Layer
      value: 29
      objectReference: {fileID: 0}
    - target: {fileID: 5624521864661316811, guid: 949d68fc7adeb0948b5df61649ab93bc,
        type: 3}
      propertyPath: m_Size.x
      value: 6
      objectReference: {fileID: 0}
    - target: {fileID: 5624521864661316811, guid: 949d68fc7adeb0948b5df61649ab93bc,
        type: 3}
      propertyPath: m_Size.y
      value: 4.45
      objectReference: {fileID: 0}
    - target: {fileID: 5624521864661316811, guid: 949d68fc7adeb0948b5df61649ab93bc,
        type: 3}
      propertyPath: m_Sprite
      value: 
      objectReference: {fileID: -1645763061238760541, guid: 9d412a61f4cb4e74ab9d0992a811cd2a,
        type: 3}
    - target: {fileID: 5624521864661316811, guid: 949d68fc7adeb0948b5df61649ab93bc,
        type: 3}
      propertyPath: m_WasSpriteAssigned
      value: 1
      objectReference: {fileID: 0}
    - target: {fileID: 5624521864661316812, guid: 949d68fc7adeb0948b5df61649ab93bc,
        type: 3}
      propertyPath: m_Enabled
      value: 0
      objectReference: {fileID: 0}
    - target: {fileID: 5624521864661316813, guid: 949d68fc7adeb0948b5df61649ab93bc,
        type: 3}
      propertyPath: m_SpriteTilingProperty.newSize.x
      value: 6
      objectReference: {fileID: 0}
    - target: {fileID: 5624521864661316813, guid: 949d68fc7adeb0948b5df61649ab93bc,
        type: 3}
      propertyPath: m_SpriteTilingProperty.newSize.y
      value: 4.45
      objectReference: {fileID: 0}
    - target: {fileID: 5624521864661316815, guid: 949d68fc7adeb0948b5df61649ab93bc,
        type: 3}
      propertyPath: m_Name
      value: Aerena Variant Variant
      objectReference: {fileID: 0}
    - target: {fileID: 5624521864661316815, guid: 949d68fc7adeb0948b5df61649ab93bc,
        type: 3}
      propertyPath: m_Layer
      value: 29
      objectReference: {fileID: 0}
    - target: {fileID: 6179502657489411114, guid: 949d68fc7adeb0948b5df61649ab93bc,
        type: 3}
      propertyPath: m_Name
      value: Aerena Variant
      objectReference: {fileID: 0}
    - target: {fileID: 6179502657489411119, guid: 949d68fc7adeb0948b5df61649ab93bc,
        type: 3}
      propertyPath: m_RootOrder
      value: 0
      objectReference: {fileID: 0}
    - target: {fileID: 6179502657489411119, guid: 949d68fc7adeb0948b5df61649ab93bc,
        type: 3}
      propertyPath: m_LocalPosition.x
      value: -163.46371
      objectReference: {fileID: 0}
    - target: {fileID: 6179502657489411119, guid: 949d68fc7adeb0948b5df61649ab93bc,
        type: 3}
      propertyPath: m_LocalPosition.y
      value: -5.088856
      objectReference: {fileID: 0}
    - target: {fileID: 6179502657489411119, guid: 949d68fc7adeb0948b5df61649ab93bc,
        type: 3}
      propertyPath: m_LocalPosition.z
      value: 0
      objectReference: {fileID: 0}
    - target: {fileID: 6179502657489411119, guid: 949d68fc7adeb0948b5df61649ab93bc,
        type: 3}
      propertyPath: m_LocalRotation.w
      value: 1
      objectReference: {fileID: 0}
    - target: {fileID: 6179502657489411119, guid: 949d68fc7adeb0948b5df61649ab93bc,
        type: 3}
      propertyPath: m_LocalRotation.x
      value: 0
      objectReference: {fileID: 0}
    - target: {fileID: 6179502657489411119, guid: 949d68fc7adeb0948b5df61649ab93bc,
        type: 3}
      propertyPath: m_LocalRotation.y
      value: 0
      objectReference: {fileID: 0}
    - target: {fileID: 6179502657489411119, guid: 949d68fc7adeb0948b5df61649ab93bc,
        type: 3}
      propertyPath: m_LocalRotation.z
      value: 0
      objectReference: {fileID: 0}
    - target: {fileID: 6179502657489411119, guid: 949d68fc7adeb0948b5df61649ab93bc,
        type: 3}
      propertyPath: m_LocalEulerAnglesHint.x
      value: 0
      objectReference: {fileID: 0}
    - target: {fileID: 6179502657489411119, guid: 949d68fc7adeb0948b5df61649ab93bc,
        type: 3}
      propertyPath: m_LocalEulerAnglesHint.y
      value: 0
      objectReference: {fileID: 0}
    - target: {fileID: 6179502657489411119, guid: 949d68fc7adeb0948b5df61649ab93bc,
        type: 3}
      propertyPath: m_LocalEulerAnglesHint.z
      value: 0
      objectReference: {fileID: 0}
    - target: {fileID: 7094471465430754987, guid: 949d68fc7adeb0948b5df61649ab93bc,
        type: 3}
      propertyPath: m_RootOrder
      value: 1
      objectReference: {fileID: 0}
    - target: {fileID: 8671321602942173652, guid: 949d68fc7adeb0948b5df61649ab93bc,
        type: 3}
      propertyPath: Sfx
      value: 
      objectReference: {fileID: 8300000, guid: 2aad3ea61459453418144efa8ecd7c29, type: 3}
    - target: {fileID: 8671321602942173652, guid: 949d68fc7adeb0948b5df61649ab93bc,
        type: 3}
      propertyPath: MaxVolume
      value: 0.4
      objectReference: {fileID: 0}
    - target: {fileID: 8671321602942173652, guid: 949d68fc7adeb0948b5df61649ab93bc,
        type: 3}
      propertyPath: MinVolume
      value: 0.4
      objectReference: {fileID: 0}
    m_RemovedComponents:
    - {fileID: 3941507009041160034, guid: 949d68fc7adeb0948b5df61649ab93bc, type: 3}
  m_SourcePrefab: {fileID: 100100000, guid: 949d68fc7adeb0948b5df61649ab93bc, type: 3}
