%YAML 1.1
%TAG !u! tag:unity3d.com,2011:
--- !u!1 &594058738
GameObject:
  m_ObjectHideFlags: 0
  m_CorrespondingSourceObject: {fileID: 0}
  m_PrefabInstance: {fileID: 0}
  m_PrefabAsset: {fileID: 0}
  serializedVersion: 6
  m_Component:
  - component: {fileID: 594058739}
  - component: {fileID: 594058740}
  m_Layer: 8
  m_Name: GameObject
  m_TagString: Untagged
  m_Icon: {fileID: 0}
  m_NavMeshLayer: 0
  m_StaticEditorFlags: 0
  m_IsActive: 1
--- !u!4 &594058739
Transform:
  m_ObjectHideFlags: 0
  m_CorrespondingSourceObject: {fileID: 0}
  m_PrefabInstance: {fileID: 0}
  m_PrefabAsset: {fileID: 0}
  m_GameObject: {fileID: 594058738}
  m_LocalRotation: {x: 0, y: 0, z: 0, w: 1}
  m_LocalPosition: {x: -0.38, y: 0, z: 0}
  m_LocalScale: {x: 1, y: 1, z: 1}
  m_Children: []
  m_Father: {fileID: 3697845153593927057}
  m_RootOrder: 1
  m_LocalEulerAnglesHint: {x: 0, y: 0, z: 0}
--- !u!61 &594058740
BoxCollider2D:
  m_ObjectHideFlags: 0
  m_CorrespondingSourceObject: {fileID: 0}
  m_PrefabInstance: {fileID: 0}
  m_PrefabAsset: {fileID: 0}
  m_GameObject: {fileID: 594058738}
  m_Enabled: 1
  m_Density: 1
  m_Material: {fileID: 0}
  m_IsTrigger: 0
  m_UsedByEffector: 0
  m_UsedByComposite: 0
  m_Offset: {x: 0.19241333, y: 2.9426649}
  m_SpriteTilingProperty:
    border: {x: 0, y: 0, z: 0, w: 0}
    pivot: {x: 0, y: 0}
    oldSize: {x: 0, y: 0}
    newSize: {x: 0, y: 0}
    adaptiveTilingThreshold: 0
    drawMode: 0
    adaptiveTiling: 0
  m_AutoTiling: 0
  serializedVersion: 2
  m_Size: {x: 1.9597931, y: 7.7426915}
  m_EdgeRadius: 0
--- !u!1001 &1561521588323425974
PrefabInstance:
  m_ObjectHideFlags: 0
  serializedVersion: 2
  m_Modification:
    m_TransformParent: {fileID: 0}
    m_Modifications:
    - target: {fileID: 1553928921154439384, guid: 766c57623fc9a2f43b8271eab6ec52ca,
        type: 3}
      propertyPath: m_Sprite
      value: 
      objectReference: {fileID: -2578279663363491524, guid: 9a647bf303e582649a6160a0f6f04d86,
        type: 3}
    - target: {fileID: 2808769588916042533, guid: 766c57623fc9a2f43b8271eab6ec52ca,
        type: 3}
      propertyPath: m_Name
      value: NidoKabu
      objectReference: {fileID: 0}
    - target: {fileID: 2808769588916042533, guid: 766c57623fc9a2f43b8271eab6ec52ca,
        type: 3}
      propertyPath: m_IsActive
      value: 1
      objectReference: {fileID: 0}
    - target: {fileID: 2808769588916042534, guid: 766c57623fc9a2f43b8271eab6ec52ca,
        type: 3}
      propertyPath: m_Color.a
      value: 0
      objectReference: {fileID: 0}
    - target: {fileID: 2808769588916042535, guid: 766c57623fc9a2f43b8271eab6ec52ca,
        type: 3}
      propertyPath: m_RootOrder
      value: 0
      objectReference: {fileID: 0}
    - target: {fileID: 2808769588916042535, guid: 766c57623fc9a2f43b8271eab6ec52ca,
        type: 3}
      propertyPath: m_LocalPosition.x
      value: -105.84
      objectReference: {fileID: 0}
    - target: {fileID: 2808769588916042535, guid: 766c57623fc9a2f43b8271eab6ec52ca,
        type: 3}
      propertyPath: m_LocalPosition.y
      value: -1.104
      objectReference: {fileID: 0}
    - target: {fileID: 2808769588916042535, guid: 766c57623fc9a2f43b8271eab6ec52ca,
        type: 3}
      propertyPath: m_LocalPosition.z
      value: 0
      objectReference: {fileID: 0}
    - target: {fileID: 2808769588916042535, guid: 766c57623fc9a2f43b8271eab6ec52ca,
        type: 3}
      propertyPath: m_LocalRotation.w
      value: 1
      objectReference: {fileID: 0}
    - target: {fileID: 2808769588916042535, guid: 766c57623fc9a2f43b8271eab6ec52ca,
        type: 3}
      propertyPath: m_LocalRotation.x
      value: 0
      objectReference: {fileID: 0}
    - target: {fileID: 2808769588916042535, guid: 766c57623fc9a2f43b8271eab6ec52ca,
        type: 3}
      propertyPath: m_LocalRotation.y
      value: 0
      objectReference: {fileID: 0}
    - target: {fileID: 2808769588916042535, guid: 766c57623fc9a2f43b8271eab6ec52ca,
        type: 3}
      propertyPath: m_LocalRotation.z
      value: 0
      objectReference: {fileID: 0}
    - target: {fileID: 2808769588916042535, guid: 766c57623fc9a2f43b8271eab6ec52ca,
        type: 3}
      propertyPath: m_LocalEulerAnglesHint.x
      value: 0
      objectReference: {fileID: 0}
    - target: {fileID: 2808769588916042535, guid: 766c57623fc9a2f43b8271eab6ec52ca,
        type: 3}
      propertyPath: m_LocalEulerAnglesHint.y
      value: 0
      objectReference: {fileID: 0}
    - target: {fileID: 2808769588916042535, guid: 766c57623fc9a2f43b8271eab6ec52ca,
        type: 3}
      propertyPath: m_LocalEulerAnglesHint.z
      value: 0
      objectReference: {fileID: 0}
    - target: {fileID: 2808769588916042537, guid: 766c57623fc9a2f43b8271eab6ec52ca,
        type: 3}
      propertyPath: m_Size.x
      value: 0.66578674
      objectReference: {fileID: 0}
    - target: {fileID: 2808769588916042537, guid: 766c57623fc9a2f43b8271eab6ec52ca,
        type: 3}
      propertyPath: m_Size.y
      value: 0.6293092
      objectReference: {fileID: 0}
    - target: {fileID: 2808769588916042537, guid: 766c57623fc9a2f43b8271eab6ec52ca,
        type: 3}
      propertyPath: m_Offset.x
      value: -1.0553589
      objectReference: {fileID: 0}
    - target: {fileID: 2808769588916042537, guid: 766c57623fc9a2f43b8271eab6ec52ca,
        type: 3}
      propertyPath: m_Offset.y
      value: -1.1103454
      objectReference: {fileID: 0}
    - target: {fileID: 5913166304386046167, guid: 766c57623fc9a2f43b8271eab6ec52ca,
        type: 3}
      propertyPath: m_LocalScale.x
      value: 0.4836056
      objectReference: {fileID: 0}
    - target: {fileID: 5913166304386046167, guid: 766c57623fc9a2f43b8271eab6ec52ca,
        type: 3}
      propertyPath: m_LocalScale.y
      value: 0.4836056
      objectReference: {fileID: 0}
    - target: {fileID: 5913166304386046167, guid: 766c57623fc9a2f43b8271eab6ec52ca,
        type: 3}
      propertyPath: m_LocalScale.z
      value: 0.4836056
      objectReference: {fileID: 0}
    - target: {fileID: 5913166304386046167, guid: 766c57623fc9a2f43b8271eab6ec52ca,
        type: 3}
      propertyPath: m_LocalPosition.y
      value: 0.21
      objectReference: {fileID: 0}
    m_RemovedComponents: []
  m_SourcePrefab: {fileID: 100100000, guid: 766c57623fc9a2f43b8271eab6ec52ca, type: 3}
--- !u!4 &3697845153593927057 stripped
Transform:
  m_CorrespondingSourceObject: {fileID: 2808769588916042535, guid: 766c57623fc9a2f43b8271eab6ec52ca,
    type: 3}
  m_PrefabInstance: {fileID: 1561521588323425974}
  m_PrefabAsset: {fileID: 0}
