%YAML 1.1
%TAG !u! tag:unity3d.com,2011:
--- !u!74 &7400000
AnimationClip:
  m_ObjectHideFlags: 0
  m_CorrespondingSourceObject: {fileID: 0}
  m_PrefabInstance: {fileID: 0}
  m_PrefabAsset: {fileID: 0}
  m_Name: PlantaMuerte
  serializedVersion: 6
  m_Legacy: 0
  m_Compressed: 0
  m_UseHighQualityCurve: 1
  m_RotationCurves: []
  m_CompressedRotationCurves: []
  m_EulerCurves: []
  m_PositionCurves: []
  m_ScaleCurves: []
  m_FloatCurves: []
  m_PPtrCurves:
  - curve:
    - time: 0
      value: {fileID: 21300000, guid: 37dd2df080212e240a05be684e2d585b, type: 3}
    - time: 0.041666668
      value: {fileID: 21300000, guid: f70b99c3201b24b4f9b8b5a43dd95eda, type: 3}
    - time: 0.083333336
      value: {fileID: 21300000, guid: 140a5f64c918f624895d3ec196f5c547, type: 3}
    - time: 0.125
      value: {fileID: 21300000, guid: d7ff9b5126186f74d9d6db98ab7d0210, type: 3}
    - time: 0.16666667
      value: {fileID: 21300000, guid: 83b0d42d79d97d74da8170e0bf7be874, type: 3}
    - time: 0.20833333
      value: {fileID: 21300000, guid: 4cc7211e1de49af4981ef79e85e96333, type: 3}
    - time: 0.25
      value: {fileID: 21300000, guid: 7fe9a7e363bce994ca80c2963f6b1021, type: 3}
    - time: 0.29166666
      value: {fileID: 21300000, guid: 918f4772d52510943b2a227915319574, type: 3}
    - time: 0.33333334
      value: {fileID: 21300000, guid: 6bfababcdd4fc1a419412612ce88aff4, type: 3}
    - time: 0.375
      value: {fileID: 21300000, guid: d2c582096ccf102408890fe8b37b6ef7, type: 3}
    - time: 0.41666666
      value: {fileID: 21300000, guid: ef375ce439db1d1408ad36eaf80bb8bf, type: 3}
    - time: 0.45833334
      value: {fileID: 21300000, guid: 78c7f954f599fb646a4d64d7e16727c7, type: 3}
    - time: 0.5
      value: {fileID: 21300000, guid: c99c56754d4c22040a227900b6553775, type: 3}
    - time: 0.5416667
      value: {fileID: 21300000, guid: d4b4255105c272f45990c6fa16ff75d9, type: 3}
    - time: 0.5833333
      value: {fileID: 21300000, guid: c083098527d5c5b4c982953ed277e322, type: 3}
    - time: 0.625
      value: {fileID: 21300000, guid: ba9887ffb605f4942bb33c24394caae5, type: 3}
    - time: 0.6666667
      value: {fileID: 21300000, guid: d0fdcf6efedd710498c520a05a55bf8d, type: 3}
    - time: 0.7083333
      value: {fileID: 21300000, guid: b56e15474cb5f8a428056de9ee478ee0, type: 3}
    - time: 0.75
      value: {fileID: 21300000, guid: 7459cefcba6352d47b6e34d5e0424582, type: 3}
    - time: 0.7916667
      value: {fileID: 21300000, guid: 80de13cb03e31614f82b1b2c256345c5, type: 3}
    - time: 0.8333333
      value: {fileID: 21300000, guid: c31590c4c62ce3f4bbeadf72c5da4537, type: 3}
    - time: 0.875
      value: {fileID: 21300000, guid: 3fee4b994d1c92b47bb6bc01f436c5c1, type: 3}
    - time: 1.25
      value: {fileID: 21300000, guid: 3fee4b994d1c92b47bb6bc01f436c5c1, type: 3}
    attribute: m_Sprite
    path: 
    classID: 212
    script: {fileID: 0}
  m_SampleRate: 24
  m_WrapMode: 0
  m_Bounds:
    m_Center: {x: 0, y: 0, z: 0}
    m_Extent: {x: 0, y: 0, z: 0}
  m_ClipBindingConstant:
    genericBindings:
    - serializedVersion: 2
      path: 0
      attribute: 0
      script: {fileID: 0}
      typeID: 212
      customType: 23
      isPPtrCurve: 1
    pptrCurveMapping:
    - {fileID: 21300000, guid: 37dd2df080212e240a05be684e2d585b, type: 3}
    - {fileID: 21300000, guid: f70b99c3201b24b4f9b8b5a43dd95eda, type: 3}
    - {fileID: 21300000, guid: 140a5f64c918f624895d3ec196f5c547, type: 3}
    - {fileID: 21300000, guid: d7ff9b5126186f74d9d6db98ab7d0210, type: 3}
    - {fileID: 21300000, guid: 83b0d42d79d97d74da8170e0bf7be874, type: 3}
    - {fileID: 21300000, guid: 4cc7211e1de49af4981ef79e85e96333, type: 3}
    - {fileID: 21300000, guid: 7fe9a7e363bce994ca80c2963f6b1021, type: 3}
    - {fileID: 21300000, guid: 918f4772d52510943b2a227915319574, type: 3}
    - {fileID: 21300000, guid: 6bfababcdd4fc1a419412612ce88aff4, type: 3}
    - {fileID: 21300000, guid: d2c582096ccf102408890fe8b37b6ef7, type: 3}
    - {fileID: 21300000, guid: ef375ce439db1d1408ad36eaf80bb8bf, type: 3}
    - {fileID: 21300000, guid: 78c7f954f599fb646a4d64d7e16727c7, type: 3}
    - {fileID: 21300000, guid: c99c56754d4c22040a227900b6553775, type: 3}
    - {fileID: 21300000, guid: d4b4255105c272f45990c6fa16ff75d9, type: 3}
    - {fileID: 21300000, guid: c083098527d5c5b4c982953ed277e322, type: 3}
    - {fileID: 21300000, guid: ba9887ffb605f4942bb33c24394caae5, type: 3}
    - {fileID: 21300000, guid: d0fdcf6efedd710498c520a05a55bf8d, type: 3}
    - {fileID: 21300000, guid: b56e15474cb5f8a428056de9ee478ee0, type: 3}
    - {fileID: 21300000, guid: 7459cefcba6352d47b6e34d5e0424582, type: 3}
    - {fileID: 21300000, guid: 80de13cb03e31614f82b1b2c256345c5, type: 3}
    - {fileID: 21300000, guid: c31590c4c62ce3f4bbeadf72c5da4537, type: 3}
    - {fileID: 21300000, guid: 3fee4b994d1c92b47bb6bc01f436c5c1, type: 3}
    - {fileID: 21300000, guid: 3fee4b994d1c92b47bb6bc01f436c5c1, type: 3}
  m_AnimationClipSettings:
    serializedVersion: 2
    m_AdditiveReferencePoseClip: {fileID: 0}
    m_AdditiveReferencePoseTime: 0
    m_StartTime: 0
    m_StopTime: 1.2916666
    m_OrientationOffsetY: 0
    m_Level: 0
    m_CycleOffset: 0
    m_HasAdditiveReferencePose: 0
    m_LoopTime: 1
    m_LoopBlend: 0
    m_LoopBlendOrientation: 0
    m_LoopBlendPositionY: 0
    m_LoopBlendPositionXZ: 0
    m_KeepOriginalOrientation: 0
    m_KeepOriginalPositionY: 1
    m_KeepOriginalPositionXZ: 0
    m_HeightFromFeet: 0
    m_Mirror: 0
  m_EditorCurves: []
  m_EulerEditorCurves: []
  m_HasGenericRootTransform: 0
  m_HasMotionFloatCurves: 0
  m_Events: []
