%YAML 1.1
%TAG !u! tag:unity3d.com,2011:
--- !u!74 &7400000
AnimationClip:
  m_ObjectHideFlags: 0
  m_CorrespondingSourceObject: {fileID: 0}
  m_PrefabInstance: {fileID: 0}
  m_PrefabAsset: {fileID: 0}
  m_Name: EsporaSeta
  serializedVersion: 6
  m_Legacy: 0
  m_Compressed: 0
  m_UseHighQualityCurve: 1
  m_RotationCurves: []
  m_CompressedRotationCurves: []
  m_EulerCurves: []
  m_PositionCurves: []
  m_ScaleCurves: []
  m_FloatCurves:
  - curve:
      serializedVersion: 2
      m_Curve:
      - serializedVersion: 3
        time: 0
        value: 0.19768643
        inSlope: 0
        outSlope: 0
        tangentMode: 136
        weightedMode: 0
        inWeight: 0.33333334
        outWeight: 0.33333334
      - serializedVersion: 3
        time: 0.41666666
        value: 0.22239733
        inSlope: 0
        outSlope: 0
        tangentMode: 136
        weightedMode: 0
        inWeight: 0.33333334
        outWeight: 0.33333334
      m_PreInfinity: 2
      m_PostInfinity: 2
      m_RotationOrder: 4
    attribute: m_Offset.y
    path: 
    classID: 61
    script: {fileID: 0}
  - curve:
      serializedVersion: 2
      m_Curve:
      - serializedVersion: 3
        time: 0
        value: 1.2769132
        inSlope: 0
        outSlope: 0
        tangentMode: 136
        weightedMode: 0
        inWeight: 0.33333334
        outWeight: 0.33333334
      - serializedVersion: 3
        time: 0.41666666
        value: 1.326335
        inSlope: 0
        outSlope: 0
        tangentMode: 136
        weightedMode: 0
        inWeight: 0.33333334
        outWeight: 0.33333334
      m_PreInfinity: 2
      m_PostInfinity: 2
      m_RotationOrder: 4
    attribute: m_Size.y
    path: 
    classID: 61
    script: {fileID: 0}
  - curve:
      serializedVersion: 2
      m_Curve:
      - serializedVersion: 3
        time: 0
        value: -0.20592499
        inSlope: 0
        outSlope: 0
        tangentMode: 136
        weightedMode: 0
        inWeight: 0.33333334
        outWeight: 0.33333334
      - serializedVersion: 3
        time: 0.41666666
        value: 0.04941559
        inSlope: 0
        outSlope: 0
        tangentMode: 136
        weightedMode: 0
        inWeight: 0.33333334
        outWeight: 0.33333334
      - serializedVersion: 3
        time: 0.875
        value: 0.024711609
        inSlope: 0
        outSlope: 0
        tangentMode: 136
        weightedMode: 0
        inWeight: 0.33333334
        outWeight: 0.33333334
      - serializedVersion: 3
        time: 1.7916666
        value: 0.0411911
        inSlope: 0
        outSlope: 0
        tangentMode: 136
        weightedMode: 0
        inWeight: 0.33333334
        outWeight: 0.33333334
      - serializedVersion: 3
        time: 2
        value: 0.016479492
        inSlope: 0
        outSlope: 0
        tangentMode: 136
        weightedMode: 0
        inWeight: 0.33333334
        outWeight: 0.33333334
      m_PreInfinity: 2
      m_PostInfinity: 2
      m_RotationOrder: 4
    attribute: m_Offset.x
    path: 
    classID: 61
    script: {fileID: 0}
  - curve:
      serializedVersion: 2
      m_Curve:
      - serializedVersion: 3
        time: 0
        value: 1.8205414
        inSlope: 0
        outSlope: 0
        tangentMode: 136
        weightedMode: 0
        inWeight: 0.33333334
        outWeight: 0.33333334
      - serializedVersion: 3
        time: 0.41666666
        value: 3.6161957
        inSlope: 0
        outSlope: 0
        tangentMode: 136
        weightedMode: 0
        inWeight: 0.33333334
        outWeight: 0.33333334
      - serializedVersion: 3
        time: 0.875
        value: 2.0841217
        inSlope: 0
        outSlope: 0
        tangentMode: 136
        weightedMode: 0
        inWeight: 0.33333334
        outWeight: 0.33333334
      - serializedVersion: 3
        time: 1.7916666
        value: 3.5997162
        inSlope: 0
        outSlope: 0
        tangentMode: 136
        weightedMode: 0
        inWeight: 0.33333334
        outWeight: 0.33333334
      - serializedVersion: 3
        time: 2
        value: 2.891327
        inSlope: 0
        outSlope: 0
        tangentMode: 136
        weightedMode: 0
        inWeight: 0.33333334
        outWeight: 0.33333334
      m_PreInfinity: 2
      m_PostInfinity: 2
      m_RotationOrder: 4
    attribute: m_Size.x
    path: 
    classID: 61
    script: {fileID: 0}
  m_PPtrCurves:
  - curve:
    - time: 0
      value: {fileID: 21300000, guid: c82e2f87feb3d994fafe141f397dc5c7, type: 3}
    - time: 0.041666668
      value: {fileID: 21300000, guid: 6e9c2413b89b1094ca602fad1f94cd09, type: 3}
    - time: 0.083333336
      value: {fileID: 21300000, guid: 707ea1f7b8c5a2e48be47aa57ff6bccb, type: 3}
    - time: 0.125
      value: {fileID: 21300000, guid: 7cbc005266280264b8baee3843e3c760, type: 3}
    - time: 0.16666667
      value: {fileID: 21300000, guid: 71217336a66f70b49826690898b20ac8, type: 3}
    - time: 0.20833333
      value: {fileID: 21300000, guid: 283a46013acaf5a4084baf0749e619ba, type: 3}
    - time: 0.25
      value: {fileID: 21300000, guid: 0e870070c0428124aa2802eec4c9a69d, type: 3}
    - time: 0.29166666
      value: {fileID: 21300000, guid: 2cfdb455830821d4db2e2103f7d4883f, type: 3}
    - time: 0.33333334
      value: {fileID: 21300000, guid: 5c2898370f7e4e94a9916852ed3c08f9, type: 3}
    - time: 0.375
      value: {fileID: 21300000, guid: 2988f915b31b8c84b867131547c8a3d2, type: 3}
    - time: 0.41666666
      value: {fileID: 21300000, guid: 4c53e17ab10acdf49a729a7d822155e4, type: 3}
    - time: 0.45833334
      value: {fileID: 21300000, guid: 03555591840163f438c40d1f8e274205, type: 3}
    - time: 0.5
      value: {fileID: 21300000, guid: 67a8b7144c761b348bf79ac309106e76, type: 3}
    - time: 0.5416667
      value: {fileID: 21300000, guid: fcaa3934185fc514eb84989e73d92a43, type: 3}
    - time: 0.5833333
      value: {fileID: 21300000, guid: e7217906ccdc96644afc282a81ff2c62, type: 3}
    - time: 0.625
      value: {fileID: 21300000, guid: b932f4072d7815a4cb03c46b02609aa6, type: 3}
    - time: 0.6666667
      value: {fileID: 21300000, guid: 08b75f3b098598c40b8e764f65b55549, type: 3}
    - time: 0.7083333
      value: {fileID: 21300000, guid: bc18eb30e7898664cb3ca6b9417bb9bf, type: 3}
    - time: 0.75
      value: {fileID: 21300000, guid: 95f1474933079ce4abbdadacd15027de, type: 3}
    - time: 0.7916667
      value: {fileID: 21300000, guid: 84cfaf3fd77f30340b1db71c49b197ab, type: 3}
    - time: 0.8333333
      value: {fileID: 21300000, guid: 5529360f3705f8a46b13e3d221eb75f5, type: 3}
    - time: 0.875
      value: {fileID: 21300000, guid: bec6edef5221cb448a68f16d733f2f4f, type: 3}
    - time: 0.9166667
      value: {fileID: 21300000, guid: 6868fbf7290e08c448cd0417d51ca1ef, type: 3}
    - time: 0.9583333
      value: {fileID: 21300000, guid: 74e8540e49f972d498ed778936382487, type: 3}
    - time: 1
      value: {fileID: 21300000, guid: 66b3b1b59d88558409448475b71a94cd, type: 3}
    - time: 1.0416666
      value: {fileID: 21300000, guid: 1f6046bce2713f9438c63d15ad394e3c, type: 3}
    - time: 1.0833334
      value: {fileID: 21300000, guid: 3e7874c6c0049e94bb2802c22dc2d85a, type: 3}
    - time: 1.125
      value: {fileID: 21300000, guid: 13c8aa1a86364e545b626a1aafe08dc8, type: 3}
    - time: 1.1666666
      value: {fileID: 21300000, guid: d041c373f8003944296fbe570f8af7fb, type: 3}
    - time: 1.2083334
      value: {fileID: 21300000, guid: c82e2f87feb3d994fafe141f397dc5c7, type: 3}
    - time: 1.25
      value: {fileID: 21300000, guid: 6e9c2413b89b1094ca602fad1f94cd09, type: 3}
    - time: 1.2916666
      value: {fileID: 21300000, guid: 707ea1f7b8c5a2e48be47aa57ff6bccb, type: 3}
    - time: 1.3333334
      value: {fileID: 21300000, guid: 7cbc005266280264b8baee3843e3c760, type: 3}
    - time: 1.375
      value: {fileID: 21300000, guid: 71217336a66f70b49826690898b20ac8, type: 3}
    - time: 1.4166666
      value: {fileID: 21300000, guid: 283a46013acaf5a4084baf0749e619ba, type: 3}
    - time: 1.4583334
      value: {fileID: 21300000, guid: 0e870070c0428124aa2802eec4c9a69d, type: 3}
    - time: 1.5
      value: {fileID: 21300000, guid: 2cfdb455830821d4db2e2103f7d4883f, type: 3}
    - time: 1.5416666
      value: {fileID: 21300000, guid: 5c2898370f7e4e94a9916852ed3c08f9, type: 3}
    - time: 1.5833334
      value: {fileID: 21300000, guid: 2988f915b31b8c84b867131547c8a3d2, type: 3}
    - time: 1.625
      value: {fileID: 21300000, guid: 4c53e17ab10acdf49a729a7d822155e4, type: 3}
    - time: 1.6666666
      value: {fileID: 21300000, guid: 03555591840163f438c40d1f8e274205, type: 3}
    - time: 1.7083334
      value: {fileID: 21300000, guid: 67a8b7144c761b348bf79ac309106e76, type: 3}
    - time: 1.75
      value: {fileID: 21300000, guid: fcaa3934185fc514eb84989e73d92a43, type: 3}
    - time: 1.7916666
      value: {fileID: 21300000, guid: e7217906ccdc96644afc282a81ff2c62, type: 3}
    - time: 1.8333334
      value: {fileID: 21300000, guid: b932f4072d7815a4cb03c46b02609aa6, type: 3}
    - time: 1.875
      value: {fileID: 21300000, guid: 08b75f3b098598c40b8e764f65b55549, type: 3}
    - time: 1.9166666
      value: {fileID: 21300000, guid: bc18eb30e7898664cb3ca6b9417bb9bf, type: 3}
    - time: 1.9583334
      value: {fileID: 21300000, guid: 95f1474933079ce4abbdadacd15027de, type: 3}
    - time: 2
      value: {fileID: 21300000, guid: 84cfaf3fd77f30340b1db71c49b197ab, type: 3}
    - time: 2.0416667
      value: {fileID: 21300000, guid: 5529360f3705f8a46b13e3d221eb75f5, type: 3}
    - time: 2.0833333
      value: {fileID: 21300000, guid: bec6edef5221cb448a68f16d733f2f4f, type: 3}
    - time: 2.125
      value: {fileID: 21300000, guid: 6868fbf7290e08c448cd0417d51ca1ef, type: 3}
    - time: 2.1666667
      value: {fileID: 21300000, guid: 74e8540e49f972d498ed778936382487, type: 3}
    - time: 2.2083333
      value: {fileID: 21300000, guid: 66b3b1b59d88558409448475b71a94cd, type: 3}
    - time: 2.25
      value: {fileID: 21300000, guid: 1f6046bce2713f9438c63d15ad394e3c, type: 3}
    - time: 2.2916667
      value: {fileID: 21300000, guid: 3e7874c6c0049e94bb2802c22dc2d85a, type: 3}
    - time: 2.3333333
      value: {fileID: 21300000, guid: 13c8aa1a86364e545b626a1aafe08dc8, type: 3}
    - time: 2.375
      value: {fileID: 21300000, guid: d041c373f8003944296fbe570f8af7fb, type: 3}
    attribute: m_Sprite
    path: 
    classID: 212
    script: {fileID: 0}
  m_SampleRate: 24
  m_WrapMode: 0
  m_Bounds:
    m_Center: {x: 0, y: 0, z: 0}
    m_Extent: {x: 0, y: 0, z: 0}
  m_ClipBindingConstant:
    genericBindings:
    - serializedVersion: 2
      path: 0
      attribute: 1872933342
      script: {fileID: 0}
      typeID: 61
      customType: 0
      isPPtrCurve: 0
    - serializedVersion: 2
      path: 0
      attribute: 2368279999
      script: {fileID: 0}
      typeID: 61
      customType: 0
      isPPtrCurve: 0
    - serializedVersion: 2
      path: 0
      attribute: 413499720
      script: {fileID: 0}
      typeID: 61
      customType: 0
      isPPtrCurve: 0
    - serializedVersion: 2
      path: 0
      attribute: 4197328169
      script: {fileID: 0}
      typeID: 61
      customType: 0
      isPPtrCurve: 0
    - serializedVersion: 2
      path: 0
      attribute: 0
      script: {fileID: 0}
      typeID: 212
      customType: 23
      isPPtrCurve: 1
    pptrCurveMapping:
    - {fileID: 21300000, guid: c82e2f87feb3d994fafe141f397dc5c7, type: 3}
    - {fileID: 21300000, guid: 6e9c2413b89b1094ca602fad1f94cd09, type: 3}
    - {fileID: 21300000, guid: 707ea1f7b8c5a2e48be47aa57ff6bccb, type: 3}
    - {fileID: 21300000, guid: 7cbc005266280264b8baee3843e3c760, type: 3}
    - {fileID: 21300000, guid: 71217336a66f70b49826690898b20ac8, type: 3}
    - {fileID: 21300000, guid: 283a46013acaf5a4084baf0749e619ba, type: 3}
    - {fileID: 21300000, guid: 0e870070c0428124aa2802eec4c9a69d, type: 3}
    - {fileID: 21300000, guid: 2cfdb455830821d4db2e2103f7d4883f, type: 3}
    - {fileID: 21300000, guid: 5c2898370f7e4e94a9916852ed3c08f9, type: 3}
    - {fileID: 21300000, guid: 2988f915b31b8c84b867131547c8a3d2, type: 3}
    - {fileID: 21300000, guid: 4c53e17ab10acdf49a729a7d822155e4, type: 3}
    - {fileID: 21300000, guid: 03555591840163f438c40d1f8e274205, type: 3}
    - {fileID: 21300000, guid: 67a8b7144c761b348bf79ac309106e76, type: 3}
    - {fileID: 21300000, guid: fcaa3934185fc514eb84989e73d92a43, type: 3}
    - {fileID: 21300000, guid: e7217906ccdc96644afc282a81ff2c62, type: 3}
    - {fileID: 21300000, guid: b932f4072d7815a4cb03c46b02609aa6, type: 3}
    - {fileID: 21300000, guid: 08b75f3b098598c40b8e764f65b55549, type: 3}
    - {fileID: 21300000, guid: bc18eb30e7898664cb3ca6b9417bb9bf, type: 3}
    - {fileID: 21300000, guid: 95f1474933079ce4abbdadacd15027de, type: 3}
    - {fileID: 21300000, guid: 84cfaf3fd77f30340b1db71c49b197ab, type: 3}
    - {fileID: 21300000, guid: 5529360f3705f8a46b13e3d221eb75f5, type: 3}
    - {fileID: 21300000, guid: bec6edef5221cb448a68f16d733f2f4f, type: 3}
    - {fileID: 21300000, guid: 6868fbf7290e08c448cd0417d51ca1ef, type: 3}
    - {fileID: 21300000, guid: 74e8540e49f972d498ed778936382487, type: 3}
    - {fileID: 21300000, guid: 66b3b1b59d88558409448475b71a94cd, type: 3}
    - {fileID: 21300000, guid: 1f6046bce2713f9438c63d15ad394e3c, type: 3}
    - {fileID: 21300000, guid: 3e7874c6c0049e94bb2802c22dc2d85a, type: 3}
    - {fileID: 21300000, guid: 13c8aa1a86364e545b626a1aafe08dc8, type: 3}
    - {fileID: 21300000, guid: d041c373f8003944296fbe570f8af7fb, type: 3}
    - {fileID: 21300000, guid: c82e2f87feb3d994fafe141f397dc5c7, type: 3}
    - {fileID: 21300000, guid: 6e9c2413b89b1094ca602fad1f94cd09, type: 3}
    - {fileID: 21300000, guid: 707ea1f7b8c5a2e48be47aa57ff6bccb, type: 3}
    - {fileID: 21300000, guid: 7cbc005266280264b8baee3843e3c760, type: 3}
    - {fileID: 21300000, guid: 71217336a66f70b49826690898b20ac8, type: 3}
    - {fileID: 21300000, guid: 283a46013acaf5a4084baf0749e619ba, type: 3}
    - {fileID: 21300000, guid: 0e870070c0428124aa2802eec4c9a69d, type: 3}
    - {fileID: 21300000, guid: 2cfdb455830821d4db2e2103f7d4883f, type: 3}
    - {fileID: 21300000, guid: 5c2898370f7e4e94a9916852ed3c08f9, type: 3}
    - {fileID: 21300000, guid: 2988f915b31b8c84b867131547c8a3d2, type: 3}
    - {fileID: 21300000, guid: 4c53e17ab10acdf49a729a7d822155e4, type: 3}
    - {fileID: 21300000, guid: 03555591840163f438c40d1f8e274205, type: 3}
    - {fileID: 21300000, guid: 67a8b7144c761b348bf79ac309106e76, type: 3}
    - {fileID: 21300000, guid: fcaa3934185fc514eb84989e73d92a43, type: 3}
    - {fileID: 21300000, guid: e7217906ccdc96644afc282a81ff2c62, type: 3}
    - {fileID: 21300000, guid: b932f4072d7815a4cb03c46b02609aa6, type: 3}
    - {fileID: 21300000, guid: 08b75f3b098598c40b8e764f65b55549, type: 3}
    - {fileID: 21300000, guid: bc18eb30e7898664cb3ca6b9417bb9bf, type: 3}
    - {fileID: 21300000, guid: 95f1474933079ce4abbdadacd15027de, type: 3}
    - {fileID: 21300000, guid: 84cfaf3fd77f30340b1db71c49b197ab, type: 3}
    - {fileID: 21300000, guid: 5529360f3705f8a46b13e3d221eb75f5, type: 3}
    - {fileID: 21300000, guid: bec6edef5221cb448a68f16d733f2f4f, type: 3}
    - {fileID: 21300000, guid: 6868fbf7290e08c448cd0417d51ca1ef, type: 3}
    - {fileID: 21300000, guid: 74e8540e49f972d498ed778936382487, type: 3}
    - {fileID: 21300000, guid: 66b3b1b59d88558409448475b71a94cd, type: 3}
    - {fileID: 21300000, guid: 1f6046bce2713f9438c63d15ad394e3c, type: 3}
    - {fileID: 21300000, guid: 3e7874c6c0049e94bb2802c22dc2d85a, type: 3}
    - {fileID: 21300000, guid: 13c8aa1a86364e545b626a1aafe08dc8, type: 3}
    - {fileID: 21300000, guid: d041c373f8003944296fbe570f8af7fb, type: 3}
  m_AnimationClipSettings:
    serializedVersion: 2
    m_AdditiveReferencePoseClip: {fileID: 0}
    m_AdditiveReferencePoseTime: 0
    m_StartTime: 0
    m_StopTime: 2.4166667
    m_OrientationOffsetY: 0
    m_Level: 0
    m_CycleOffset: 0
    m_HasAdditiveReferencePose: 0
    m_LoopTime: 1
    m_LoopBlend: 0
    m_LoopBlendOrientation: 0
    m_LoopBlendPositionY: 0
    m_LoopBlendPositionXZ: 0
    m_KeepOriginalOrientation: 0
    m_KeepOriginalPositionY: 1
    m_KeepOriginalPositionXZ: 0
    m_HeightFromFeet: 0
    m_Mirror: 0
  m_EditorCurves:
  - curve:
      serializedVersion: 2
      m_Curve:
      - serializedVersion: 3
        time: 0
        value: 0.19768643
        inSlope: 0
        outSlope: 0
        tangentMode: 136
        weightedMode: 0
        inWeight: 0.33333334
        outWeight: 0.33333334
      - serializedVersion: 3
        time: 0.41666666
        value: 0.22239733
        inSlope: 0
        outSlope: 0
        tangentMode: 136
        weightedMode: 0
        inWeight: 0.33333334
        outWeight: 0.33333334
      m_PreInfinity: 2
      m_PostInfinity: 2
      m_RotationOrder: 4
    attribute: m_Offset.y
    path: 
    classID: 61
    script: {fileID: 0}
  - curve:
      serializedVersion: 2
      m_Curve:
      - serializedVersion: 3
        time: 0
        value: 1.2769132
        inSlope: 0
        outSlope: 0
        tangentMode: 136
        weightedMode: 0
        inWeight: 0.33333334
        outWeight: 0.33333334
      - serializedVersion: 3
        time: 0.41666666
        value: 1.326335
        inSlope: 0
        outSlope: 0
        tangentMode: 136
        weightedMode: 0
        inWeight: 0.33333334
        outWeight: 0.33333334
      m_PreInfinity: 2
      m_PostInfinity: 2
      m_RotationOrder: 4
    attribute: m_Size.y
    path: 
    classID: 61
    script: {fileID: 0}
  - curve:
      serializedVersion: 2
      m_Curve:
      - serializedVersion: 3
        time: 0
        value: -0.20592499
        inSlope: 0
        outSlope: 0
        tangentMode: 136
        weightedMode: 0
        inWeight: 0.33333334
        outWeight: 0.33333334
      - serializedVersion: 3
        time: 0.41666666
        value: 0.04941559
        inSlope: 0
        outSlope: 0
        tangentMode: 136
        weightedMode: 0
        inWeight: 0.33333334
        outWeight: 0.33333334
      - serializedVersion: 3
        time: 0.875
        value: 0.024711609
        inSlope: 0
        outSlope: 0
        tangentMode: 136
        weightedMode: 0
        inWeight: 0.33333334
        outWeight: 0.33333334
      - serializedVersion: 3
        time: 1.7916666
        value: 0.0411911
        inSlope: 0
        outSlope: 0
        tangentMode: 136
        weightedMode: 0
        inWeight: 0.33333334
        outWeight: 0.33333334
      - serializedVersion: 3
        time: 2
        value: 0.016479492
        inSlope: 0
        outSlope: 0
        tangentMode: 136
        weightedMode: 0
        inWeight: 0.33333334
        outWeight: 0.33333334
      m_PreInfinity: 2
      m_PostInfinity: 2
      m_RotationOrder: 4
    attribute: m_Offset.x
    path: 
    classID: 61
    script: {fileID: 0}
  - curve:
      serializedVersion: 2
      m_Curve:
      - serializedVersion: 3
        time: 0
        value: 1.8205414
        inSlope: 0
        outSlope: 0
        tangentMode: 136
        weightedMode: 0
        inWeight: 0.33333334
        outWeight: 0.33333334
      - serializedVersion: 3
        time: 0.41666666
        value: 3.6161957
        inSlope: 0
        outSlope: 0
        tangentMode: 136
        weightedMode: 0
        inWeight: 0.33333334
        outWeight: 0.33333334
      - serializedVersion: 3
        time: 0.875
        value: 2.0841217
        inSlope: 0
        outSlope: 0
        tangentMode: 136
        weightedMode: 0
        inWeight: 0.33333334
        outWeight: 0.33333334
      - serializedVersion: 3
        time: 1.7916666
        value: 3.5997162
        inSlope: 0
        outSlope: 0
        tangentMode: 136
        weightedMode: 0
        inWeight: 0.33333334
        outWeight: 0.33333334
      - serializedVersion: 3
        time: 2
        value: 2.891327
        inSlope: 0
        outSlope: 0
        tangentMode: 136
        weightedMode: 0
        inWeight: 0.33333334
        outWeight: 0.33333334
      m_PreInfinity: 2
      m_PostInfinity: 2
      m_RotationOrder: 4
    attribute: m_Size.x
    path: 
    classID: 61
    script: {fileID: 0}
  m_EulerEditorCurves: []
  m_HasGenericRootTransform: 0
  m_HasMotionFloatCurves: 0
  m_Events:
  - time: 2
    functionName: Desvanecer
    data: 
    objectReferenceParameter: {fileID: 0}
    floatParameter: 0
    intParameter: 0
    messageOptions: 0
