%YAML 1.1
%TAG !u! tag:unity3d.com,2011:
--- !u!74 &7400000
AnimationClip:
  m_ObjectHideFlags: 0
  m_CorrespondingSourceObject: {fileID: 0}
  m_PrefabInstance: {fileID: 0}
  m_PrefabAsset: {fileID: 0}
  m_Name: AjoloteJump
  serializedVersion: 6
  m_Legacy: 0
  m_Compressed: 0
  m_UseHighQualityCurve: 1
  m_RotationCurves: []
  m_CompressedRotationCurves: []
  m_EulerCurves: []
  m_PositionCurves: []
  m_ScaleCurves: []
  m_FloatCurves: []
  m_PPtrCurves:
  - curve:
    - time: 0
      value: {fileID: 21300000, guid: d5bfe0344efdf8546af4a5934488b85a, type: 3}
    - time: 0.025
      value: {fileID: 21300000, guid: fdd25494d903c9d45b3de78acf3c2fc3, type: 3}
    - time: 0.05
      value: {fileID: 21300000, guid: 1725af981bd04ab40bf89e8a300f508c, type: 3}
    - time: 0.075
      value: {fileID: 21300000, guid: 24e827e8b8c7ff645a86e99924e18239, type: 3}
    - time: 0.1
      value: {fileID: 21300000, guid: e88f7b95b776b3e43b4b97457bbd1e0f, type: 3}
    - time: 0.125
      value: {fileID: 21300000, guid: a7ec5b5a4c1e6474e9a89c24fe695bde, type: 3}
    - time: 0.15
      value: {fileID: 21300000, guid: 2555c953955833b46bd418a4679710e8, type: 3}
    - time: 0.175
      value: {fileID: 21300000, guid: 0c7b40e4633312a4c93f4a1684ccff2d, type: 3}
    - time: 0.2
      value: {fileID: 21300000, guid: a11f45a5c0ba05b4685319b14d81e77b, type: 3}
    - time: 0.225
      value: {fileID: 21300000, guid: 8dc65e1b6536797428e3c1e66a54cb58, type: 3}
    - time: 0.25
      value: {fileID: 21300000, guid: 713ecfe8cec8e5d40bdda5de1ef048ea, type: 3}
    - time: 0.275
      value: {fileID: 21300000, guid: 559e2c2c64947ac4f8538da3f2d0ecf2, type: 3}
    - time: 0.3
      value: {fileID: 21300000, guid: f40ec9bebb610f34295046cd0b2d2e89, type: 3}
    - time: 0.325
      value: {fileID: 21300000, guid: 34167a49e50edbd44ab323c448e93b6f, type: 3}
    - time: 0.35
      value: {fileID: 21300000, guid: 157653834527a744889373d3a0c586d2, type: 3}
    - time: 0.375
      value: {fileID: 21300000, guid: 5770276b458dfec40997dc260582fc14, type: 3}
    - time: 0.4
      value: {fileID: 21300000, guid: df998adbabfc5544e81e8177901ea26b, type: 3}
    - time: 0.425
      value: {fileID: 21300000, guid: 326f204d058425f42a129ec7ee30ce1d, type: 3}
    - time: 0.45
      value: {fileID: 21300000, guid: 699b0927b02915549851eb8047325d5c, type: 3}
    - time: 0.475
      value: {fileID: 21300000, guid: c04b653190dedaf44a4f9de99f1ff3e2, type: 3}
    - time: 0.5
      value: {fileID: 21300000, guid: 20c090721682bb84a9b98af66efb64c2, type: 3}
    - time: 0.525
      value: {fileID: 21300000, guid: f8f1541ed4afa3f48b0c251375424ff5, type: 3}
    - time: 0.55
      value: {fileID: 21300000, guid: b63636a6347bc2b409279c95472b8f83, type: 3}
    attribute: m_Sprite
    path: 
    classID: 212
    script: {fileID: 0}
  m_SampleRate: 40
  m_WrapMode: 0
  m_Bounds:
    m_Center: {x: 0, y: 0, z: 0}
    m_Extent: {x: 0, y: 0, z: 0}
  m_ClipBindingConstant:
    genericBindings:
    - serializedVersion: 2
      path: 0
      attribute: 0
      script: {fileID: 0}
      typeID: 212
      customType: 23
      isPPtrCurve: 1
    pptrCurveMapping:
    - {fileID: 21300000, guid: d5bfe0344efdf8546af4a5934488b85a, type: 3}
    - {fileID: 21300000, guid: fdd25494d903c9d45b3de78acf3c2fc3, type: 3}
    - {fileID: 21300000, guid: 1725af981bd04ab40bf89e8a300f508c, type: 3}
    - {fileID: 21300000, guid: 24e827e8b8c7ff645a86e99924e18239, type: 3}
    - {fileID: 21300000, guid: e88f7b95b776b3e43b4b97457bbd1e0f, type: 3}
    - {fileID: 21300000, guid: a7ec5b5a4c1e6474e9a89c24fe695bde, type: 3}
    - {fileID: 21300000, guid: 2555c953955833b46bd418a4679710e8, type: 3}
    - {fileID: 21300000, guid: 0c7b40e4633312a4c93f4a1684ccff2d, type: 3}
    - {fileID: 21300000, guid: a11f45a5c0ba05b4685319b14d81e77b, type: 3}
    - {fileID: 21300000, guid: 8dc65e1b6536797428e3c1e66a54cb58, type: 3}
    - {fileID: 21300000, guid: 713ecfe8cec8e5d40bdda5de1ef048ea, type: 3}
    - {fileID: 21300000, guid: 559e2c2c64947ac4f8538da3f2d0ecf2, type: 3}
    - {fileID: 21300000, guid: f40ec9bebb610f34295046cd0b2d2e89, type: 3}
    - {fileID: 21300000, guid: 34167a49e50edbd44ab323c448e93b6f, type: 3}
    - {fileID: 21300000, guid: 157653834527a744889373d3a0c586d2, type: 3}
    - {fileID: 21300000, guid: 5770276b458dfec40997dc260582fc14, type: 3}
    - {fileID: 21300000, guid: df998adbabfc5544e81e8177901ea26b, type: 3}
    - {fileID: 21300000, guid: 326f204d058425f42a129ec7ee30ce1d, type: 3}
    - {fileID: 21300000, guid: 699b0927b02915549851eb8047325d5c, type: 3}
    - {fileID: 21300000, guid: c04b653190dedaf44a4f9de99f1ff3e2, type: 3}
    - {fileID: 21300000, guid: 20c090721682bb84a9b98af66efb64c2, type: 3}
    - {fileID: 21300000, guid: f8f1541ed4afa3f48b0c251375424ff5, type: 3}
    - {fileID: 21300000, guid: b63636a6347bc2b409279c95472b8f83, type: 3}
  m_AnimationClipSettings:
    serializedVersion: 2
    m_AdditiveReferencePoseClip: {fileID: 0}
    m_AdditiveReferencePoseTime: 0
    m_StartTime: 0
    m_StopTime: 0.575
    m_OrientationOffsetY: 0
    m_Level: 0
    m_CycleOffset: 0
    m_HasAdditiveReferencePose: 0
    m_LoopTime: 1
    m_LoopBlend: 0
    m_LoopBlendOrientation: 0
    m_LoopBlendPositionY: 0
    m_LoopBlendPositionXZ: 0
    m_KeepOriginalOrientation: 0
    m_KeepOriginalPositionY: 1
    m_KeepOriginalPositionXZ: 0
    m_HeightFromFeet: 0
    m_Mirror: 0
  m_EditorCurves: []
  m_EulerEditorCurves: []
  m_HasGenericRootTransform: 0
  m_HasMotionFloatCurves: 0
  m_Events:
  - time: 0.575
    functionName: OnFinishAnim
    data: 
    objectReferenceParameter: {fileID: 0}
    floatParameter: 0
    intParameter: 0
    messageOptions: 0
