%YAML 1.1
%TAG !u! tag:unity3d.com,2011:
--- !u!74 &7400000
AnimationClip:
  m_ObjectHideFlags: 0
  m_CorrespondingSourceObject: {fileID: 0}
  m_PrefabInstance: {fileID: 0}
  m_PrefabAsset: {fileID: 0}
  m_Name: AjoloteShoot
  serializedVersion: 6
  m_Legacy: 0
  m_Compressed: 0
  m_UseHighQualityCurve: 1
  m_RotationCurves: []
  m_CompressedRotationCurves: []
  m_EulerCurves: []
  m_PositionCurves: []
  m_ScaleCurves: []
  m_FloatCurves: []
  m_PPtrCurves:
  - curve:
    - time: 0
      value: {fileID: 21300000, guid: ff8a5fd2c9f18a64597084b98de2dbb3, type: 3}
    - time: 0.083333336
      value: {fileID: 21300000, guid: f3dc45e5e5ffe0848aafb904402e3c0f, type: 3}
    - time: 0.16666667
      value: {fileID: 21300000, guid: c052687979037ad4f8a33be59e918b60, type: 3}
    - time: 0.25
      value: {fileID: 21300000, guid: a0a1eab8647af7e4b8ce681002b4f9c9, type: 3}
    - time: 0.33333334
      value: {fileID: 21300000, guid: 0989f34207752994bbacb85e857c5267, type: 3}
    - time: 0.41666666
      value: {fileID: 21300000, guid: 5916de2f9dafbe54381cf2a4ba4cc3df, type: 3}
    - time: 0.5
      value: {fileID: 21300000, guid: 2ddad3d506715be4ab9c84e317b51435, type: 3}
    - time: 0.5833333
      value: {fileID: 21300000, guid: 3dadf1429d7e9b64c98b5b43e3b28895, type: 3}
    - time: 0.6666667
      value: {fileID: 21300000, guid: d572e8c0c649a95478dbf08db1346853, type: 3}
    - time: 0.75
      value: {fileID: 21300000, guid: 3668a8715144fd941aed24feebe50f6b, type: 3}
    - time: 0.8333333
      value: {fileID: 21300000, guid: 52cb313bfa448634991619cafe339de8, type: 3}
    - time: 0.9166667
      value: {fileID: 21300000, guid: d4d07410d9f67ab4888782f25e216d4b, type: 3}
    - time: 3.5
      value: {fileID: 21300000, guid: d4d07410d9f67ab4888782f25e216d4b, type: 3}
    attribute: m_Sprite
    path: 
    classID: 212
    script: {fileID: 0}
  m_SampleRate: 12
  m_WrapMode: 0
  m_Bounds:
    m_Center: {x: 0, y: 0, z: 0}
    m_Extent: {x: 0, y: 0, z: 0}
  m_ClipBindingConstant:
    genericBindings:
    - serializedVersion: 2
      path: 0
      attribute: 0
      script: {fileID: 0}
      typeID: 212
      customType: 23
      isPPtrCurve: 1
    pptrCurveMapping:
    - {fileID: 21300000, guid: ff8a5fd2c9f18a64597084b98de2dbb3, type: 3}
    - {fileID: 21300000, guid: f3dc45e5e5ffe0848aafb904402e3c0f, type: 3}
    - {fileID: 21300000, guid: c052687979037ad4f8a33be59e918b60, type: 3}
    - {fileID: 21300000, guid: a0a1eab8647af7e4b8ce681002b4f9c9, type: 3}
    - {fileID: 21300000, guid: 0989f34207752994bbacb85e857c5267, type: 3}
    - {fileID: 21300000, guid: 5916de2f9dafbe54381cf2a4ba4cc3df, type: 3}
    - {fileID: 21300000, guid: 2ddad3d506715be4ab9c84e317b51435, type: 3}
    - {fileID: 21300000, guid: 3dadf1429d7e9b64c98b5b43e3b28895, type: 3}
    - {fileID: 21300000, guid: d572e8c0c649a95478dbf08db1346853, type: 3}
    - {fileID: 21300000, guid: 3668a8715144fd941aed24feebe50f6b, type: 3}
    - {fileID: 21300000, guid: 52cb313bfa448634991619cafe339de8, type: 3}
    - {fileID: 21300000, guid: d4d07410d9f67ab4888782f25e216d4b, type: 3}
    - {fileID: 21300000, guid: d4d07410d9f67ab4888782f25e216d4b, type: 3}
  m_AnimationClipSettings:
    serializedVersion: 2
    m_AdditiveReferencePoseClip: {fileID: 0}
    m_AdditiveReferencePoseTime: 0
    m_StartTime: 0
    m_StopTime: 3.5833333
    m_OrientationOffsetY: 0
    m_Level: 0
    m_CycleOffset: 0
    m_HasAdditiveReferencePose: 0
    m_LoopTime: 1
    m_LoopBlend: 0
    m_LoopBlendOrientation: 0
    m_LoopBlendPositionY: 0
    m_LoopBlendPositionXZ: 0
    m_KeepOriginalOrientation: 0
    m_KeepOriginalPositionY: 1
    m_KeepOriginalPositionXZ: 0
    m_HeightFromFeet: 0
    m_Mirror: 0
  m_EditorCurves: []
  m_EulerEditorCurves: []
  m_HasGenericRootTransform: 0
  m_HasMotionFloatCurves: 0
  m_Events:
  - time: 3.5
    functionName: OnFinishAnim
    data: 
    objectReferenceParameter: {fileID: 0}
    floatParameter: 0
    intParameter: 0
    messageOptions: 0
