%YAML 1.1
%TAG !u! tag:unity3d.com,2011:
--- !u!74 &7400000
AnimationClip:
  m_ObjectHideFlags: 0
  m_CorrespondingSourceObject: {fileID: 0}
  m_PrefabInstance: {fileID: 0}
  m_PrefabAsset: {fileID: 0}
  m_Name: ExplosionEnemigos
  serializedVersion: 6
  m_Legacy: 0
  m_Compressed: 0
  m_UseHighQualityCurve: 1
  m_RotationCurves: []
  m_CompressedRotationCurves: []
  m_EulerCurves: []
  m_PositionCurves: []
  m_ScaleCurves: []
  m_FloatCurves: []
  m_PPtrCurves:
  - curve:
    - time: 0
      value: {fileID: 21300000, guid: c53cd4f33499bb94aac10772933ea7db, type: 3}
    - time: 0.041666668
      value: {fileID: 21300000, guid: 3a6790179e87fb14495deb15bf697bba, type: 3}
    - time: 0.083333336
      value: {fileID: 21300000, guid: 31879c49d19ce8749ac071f6979eb3d3, type: 3}
    - time: 0.125
      value: {fileID: 21300000, guid: 82258e32e0e0c6041a911b7c90c9c12e, type: 3}
    - time: 0.16666667
      value: {fileID: 21300000, guid: 192b28c7a0aa5584c9f3df98b302116d, type: 3}
    - time: 0.20833333
      value: {fileID: 21300000, guid: a95db57da9bfa454885d2dedfb2730f4, type: 3}
    - time: 0.25
      value: {fileID: 21300000, guid: 2d4b6e8a40abe034b8166f21eef28bf8, type: 3}
    - time: 0.29166666
      value: {fileID: 21300000, guid: 159a11ba190dbb54eadcd26267ef2692, type: 3}
    - time: 0.33333334
      value: {fileID: 21300000, guid: 3bd712290b75eb34e82787473de563c3, type: 3}
    - time: 0.375
      value: {fileID: 21300000, guid: 7babd04bba391f545952de34529f8775, type: 3}
    - time: 0.41666666
      value: {fileID: 21300000, guid: d9ac0733d7bed7b4ab9e16c578c85ea4, type: 3}
    - time: 0.45833334
      value: {fileID: 21300000, guid: 1a8bd9c248697a64899ce3e09ee30158, type: 3}
    - time: 0.5
      value: {fileID: 21300000, guid: c5428817c1b590940b31942588224ab0, type: 3}
    - time: 0.5416667
      value: {fileID: 21300000, guid: 4f2fdc93513b1124b8d06c1010574adc, type: 3}
    - time: 0.5833333
      value: {fileID: 21300000, guid: 0c16b7d8cfc6d664793b2f8944ce327e, type: 3}
    - time: 0.625
      value: {fileID: 21300000, guid: 4042af449065fd843bdb206d8f384ba4, type: 3}
    - time: 0.6666667
      value: {fileID: 21300000, guid: 9803f83f432587c4b8b1b1306d7373e1, type: 3}
    - time: 0.7083333
      value: {fileID: 21300000, guid: d1679085bb8cf794f91a9101d6dea5b1, type: 3}
    - time: 0.75
      value: {fileID: 21300000, guid: 9c3db34c080147b459577e466b6144aa, type: 3}
    - time: 0.7916667
      value: {fileID: 21300000, guid: ff84250c355e8a1478490540677f3bc8, type: 3}
    - time: 0.8333333
      value: {fileID: 21300000, guid: a1a5cb4ebd799c44dbe0abb9f5d2fb20, type: 3}
    - time: 0.875
      value: {fileID: 21300000, guid: 2ad90431f1fe9eb41a2d02ea5ff228d4, type: 3}
    - time: 0.9166667
      value: {fileID: 21300000, guid: 23da336d207478042ba44d3d84192bbc, type: 3}
    - time: 0.9583333
      value: {fileID: 21300000, guid: b92a1bdbd26b0414abb063ae95f032bd, type: 3}
    - time: 1
      value: {fileID: 21300000, guid: 3fbb42ac177898d408d505da08a979ac, type: 3}
    - time: 1.0416666
      value: {fileID: 21300000, guid: 742c0a98a59f0b2439cbd13855ea41e1, type: 3}
    attribute: m_Sprite
    path: 
    classID: 212
    script: {fileID: 0}
  m_SampleRate: 24
  m_WrapMode: 0
  m_Bounds:
    m_Center: {x: 0, y: 0, z: 0}
    m_Extent: {x: 0, y: 0, z: 0}
  m_ClipBindingConstant:
    genericBindings:
    - serializedVersion: 2
      path: 0
      attribute: 0
      script: {fileID: 0}
      typeID: 212
      customType: 23
      isPPtrCurve: 1
    pptrCurveMapping:
    - {fileID: 21300000, guid: c53cd4f33499bb94aac10772933ea7db, type: 3}
    - {fileID: 21300000, guid: 3a6790179e87fb14495deb15bf697bba, type: 3}
    - {fileID: 21300000, guid: 31879c49d19ce8749ac071f6979eb3d3, type: 3}
    - {fileID: 21300000, guid: 82258e32e0e0c6041a911b7c90c9c12e, type: 3}
    - {fileID: 21300000, guid: 192b28c7a0aa5584c9f3df98b302116d, type: 3}
    - {fileID: 21300000, guid: a95db57da9bfa454885d2dedfb2730f4, type: 3}
    - {fileID: 21300000, guid: 2d4b6e8a40abe034b8166f21eef28bf8, type: 3}
    - {fileID: 21300000, guid: 159a11ba190dbb54eadcd26267ef2692, type: 3}
    - {fileID: 21300000, guid: 3bd712290b75eb34e82787473de563c3, type: 3}
    - {fileID: 21300000, guid: 7babd04bba391f545952de34529f8775, type: 3}
    - {fileID: 21300000, guid: d9ac0733d7bed7b4ab9e16c578c85ea4, type: 3}
    - {fileID: 21300000, guid: 1a8bd9c248697a64899ce3e09ee30158, type: 3}
    - {fileID: 21300000, guid: c5428817c1b590940b31942588224ab0, type: 3}
    - {fileID: 21300000, guid: 4f2fdc93513b1124b8d06c1010574adc, type: 3}
    - {fileID: 21300000, guid: 0c16b7d8cfc6d664793b2f8944ce327e, type: 3}
    - {fileID: 21300000, guid: 4042af449065fd843bdb206d8f384ba4, type: 3}
    - {fileID: 21300000, guid: 9803f83f432587c4b8b1b1306d7373e1, type: 3}
    - {fileID: 21300000, guid: d1679085bb8cf794f91a9101d6dea5b1, type: 3}
    - {fileID: 21300000, guid: 9c3db34c080147b459577e466b6144aa, type: 3}
    - {fileID: 21300000, guid: ff84250c355e8a1478490540677f3bc8, type: 3}
    - {fileID: 21300000, guid: a1a5cb4ebd799c44dbe0abb9f5d2fb20, type: 3}
    - {fileID: 21300000, guid: 2ad90431f1fe9eb41a2d02ea5ff228d4, type: 3}
    - {fileID: 21300000, guid: 23da336d207478042ba44d3d84192bbc, type: 3}
    - {fileID: 21300000, guid: b92a1bdbd26b0414abb063ae95f032bd, type: 3}
    - {fileID: 21300000, guid: 3fbb42ac177898d408d505da08a979ac, type: 3}
    - {fileID: 21300000, guid: 742c0a98a59f0b2439cbd13855ea41e1, type: 3}
  m_AnimationClipSettings:
    serializedVersion: 2
    m_AdditiveReferencePoseClip: {fileID: 0}
    m_AdditiveReferencePoseTime: 0
    m_StartTime: 0
    m_StopTime: 1.0833333
    m_OrientationOffsetY: 0
    m_Level: 0
    m_CycleOffset: 0
    m_HasAdditiveReferencePose: 0
    m_LoopTime: 1
    m_LoopBlend: 0
    m_LoopBlendOrientation: 0
    m_LoopBlendPositionY: 0
    m_LoopBlendPositionXZ: 0
    m_KeepOriginalOrientation: 0
    m_KeepOriginalPositionY: 1
    m_KeepOriginalPositionXZ: 0
    m_HeightFromFeet: 0
    m_Mirror: 0
  m_EditorCurves: []
  m_EulerEditorCurves: []
  m_HasGenericRootTransform: 0
  m_HasMotionFloatCurves: 0
  m_Events: []
