-a="D:\Practicas-Oniria World\Plataformas\PlantillaPlataformas\Library\PlayerScriptAssemblies\Assembly-CSharp.dll"
-a="D:\Practicas-Oniria World\Plataformas\PlantillaPlataformas\Library\PlayerScriptAssemblies\Unity.InternalAPIEngineBridge.001.dll"
-a="D:\Practicas-Oniria World\Plataformas\PlantillaPlataformas\Library\PlayerScriptAssemblies\Unity.2D.PixelPerfect.dll"
-a="D:\Practicas-Oniria World\Plataformas\PlantillaPlataformas\Library\PlayerScriptAssemblies\MoreMountains.InventoryEngine.Demos.dll"
-a="D:\Practicas-Oniria World\Plataformas\PlantillaPlataformas\Library\PlayerScriptAssemblies\MoreMountains.CorgiEngine.InputSystem.dll"
-a="D:\Practicas-Oniria World\Plataformas\PlantillaPlataformas\Library\PlayerScriptAssemblies\MoreMountains.Feedbacks.dll"
-a="D:\Practicas-Oniria World\Plataformas\PlantillaPlataformas\Library\PlayerScriptAssemblies\Unity.InputSystem.dll"
-a="D:\Practicas-Oniria World\Plataformas\PlantillaPlataformas\Library\PlayerScriptAssemblies\UnityEngine.UI.dll"
-a="D:\Practicas-Oniria World\Plataformas\PlantillaPlataformas\Library\PlayerScriptAssemblies\MoreMountains.Feedbacks.PostProcessing.dll"
-a="D:\Practicas-Oniria World\Plataformas\PlantillaPlataformas\Library\PlayerScriptAssemblies\MoreMountains.Tools.TextMeshPro.dll"
-a="D:\Practicas-Oniria World\Plataformas\PlantillaPlataformas\Library\PlayerScriptAssemblies\Unity.2D.IK.Runtime.dll"
-a="D:\Practicas-Oniria World\Plataformas\PlantillaPlataformas\Library\PlayerScriptAssemblies\Cinemachine.dll"
-a="D:\Practicas-Oniria World\Plataformas\PlantillaPlataformas\Library\PlayerScriptAssemblies\Unity.2D.Animation.Triangle.Runtime.dll"
-a="D:\Practicas-Oniria World\Plataformas\PlantillaPlataformas\Library\PlayerScriptAssemblies\MoreMountains.InventoryEngine.dll"
-a="D:\Practicas-Oniria World\Plataformas\PlantillaPlataformas\Library\PlayerScriptAssemblies\MoreMountains.CorgiEngine.Cinemachine.dll"
-a="D:\Practicas-Oniria World\Plataformas\PlantillaPlataformas\Library\PlayerScriptAssemblies\MoreMountains.Feedbacks.MMTools.dll"
-a="D:\Practicas-Oniria World\Plataformas\PlantillaPlataformas\Library\PlayerScriptAssemblies\MoreMountains.Feedbacks.TextMeshPro.dll"
-a="D:\Practicas-Oniria World\Plataformas\PlantillaPlataformas\Library\PlayerScriptAssemblies\MoreMountains.CorgiEngine.Demos.dll"
-a="D:\Practicas-Oniria World\Plataformas\PlantillaPlataformas\Library\PlayerScriptAssemblies\UnityEngine.TestRunner.dll"
-a="D:\Practicas-Oniria World\Plataformas\PlantillaPlataformas\Library\PlayerScriptAssemblies\Unity.Timeline.dll"
-a="D:\Practicas-Oniria World\Plataformas\PlantillaPlataformas\Library\PlayerScriptAssemblies\Unity.TextMeshPro.dll"
-a="D:\Practicas-Oniria World\Plataformas\PlantillaPlataformas\Library\PlayerScriptAssemblies\Unity.Mathematics.dll"
-a="D:\Practicas-Oniria World\Plataformas\PlantillaPlataformas\Library\PlayerScriptAssemblies\MoreMountains.CorgiEngine.dll"
-a="D:\Practicas-Oniria World\Plataformas\PlantillaPlataformas\Library\PlayerScriptAssemblies\Unity.Postprocessing.Runtime.dll"
-a="D:\Practicas-Oniria World\Plataformas\PlantillaPlataformas\Library\PlayerScriptAssemblies\MoreMountains.Interface.dll"
-a="D:\Practicas-Oniria World\Plataformas\PlantillaPlataformas\Library\PlayerScriptAssemblies\Unity.2D.Animation.Runtime.dll"
-a="D:\Practicas-Oniria World\Plataformas\PlantillaPlataformas\Library\PlayerScriptAssemblies\MoreMountains.Tools.Feedbacks.dll"
-a="D:\Practicas-Oniria World\Plataformas\PlantillaPlataformas\Library\PlayerScriptAssemblies\Unity.2D.Common.Runtime.dll"
-a="D:\Practicas-Oniria World\Plataformas\PlantillaPlataformas\Library\PlayerScriptAssemblies\MoreMountains.Tools.Cinemachine.dll"
-a="D:\Practicas-Oniria World\Plataformas\PlantillaPlataformas\Library\PlayerScriptAssemblies\MoreMountains.Feedbacks.Cinemachine.dll"
-a="D:\Practicas-Oniria World\Plataformas\PlantillaPlataformas\Library\PlayerScriptAssemblies\Unity.2D.SpriteShape.Runtime.dll"
-a="D:\Practicas-Oniria World\Plataformas\PlantillaPlataformas\Library\PlayerScriptAssemblies\MoreMountains.Tools.dll"
-a="D:\Practicas-Oniria World\Plataformas\PlantillaPlataformas\Library\PackageCache\com.unity.nuget.newtonsoft-json@2.0.0\Runtime\AOT\Newtonsoft.Json.dll"
-a="D:\Practicas-Oniria World\Plataformas\PlantillaPlataformas\Library\PackageCache\com.unity.nuget.newtonsoft-json@2.0.0\Runtime\Portable\Newtonsoft.Json.dll"
-a="D:\Practicas-Oniria World\Plataformas\PlantillaPlataformas\Library\PackageCache\com.unity.cinemachine@2.7.3\Runtime\ThirdParty\clipper_library.dll"
-a="D:\Practicas-Oniria World\Plataformas\PlantillaPlataformas\Library\PackageCache\com.unity.nuget.newtonsoft-json@2.0.0\Runtime\Newtonsoft.Json.dll"
-a="D:\Practicas-Oniria World\Plataformas\PlantillaPlataformas\Library\PackageCache\com.unity.ext.nunit@1.0.6\net35\unity-custom\nunit.framework.dll"
-s="C:\Program Files\Unity\Hub\Editor\2020.3.26f1\Editor\Data\Managed\UnityEngine"
-s="C:\Program Files\Unity\Hub\Editor\2020.3.26f1\Editor\Data\PlaybackEngines\WebGLSupport\Managed"
-s="D:\Practicas-Oniria World\Plataformas\PlantillaPlataformas\Library\PlayerScriptAssemblies"
-s="D:\Practicas-Oniria World\Plataformas\PlantillaPlataformas\Library\PackageCache\com.unity.nuget.newtonsoft-json@2.0.0\Runtime\AOT"
-s="D:\Practicas-Oniria World\Plataformas\PlantillaPlataformas\Library\PackageCache\com.unity.nuget.newtonsoft-json@2.0.0\Runtime\Portable"
-s="D:\Practicas-Oniria World\Plataformas\PlantillaPlataformas\Library\PackageCache\com.unity.cinemachine@2.7.3\Runtime\ThirdParty"
-s="D:\Practicas-Oniria World\Plataformas\PlantillaPlataformas\Library\PackageCache\com.unity.nuget.newtonsoft-json@2.0.0\Runtime"
-s="D:\Practicas-Oniria World\Plataformas\PlantillaPlataformas\Library\PackageCache\com.unity.ext.nunit@1.0.6\net35\unity-custom"
-s="C:\Program Files\Unity\Hub\Editor\2020.3.26f1\Editor\Data\Managed\UnityEngine"
-s="C:\Program Files\Unity\Hub\Editor\2020.3.26f1\Editor\Data\PlaybackEngines\WebGLSupport\Managed"
-s="C:\Program Files\Unity\Hub\Editor\2020.3.26f1\Editor\Data\NetStandard\ref\2.0.0"
-s="C:\Program Files\Unity\Hub\Editor\2020.3.26f1\Editor\Data\NetStandard\compat\2.0.0\shims\netstandard"
-s="C:\Program Files\Unity\Hub\Editor\2020.3.26f1\Editor\Data\NetStandard\Extensions\2.0.0"
-s="C:\Program Files\Unity\Hub\Editor\2020.3.26f1\Editor\Data\NetStandard\compat\2.0.0\shims\netfx"
-o="D:\Practicas-Oniria World\Plataformas\PlantillaPlataformas\Library\BuildPlayerData\Player"
-rn="RuntimeInitializeOnLoads.json"
-tn="TypeDb-All.json"
