%YAML 1.1
%TAG !u! tag:unity3d.com,2011:
--- !u!1 &980421752855040515
GameObject:
  m_ObjectHideFlags: 0
  m_CorrespondingSourceObject: {fileID: 0}
  m_PrefabInstance: {fileID: 0}
  m_PrefabAsset: {fileID: 0}
  serializedVersion: 6
  m_Component:
  - component: {fileID: 980421752855040550}
  - component: {fileID: 980421752855040549}
  - component: {fileID: 980421752855040548}
  - component: {fileID: 980421752855040571}
  - component: {fileID: 980421752855040570}
  - component: {fileID: 980421752855040569}
  - component: {fileID: 980421752855040568}
  - component: {fileID: 980421752855040575}
  - component: {fileID: 980421752855040574}
  - component: {fileID: 980421752855040573}
  - component: {fileID: 980421752855040572}
  - component: {fileID: 980421752855040563}
  - component: {fileID: 980421752855040562}
  - component: {fileID: 980421752855040561}
  - component: {fileID: 980421752855040560}
  - component: {fileID: 980421752855040567}
  - component: {fileID: 980421752855040566}
  - component: {fileID: 980421752855040565}
  - component: {fileID: 980421752855040564}
  - component: {fileID: 980421752855040523}
  - component: {fileID: 980421752855040522}
  - component: {fileID: 980421752855040521}
  - component: {fileID: 980421752855040520}
  - component: {fileID: 980421752855040527}
  - component: {fileID: 980421752855040526}
  - component: {fileID: 980421752855040525}
  - component: {fileID: 980421752855040524}
  - component: {fileID: 980421752855040551}
  m_Layer: 13
  m_Name: Kabu Volador
  m_TagString: Untagged
  m_Icon: {fileID: 0}
  m_NavMeshLayer: 0
  m_StaticEditorFlags: 0
  m_IsActive: 1
--- !u!4 &980421752855040550
Transform:
  m_ObjectHideFlags: 0
  m_CorrespondingSourceObject: {fileID: 0}
  m_PrefabInstance: {fileID: 0}
  m_PrefabAsset: {fileID: 0}
  m_GameObject: {fileID: 980421752855040515}
  m_LocalRotation: {x: 0, y: 0, z: 0, w: 1}
  m_LocalPosition: {x: -135.56, y: -4.3, z: 0}
  m_LocalScale: {x: 5.1409, y: 5.1409, z: 5.1409}
  m_Children:
  - {fileID: 5961306343415925690}
  m_Father: {fileID: 0}
  m_RootOrder: 0
  m_LocalEulerAnglesHint: {x: 0, y: 0, z: 0}
--- !u!212 &980421752855040549
SpriteRenderer:
  m_ObjectHideFlags: 0
  m_CorrespondingSourceObject: {fileID: 0}
  m_PrefabInstance: {fileID: 0}
  m_PrefabAsset: {fileID: 0}
  m_GameObject: {fileID: 980421752855040515}
  m_Enabled: 1
  m_CastShadows: 0
  m_ReceiveShadows: 0
  m_DynamicOccludee: 1
  m_MotionVectors: 1
  m_LightProbeUsage: 1
  m_ReflectionProbeUsage: 1
  m_RayTracingMode: 0
  m_RayTraceProcedural: 0
  m_RenderingLayerMask: 1
  m_RendererPriority: 0
  m_Materials:
  - {fileID: 10754, guid: 0000000000000000f000000000000000, type: 0}
  m_StaticBatchInfo:
    firstSubMesh: 0
    subMeshCount: 0
  m_StaticBatchRoot: {fileID: 0}
  m_ProbeAnchor: {fileID: 0}
  m_LightProbeVolumeOverride: {fileID: 0}
  m_ScaleInLightmap: 1
  m_ReceiveGI: 1
  m_PreserveUVs: 0
  m_IgnoreNormalsForChartDetection: 0
  m_ImportantGI: 0
  m_StitchLightmapSeams: 1
  m_SelectedEditorRenderState: 0
  m_MinimumChartSize: 4
  m_AutoUVMaxDistance: 0.5
  m_AutoUVMaxAngle: 89
  m_LightmapParameters: {fileID: 0}
  m_SortingLayerID: 0
  m_SortingLayer: 0
  m_SortingOrder: 0
  m_Sprite: {fileID: 21300000, guid: 701f1446256d1b84e84359b55c87592a, type: 3}
  m_Color: {r: 1, g: 1, b: 1, a: 1}
  m_FlipX: 0
  m_FlipY: 0
  m_DrawMode: 0
  m_Size: {x: 0.66, y: 0.47}
  m_AdaptiveModeThreshold: 0.5
  m_SpriteTileMode: 0
  m_WasSpriteAssigned: 1
  m_MaskInteraction: 0
  m_SpriteSortPoint: 0
--- !u!95 &980421752855040548
Animator:
  serializedVersion: 3
  m_ObjectHideFlags: 0
  m_CorrespondingSourceObject: {fileID: 0}
  m_PrefabInstance: {fileID: 0}
  m_PrefabAsset: {fileID: 0}
  m_GameObject: {fileID: 980421752855040515}
  m_Enabled: 1
  m_Avatar: {fileID: 0}
  m_Controller: {fileID: 9100000, guid: c7ab4ec44b334174bbdbb50257ed53c5, type: 2}
  m_CullingMode: 0
  m_UpdateMode: 0
  m_ApplyRootMotion: 0
  m_LinearVelocityBlending: 0
  m_WarningMessage: 
  m_HasTransformHierarchy: 1
  m_AllowConstantClipSamplingOptimization: 1
  m_KeepAnimatorControllerStateOnDisable: 0
--- !u!114 &980421752855040571
MonoBehaviour:
  m_ObjectHideFlags: 0
  m_CorrespondingSourceObject: {fileID: 0}
  m_PrefabInstance: {fileID: 0}
  m_PrefabAsset: {fileID: 0}
  m_GameObject: {fileID: 980421752855040515}
  m_Enabled: 1
  m_EditorHideFlags: 0
  m_Script: {fileID: 11500000, guid: 8b470d1b161b2454590386135b7fd64f, type: 3}
  m_Name: 
  m_EditorClassIdentifier: 
  CharacterType: 1
  PlayerID: 
  InitialFacingDirection: 1
  DirectionOnSpawn: 0
  CharacterAnimator: {fileID: 980421752855040548}
  UseDefaultMecanim: 1
  PerformAnimatorSanityChecks: 1
  DisableAnimatorLogs: 0
  CharacterModel: {fileID: 0}
  CameraTarget: {fileID: 0}
  CameraTargetSpeed: 5
  AdditionalAbilityNodes: []
  FlipModelOnDirectionChange: 1
  ModelFlipValue: {x: -1, y: 1, z: 1}
  RotateModelOnDirectionChange: 0
  ModelRotationValue: {x: 0, y: 180, z: 0}
  ModelRotationSpeed: 0
  CharacterHealth: {fileID: 0}
  SendStateChangeEvents: 1
  SendStateUpdateEvents: 1
  AirborneDistance: 0.5
  AirborneMinimumTime: 0.1
  CharacterBrain: {fileID: 0}
--- !u!50 &980421752855040570
Rigidbody2D:
  serializedVersion: 4
  m_ObjectHideFlags: 0
  m_CorrespondingSourceObject: {fileID: 0}
  m_PrefabInstance: {fileID: 0}
  m_PrefabAsset: {fileID: 0}
  m_GameObject: {fileID: 980421752855040515}
  m_BodyType: 1
  m_Simulated: 1
  m_UseFullKinematicContacts: 0
  m_UseAutoMass: 0
  m_Mass: 1
  m_LinearDrag: 0
  m_AngularDrag: 0.05
  m_GravityScale: 1
  m_Material: {fileID: 0}
  m_Interpolate: 0
  m_SleepingMode: 0
  m_CollisionDetection: 0
  m_Constraints: 0
--- !u!61 &980421752855040569
BoxCollider2D:
  m_ObjectHideFlags: 0
  m_CorrespondingSourceObject: {fileID: 0}
  m_PrefabInstance: {fileID: 0}
  m_PrefabAsset: {fileID: 0}
  m_GameObject: {fileID: 980421752855040515}
  m_Enabled: 1
  m_Density: 1
  m_Material: {fileID: 0}
  m_IsTrigger: 1
  m_UsedByEffector: 0
  m_UsedByComposite: 0
  m_Offset: {x: 0, y: 0}
  m_SpriteTilingProperty:
    border: {x: 0, y: 0, z: 0, w: 0}
    pivot: {x: 0.5, y: 0.5}
    oldSize: {x: 0.71, y: 0.51}
    newSize: {x: 0.66, y: 0.47}
    adaptiveTilingThreshold: 0.5
    drawMode: 0
    adaptiveTiling: 0
  m_AutoTiling: 0
  serializedVersion: 2
  m_Size: {x: 0.66, y: 0.47}
  m_EdgeRadius: 0
--- !u!114 &980421752855040568
MonoBehaviour:
  m_ObjectHideFlags: 0
  m_CorrespondingSourceObject: {fileID: 0}
  m_PrefabInstance: {fileID: 0}
  m_PrefabAsset: {fileID: 0}
  m_GameObject: {fileID: 980421752855040515}
  m_Enabled: 0
  m_EditorHideFlags: 0
  m_Script: {fileID: 11500000, guid: 26d2b97c2edb15b4687c405cac22ec21, type: 3}
  m_Name: 
  m_EditorClassIdentifier: 
  DefaultParameters:
    Gravity: -30
    FallMultiplier: 1
    AscentMultiplier: 1
    MaxVelocity: {x: 100, y: 100}
    SpeedAccelerationOnGround: 20
    UseSeparateDecelerationOnGround: 0
    SpeedDecelerationOnGround: 20
    SpeedAccelerationInAir: 5
    UseSeparateDecelerationInAir: 0
    SpeedDecelerationInAir: 5
    SpeedFactor: 1
    MaximumSlopeAngle: 30
    SlopeAngleSpeedFactor:
      serializedVersion: 2
      m_Curve:
      - serializedVersion: 3
        time: -90
        value: 1
        inSlope: 0
        outSlope: 0
        tangentMode: 0
        weightedMode: 0
        inWeight: 0
        outWeight: 0
      - serializedVersion: 3
        time: 0
        value: 1
        inSlope: 0
        outSlope: 0
        tangentMode: 0
        weightedMode: 0
        inWeight: 0
        outWeight: 0
      - serializedVersion: 3
        time: 90
        value: 1
        inSlope: 0
        outSlope: 0
        tangentMode: 0
        weightedMode: 0
        inWeight: 0
        outWeight: 0
      m_PreInfinity: 2
      m_PostInfinity: 2
      m_RotationOrder: 4
    Physics2DInteraction: 1
    Physics2DPushForce: 2
    DrawRaycastsGizmos: 1
    DisplayWarnings: 1
  PlatformMask:
    serializedVersion: 2
    m_Bits: 256
  MovingPlatformMask:
    serializedVersion: 2
    m_Bits: 262144
  OneWayPlatformMask:
    serializedVersion: 2
    m_Bits: 2048
  MovingOneWayPlatformMask:
    serializedVersion: 2
    m_Bits: 1048576
  MidHeightOneWayPlatformMask:
    serializedVersion: 2
    m_Bits: 67108864
  StairsMask:
    serializedVersion: 2
    m_Bits: 268435456
  DetachmentMethod: 0
  SafeSetTransform: 0
  AutomaticallySetPhysicsSettings: 0
  StandingOn: {fileID: 0}
  UpdateMode: 0
  NumberOfHorizontalRays: 8
  NumberOfVerticalRays: 8
  RayOffsetHorizontal: 0.05
  RayOffsetVertical: 0.05
  CrouchedRaycastLengthMultiplier: 1
  CastRaysOnBothSides: 0
  DistanceToTheGroundRayMaximumLength: 100
  PerformSafetyBoxcast: 0
  OnMovingPlatformRaycastLengthMultiplier: 2
  ObstacleHeightTolerance: 0.05
  StickToSlopes: 0
  StickyRaycastLength: 0
  StickToSlopesOffsetY: 0.2
  TimeAirborne: 0
  AutomaticGravitySettings: 1
--- !u!114 &980421752855040575
MonoBehaviour:
  m_ObjectHideFlags: 0
  m_CorrespondingSourceObject: {fileID: 0}
  m_PrefabInstance: {fileID: 0}
  m_PrefabAsset: {fileID: 0}
  m_GameObject: {fileID: 980421752855040515}
  m_Enabled: 1
  m_EditorHideFlags: 0
  m_Script: {fileID: 11500000, guid: 9716d97790a0a49889284ee813194576, type: 3}
  m_Name: 
  m_EditorClassIdentifier: 
  CurrentHealth: 0
  InitialHealth: 10
  MaximumHealth: 10
  Invulnerable: 0
  TemporarilyInvulnerable: 0
  PostDamageInvulnerable: 0
  ImmuneToDamage: 0
  DamageFeedbacks: {fileID: 0}
  FeedbackIsProportionalToDamage: 0
  FlickerSpriteOnHit: 1
  FlickerColor: {r: 1, g: 0.078431375, b: 0.078431375, a: 1}
  ImmuneToKnockback: 0
  DeathFeedbacks: {fileID: 5072660640808183500}
  DestroyOnDeath: 1
  DelayBeforeDestruction: 1
  CollisionsOffOnDeath: 1
  GravityOffOnDeath: 0
  PointsWhenDestroyed: 0
  RespawnAtInitialLocation: 0
  ApplyDeathForce: 1
  DeathForce: {x: 0, y: 10}
  ResetForcesOnDeath: 0
  ResetColorOnRevive: 1
  ColorMaterialPropertyName: _Color
  UseMaterialPropertyBlocks: 0
--- !u!114 &980421752855040574
MonoBehaviour:
  m_ObjectHideFlags: 0
  m_CorrespondingSourceObject: {fileID: 0}
  m_PrefabInstance: {fileID: 0}
  m_PrefabAsset: {fileID: 0}
  m_GameObject: {fileID: 980421752855040515}
  m_Enabled: 1
  m_EditorHideFlags: 0
  m_Script: {fileID: 11500000, guid: e514a2b7cbba3c94fadd9e100df51189, type: 3}
  m_Name: 
  m_EditorClassIdentifier: 
  Top: 1
  Bottom: 2
  Left: 1
  Right: 1
--- !u!114 &980421752855040573
MonoBehaviour:
  m_ObjectHideFlags: 0
  m_CorrespondingSourceObject: {fileID: 0}
  m_PrefabInstance: {fileID: 0}
  m_PrefabAsset: {fileID: 0}
  m_GameObject: {fileID: 980421752855040515}
  m_Enabled: 0
  m_EditorHideFlags: 0
  m_Script: {fileID: 11500000, guid: 4e24d0eb5fa7640038713564930581a9, type: 3}
  m_Name: 
  m_EditorClassIdentifier: 
  AbilityStartFeedbacks: {fileID: 0}
  AbilityStopFeedbacks: {fileID: 0}
  AbilityPermitted: 1
  BlockingMovementStates: 
  BlockingConditionStates: 
  WalkSpeed: 6
  MovementSpeedMultiplier: 1
  AbilityMovementSpeedMultiplier: 1
  PushSpeedMultiplier: 1
  StateSpeedMultiplier: 1
  FlipCharacterToFaceDirection: 1
  ReadInput: 1
  InstantAcceleration: 0
  InputThreshold: 0.1
  AirControl: 1
  AllowFlipInTheAir: 1
  ActiveAfterDeath: 0
  TouchTheGroundFeedback: {fileID: 0}
  MinimumAirTimeBeforeFeedback: 0.2
  StopWalkingWhenCollidingWithAWall: 0
--- !u!114 &980421752855040572
MonoBehaviour:
  m_ObjectHideFlags: 0
  m_CorrespondingSourceObject: {fileID: 0}
  m_PrefabInstance: {fileID: 0}
  m_PrefabAsset: {fileID: 0}
  m_GameObject: {fileID: 980421752855040515}
  m_Enabled: 0
  m_EditorHideFlags: 0
  m_Script: {fileID: 11500000, guid: 8071d2257235e403da6c6a0a966d6683, type: 3}
  m_Name: 
  m_EditorClassIdentifier: 
  AbilityStartFeedbacks: {fileID: 0}
  AbilityStopFeedbacks: {fileID: 0}
  AbilityPermitted: 1
  BlockingMovementStates: 
  BlockingConditionStates: 
  CrawlAuthorized: 1
  CrawlSpeed: 4
  ResizeColliderWhenCrouched: 0
  CrouchedBoxColliderSize: {x: 1, y: 1}
  CanCrouchWhileMoving: 1
  InATunnel: 0
  MoveCameraTarget: 1
  CameraTargetOffset: {x: 0, y: -3, z: 0}
--- !u!114 &980421752855040563
MonoBehaviour:
  m_ObjectHideFlags: 0
  m_CorrespondingSourceObject: {fileID: 0}
  m_PrefabInstance: {fileID: 0}
  m_PrefabAsset: {fileID: 0}
  m_GameObject: {fileID: 980421752855040515}
  m_Enabled: 0
  m_EditorHideFlags: 0
  m_Script: {fileID: 11500000, guid: d2bb48ea7e7fc4c0fa43dce17235f4f1, type: 3}
  m_Name: 
  m_EditorClassIdentifier: 
  AbilityStartFeedbacks: {fileID: 0}
  AbilityStopFeedbacks: {fileID: 0}
  AbilityPermitted: 1
  BlockingMovementStates: 
  BlockingConditionStates: 
  DashDistance: 3
  DashForce: 40
  ResetForcesOnExit: 0
  Aim:
    AimControl: 2
    RotationMode: 0
    MinimumAngle: -180
    MaximumAngle: 180
    CurrentAngle: 0
  MinimumInputThreshold: 0.1
  FlipCharacterIfNeeded: 1
  AutoCorrectTrajectory: 1
  DashCooldown: 1
  LimitedDashes: 0
  SuccessiveDashAmount: 1
  SuccessiveDashesLeft: 1
  SuccessiveDashResetMethod: 0
  SuccessiveDashResetDuration: 2
  InvincibleWhileDashing: 0
--- !u!114 &980421752855040562
MonoBehaviour:
  m_ObjectHideFlags: 0
  m_CorrespondingSourceObject: {fileID: 0}
  m_PrefabInstance: {fileID: 0}
  m_PrefabAsset: {fileID: 0}
  m_GameObject: {fileID: 980421752855040515}
  m_Enabled: 0
  m_EditorHideFlags: 0
  m_Script: {fileID: 11500000, guid: 157b891c059034cea94ae0c9e235df50, type: 3}
  m_Name: 
  m_EditorClassIdentifier: 
  AbilityStartFeedbacks: {fileID: 0}
  AbilityStopFeedbacks: {fileID: 0}
  AbilityPermitted: 1
  BlockingMovementStates: 
  BlockingConditionStates: 
  ShakeParameters: {x: 1.5, y: 0.5, z: 1}
  DiveAcceleration: 2
--- !u!114 &980421752855040561
MonoBehaviour:
  m_ObjectHideFlags: 0
  m_CorrespondingSourceObject: {fileID: 0}
  m_PrefabInstance: {fileID: 0}
  m_PrefabAsset: {fileID: 0}
  m_GameObject: {fileID: 980421752855040515}
  m_Enabled: 0
  m_EditorHideFlags: 0
  m_Script: {fileID: 11500000, guid: 98ba246fa819940cb8f8f89f002bb088, type: 3}
  m_Name: 
  m_EditorClassIdentifier: 
  AbilityStartFeedbacks: {fileID: 0}
  AbilityStopFeedbacks: {fileID: 0}
  AbilityPermitted: 1
  BlockingMovementStates: 
  BlockingConditionStates: 
  DanglingRaycastOrigin: {x: 0.7, y: -0.25, z: 0}
  DanglingRaycastLength: 2
--- !u!114 &980421752855040560
MonoBehaviour:
  m_ObjectHideFlags: 0
  m_CorrespondingSourceObject: {fileID: 0}
  m_PrefabInstance: {fileID: 0}
  m_PrefabAsset: {fileID: 0}
  m_GameObject: {fileID: 980421752855040515}
  m_Enabled: 0
  m_EditorHideFlags: 0
  m_Script: {fileID: 11500000, guid: f1c1a8bab4d234998bcbc559bb58fa11, type: 3}
  m_Name: 
  m_EditorClassIdentifier: 
  AbilityStartFeedbacks: {fileID: 0}
  AbilityStopFeedbacks: {fileID: 0}
  AbilityPermitted: 1
  BlockingMovementStates: 
  BlockingConditionStates: 
  NumberOfJumps: 2
  JumpHeight: 3.025
  JumpRestrictions: 2
  ResetCameraOffsetOnJump: 0
  CanJumpDownOneWayPlatforms: 1
  JumpIsProportionalToThePressTime: 1
  JumpMinimumAirTime: 0.1
  JumpReleaseForceFactor: 2
  CoyoteTime: 0
  InputBufferDuration: 0
  OneWayPlatformsJumpCollisionOffDuration: 0.3
  MovingPlatformsJumpCollisionOffDuration: 0.05
  AirJumpFeedbacks: {fileID: 0}
  NumberOfJumpsLeft: 0
--- !u!114 &980421752855040567
MonoBehaviour:
  m_ObjectHideFlags: 0
  m_CorrespondingSourceObject: {fileID: 0}
  m_PrefabInstance: {fileID: 0}
  m_PrefabAsset: {fileID: 0}
  m_GameObject: {fileID: 980421752855040515}
  m_Enabled: 0
  m_EditorHideFlags: 0
  m_Script: {fileID: 11500000, guid: 1fd71e945bfcd4897b3a95607989c7d4, type: 3}
  m_Name: 
  m_EditorClassIdentifier: 
  AbilityStartFeedbacks: {fileID: 0}
  AbilityStopFeedbacks: {fileID: 0}
  AbilityPermitted: 1
  BlockingMovementStates: 
  BlockingConditionStates: 
  RunSpeed: 16
  ReadInput: 1
  AutoRun: 0
  AutoRunThreshold: 0.6
--- !u!114 &980421752855040566
MonoBehaviour:
  m_ObjectHideFlags: 0
  m_CorrespondingSourceObject: {fileID: 0}
  m_PrefabInstance: {fileID: 0}
  m_PrefabAsset: {fileID: 0}
  m_GameObject: {fileID: 980421752855040515}
  m_Enabled: 0
  m_EditorHideFlags: 0
  m_Script: {fileID: 11500000, guid: 3d37391d2147a467db78bf732ae24daa, type: 3}
  m_Name: 
  m_EditorClassIdentifier: 
  AbilityStartFeedbacks: {fileID: 0}
  AbilityStopFeedbacks: {fileID: 0}
  AbilityPermitted: 1
  BlockingMovementStates: 
  BlockingConditionStates: 
  MovingPlatformsJumpCollisionOffDuration: 0.05
  ParticleEmitter: {fileID: 0}
  JetpackForce: 2.5
  JetpackUnlimited: 0
  JetpackFuelDuration: 5
  JetpackRefuelCooldown: 1
  RefuelSpeed: 0.5
  MinimumFuelRequirement: 0.2
  JetpackRefueledSfx: {fileID: 0}
  JetpackFuelDurationLeft: 0
--- !u!114 &980421752855040565
MonoBehaviour:
  m_ObjectHideFlags: 0
  m_CorrespondingSourceObject: {fileID: 0}
  m_PrefabInstance: {fileID: 0}
  m_PrefabAsset: {fileID: 0}
  m_GameObject: {fileID: 980421752855040515}
  m_Enabled: 0
  m_EditorHideFlags: 0
  m_Script: {fileID: 11500000, guid: 4a40489dc31af43749444be35e176198, type: 3}
  m_Name: 
  m_EditorClassIdentifier: 
  AbilityStartFeedbacks: {fileID: 0}
  AbilityStopFeedbacks: {fileID: 0}
  AbilityPermitted: 1
  BlockingMovementStates: 
  BlockingConditionStates: 
  HorizontalInputThreshold: 0.5
  MoveCameraTarget: 1
  CameraTargetOffset: {x: 0, y: 6, z: 0}
--- !u!114 &980421752855040564
MonoBehaviour:
  m_ObjectHideFlags: 0
  m_CorrespondingSourceObject: {fileID: 0}
  m_PrefabInstance: {fileID: 0}
  m_PrefabAsset: {fileID: 0}
  m_GameObject: {fileID: 980421752855040515}
  m_Enabled: 0
  m_EditorHideFlags: 0
  m_Script: {fileID: 11500000, guid: 91c7e9428883e43cc8ce6e26ef802353, type: 3}
  m_Name: 
  m_EditorClassIdentifier: 
  AbilityStartFeedbacks: {fileID: 0}
  AbilityStopFeedbacks: {fileID: 0}
  AbilityPermitted: 1
  BlockingMovementStates: 
  BlockingConditionStates: 
  BufferDurationAfterGrip: 0.3
  InputBasedGrip: 0
--- !u!114 &980421752855040523
MonoBehaviour:
  m_ObjectHideFlags: 0
  m_CorrespondingSourceObject: {fileID: 0}
  m_PrefabInstance: {fileID: 0}
  m_PrefabAsset: {fileID: 0}
  m_GameObject: {fileID: 980421752855040515}
  m_Enabled: 0
  m_EditorHideFlags: 0
  m_Script: {fileID: 11500000, guid: 51d7707613113491a9d85f1caab5837b, type: 3}
  m_Name: 
  m_EditorClassIdentifier: 
  AbilityStartFeedbacks: {fileID: 0}
  AbilityStopFeedbacks: {fileID: 0}
  AbilityPermitted: 1
  BlockingMovementStates: 
  BlockingConditionStates: 
  WallClingingSlowFactor: 0.6
  RaycastVerticalOffset: 0
  WallClingingTolerance: 0.3
  InputIndependent: 0
--- !u!114 &980421752855040522
MonoBehaviour:
  m_ObjectHideFlags: 0
  m_CorrespondingSourceObject: {fileID: 0}
  m_PrefabInstance: {fileID: 0}
  m_PrefabAsset: {fileID: 0}
  m_GameObject: {fileID: 980421752855040515}
  m_Enabled: 0
  m_EditorHideFlags: 0
  m_Script: {fileID: 11500000, guid: eeabffc5d6e694a8287c891288b0a4be, type: 3}
  m_Name: 
  m_EditorClassIdentifier: 
  AbilityStartFeedbacks: {fileID: 0}
  AbilityStopFeedbacks: {fileID: 0}
  AbilityPermitted: 1
  BlockingMovementStates: 
  BlockingConditionStates: 
  WallJumpForce: {x: 10, y: 4}
  ShouldReduceNumberOfJumpsLeft: 1
  ForceMode: 0
  ForceFlipTowardsDirection: 0
--- !u!114 &980421752855040521
MonoBehaviour:
  m_ObjectHideFlags: 0
  m_CorrespondingSourceObject: {fileID: 0}
  m_PrefabInstance: {fileID: 0}
  m_PrefabAsset: {fileID: 0}
  m_GameObject: {fileID: 980421752855040515}
  m_Enabled: 0
  m_EditorHideFlags: 0
  m_Script: {fileID: 11500000, guid: d96ed8ea1ca8048f6a2b90871e211025, type: 3}
  m_Name: 
  m_EditorClassIdentifier: 
  AbilityStartFeedbacks: {fileID: 0}
  AbilityStopFeedbacks: {fileID: 0}
  AbilityPermitted: 1
  BlockingMovementStates: 
  BlockingConditionStates: 
  LadderClimbingSpeed: 2
  ForceRightFacing: 0
  ForceAnchorToGroundOnExit: 0
--- !u!114 &980421752855040520
MonoBehaviour:
  m_ObjectHideFlags: 0
  m_CorrespondingSourceObject: {fileID: 0}
  m_PrefabInstance: {fileID: 0}
  m_PrefabAsset: {fileID: 0}
  m_GameObject: {fileID: 980421752855040515}
  m_Enabled: 0
  m_EditorHideFlags: 0
  m_Script: {fileID: 11500000, guid: f59e06702d6be45948936bd909420d61, type: 3}
  m_Name: 
  m_EditorClassIdentifier: 
  AbilityStartFeedbacks: {fileID: 0}
  AbilityStopFeedbacks: {fileID: 0}
  AbilityPermitted: 1
  BlockingMovementStates: 
  BlockingConditionStates: 
--- !u!114 &980421752855040527
MonoBehaviour:
  m_ObjectHideFlags: 0
  m_CorrespondingSourceObject: {fileID: 0}
  m_PrefabInstance: {fileID: 0}
  m_PrefabAsset: {fileID: 0}
  m_GameObject: {fileID: 980421752855040515}
  m_Enabled: 0
  m_EditorHideFlags: 0
  m_Script: {fileID: 11500000, guid: 46406e788b52547b6b352456466eb58b, type: 3}
  m_Name: 
  m_EditorClassIdentifier: 
  AbilityStartFeedbacks: {fileID: 0}
  AbilityStopFeedbacks: {fileID: 0}
  AbilityPermitted: 1
  BlockingMovementStates: 
  BlockingConditionStates: 
  PreventJumpWhenInZone: 1
  ActivationCooldownDuration: 0
--- !u!114 &980421752855040526
MonoBehaviour:
  m_ObjectHideFlags: 0
  m_CorrespondingSourceObject: {fileID: 0}
  m_PrefabInstance: {fileID: 0}
  m_PrefabAsset: {fileID: 0}
  m_GameObject: {fileID: 980421752855040515}
  m_Enabled: 0
  m_EditorHideFlags: 0
  m_Script: {fileID: 11500000, guid: 6a07c6668aa55403790d27b575279549, type: 3}
  m_Name: 
  m_EditorClassIdentifier: 
  AbilityStartFeedbacks: {fileID: 0}
  AbilityStopFeedbacks: {fileID: 0}
  AbilityPermitted: 1
  BlockingMovementStates: 
  BlockingConditionStates: 
  InitialWeapon: {fileID: 0}
  CanPickupWeapons: 1
  WeaponAttachment: {fileID: 0}
  ForceWeaponScaleResetOnEquip: 0
  ForceWeaponRotationResetOnEquip: 0
  AutomaticallyBindAnimator: 1
  AmmoDisplayID: 0
  ContinuousPress: 0
  GettingHitInterruptsAttack: 0
  CanShootFromLadders: 0
  FaceWeaponDirection: 0
  InvertHorizontalAimWhenWallclinging: 0
  BufferInput: 0
  NewInputExtendsBuffer: 0
  MaximumBufferDuration: 0.25
  CurrentWeapon: {fileID: 0}
--- !u!114 &980421752855040525
MonoBehaviour:
  m_ObjectHideFlags: 0
  m_CorrespondingSourceObject: {fileID: 0}
  m_PrefabInstance: {fileID: 0}
  m_PrefabAsset: {fileID: 0}
  m_GameObject: {fileID: 980421752855040515}
  m_Enabled: 1
  m_EditorHideFlags: 0
  m_Script: {fileID: 11500000, guid: 76891b3b532f84acaaeed44c357bd00c, type: 3}
  m_Name: 
  m_EditorClassIdentifier: 
  TargetLayerMask:
    serializedVersion: 2
    m_Bits: 512
  DamageCaused: 1
  DamageCausedKnockbackType: 1
  DamageCausedKnockbackDirection: 0
  DamageCausedKnockbackForce: {x: 10, y: 2}
  InvincibilityDuration: 1.5
  DamageTakenEveryTime: 0
  DamageTakenDamageable: 0
  DamageTakenNonDamageable: 0
  DamageTakenKnockbackType: 0
  DamageTakenKnockbackDirection: 0
  DamageTakenKnockbackForce: {x: 0, y: 0}
  DamageTakenInvincibilityDuration: 0.5
  HitDamageableFeedback: {fileID: 0}
  HitNonDamageableFeedback: {fileID: 0}
  FreezeFramesOnHitDuration: 0
  Owner: {fileID: 0}
--- !u!114 &980421752855040524
MonoBehaviour:
  m_ObjectHideFlags: 0
  m_CorrespondingSourceObject: {fileID: 0}
  m_PrefabInstance: {fileID: 0}
  m_PrefabAsset: {fileID: 0}
  m_GameObject: {fileID: 980421752855040515}
  m_Enabled: 1
  m_EditorHideFlags: 0
  m_Script: {fileID: 11500000, guid: ed782cf6d45978347bcea1b2ec201483, type: 3}
  m_Name: 
  m_EditorClassIdentifier: 
  WalkBehaviour: 0
  ChangeDirectionOnWall: 1
  AvoidFalling: 0
  HoleDetectionOffset: {x: 0, y: 0, z: 0}
  HoleDetectionRaycastLength: 1
  ViewDistance: 10
  StopDistance: 1
  MoveOnSightRayOffset: {x: 0, y: 0, z: 0}
  MoveOnSightLayer:
    serializedVersion: 2
    m_Bits: 512
  MoveOnSightObstaclesLayer:
    serializedVersion: 2
    m_Bits: 264448
  ResetPositionOnDeath: 1
--- !u!114 &980421752855040551
MonoBehaviour:
  m_ObjectHideFlags: 0
  m_CorrespondingSourceObject: {fileID: 0}
  m_PrefabInstance: {fileID: 0}
  m_PrefabAsset: {fileID: 0}
  m_GameObject: {fileID: 980421752855040515}
  m_Enabled: 1
  m_EditorHideFlags: 0
  m_Script: {fileID: 11500000, guid: 2e9a0571a618b5d4680ffd26656dbde7, type: 3}
  m_Name: 
  m_EditorClassIdentifier: 
  CycleOption: 0
  LoopInitialMovementDirection: 0
  PathElements:
  - PathElementPosition: {x: 0, y: 0, z: 0}
    Delay: 0
  - PathElementPosition: {x: 0, y: 4, z: 0}
    Delay: 0
  MovementSpeed: 2
  AccelerationType: 0
  Acceleration:
    serializedVersion: 2
    m_Curve:
    - serializedVersion: 3
      time: 0
      value: 1
      inSlope: 0
      outSlope: 0
      tangentMode: 0
      weightedMode: 0
      inWeight: 0
      outWeight: 0
    - serializedVersion: 3
      time: 1
      value: 0
      inSlope: 0
      outSlope: 0
      tangentMode: 0
      weightedMode: 0
      inWeight: 0
      outWeight: 0
    m_PreInfinity: 2
    m_PostInfinity: 2
    m_RotationOrder: 4
  UpdateMode: 0
  MinDistanceToGoal: 0.1
  OnlyMovesWhenPlayerIsColliding: 0
  OnlyMovesWhenCharacterIsColliding: 0
  ResetPositionWhenPlayerRespawns: 0
  ScriptActivated: 0
  StartMovingWhenPlayerIsColliding: 0
  ToggleButton: 0
  ChangeDirectionButton: 0
  ResetEndReachedButton: 0
  MoveTowardsStartButton: 0
  MoveTowardsEndButton: 0
  PointReachedFeedback: {fileID: 0}
  EndReachedFeedback: {fileID: 0}
--- !u!1 &2578421779605656403
GameObject:
  m_ObjectHideFlags: 0
  m_CorrespondingSourceObject: {fileID: 0}
  m_PrefabInstance: {fileID: 0}
  m_PrefabAsset: {fileID: 0}
  serializedVersion: 6
  m_Component:
  - component: {fileID: 5961306343415925690}
  - component: {fileID: 5072660640808183500}
  - component: {fileID: 8678879013889253544}
  m_Layer: 0
  m_Name: Feedback_Death
  m_TagString: Untagged
  m_Icon: {fileID: 0}
  m_NavMeshLayer: 0
  m_StaticEditorFlags: 0
  m_IsActive: 1
--- !u!4 &5961306343415925690
Transform:
  m_ObjectHideFlags: 0
  m_CorrespondingSourceObject: {fileID: 0}
  m_PrefabInstance: {fileID: 0}
  m_PrefabAsset: {fileID: 0}
  m_GameObject: {fileID: 2578421779605656403}
  m_LocalRotation: {x: -0, y: -0, z: -0, w: 1}
  m_LocalPosition: {x: 0, y: 0, z: 0}
  m_LocalScale: {x: 0.19451846, y: 0.19451846, z: 0.19451846}
  m_Children: []
  m_Father: {fileID: 980421752855040550}
  m_RootOrder: 0
  m_LocalEulerAnglesHint: {x: 0, y: 0, z: 0}
--- !u!114 &5072660640808183500
MonoBehaviour:
  m_ObjectHideFlags: 0
  m_CorrespondingSourceObject: {fileID: 0}
  m_PrefabInstance: {fileID: 0}
  m_PrefabAsset: {fileID: 0}
  m_GameObject: {fileID: 2578421779605656403}
  m_Enabled: 1
  m_EditorHideFlags: 0
  m_Script: {fileID: 11500000, guid: 841b72de2996c5c40bfb394f3d0e0a98, type: 3}
  m_Name: 
  m_EditorClassIdentifier: 
  Feedbacks:
  - {fileID: 8678879013889253544}
  InitializationMode: 2
  SafeMode: 3
  Direction: 0
  AutoChangeDirectionOnEnd: 0
  AutoPlayOnStart: 0
  AutoPlayOnEnable: 0
  DurationMultiplier: 1
  DisplayFullDurationDetails: 0
  CooldownDuration: 0
  InitialDelay: 0
  CanPlayWhileAlreadyPlaying: 1
  FeedbacksIntensity: 1
  Events:
    TriggerMMFeedbacksEvents: 0
    TriggerUnityEvents: 1
    OnPlay:
      m_PersistentCalls:
        m_Calls: []
    OnPause:
      m_PersistentCalls:
        m_Calls: []
    OnResume:
      m_PersistentCalls:
        m_Calls: []
    OnRevert:
      m_PersistentCalls:
        m_Calls: []
    OnComplete:
      m_PersistentCalls:
        m_Calls: []
  DebugActive: 0
--- !u!114 &8678879013889253544
MonoBehaviour:
  m_ObjectHideFlags: 0
  m_CorrespondingSourceObject: {fileID: 0}
  m_PrefabInstance: {fileID: 0}
  m_PrefabAsset: {fileID: 0}
  m_GameObject: {fileID: 2578421779605656403}
  m_Enabled: 1
  m_EditorHideFlags: 0
  m_Script: {fileID: 11500000, guid: 0c2ce51367856bd49b72678cc4263225, type: 3}
  m_Name: 
  m_EditorClassIdentifier: 
  Active: 1
  Label: Sound
  Chance: 100
  Timing:
    TimescaleMode: 0
    InitialDelay: 0
    CooldownDuration: 0
    ExcludeFromHoldingPauses: 0
    InterruptsOnStop: 1
    NumberOfRepeats: 0
    RepeatForever: 0
    DelayBetweenRepeats: 1
    MMFeedbacksDirectionCondition: 0
    PlayDirection: 0
    ConstantIntensity: 0
    UseIntensityInterval: 0
    IntensityIntervalMin: 0
    IntensityIntervalMax: 0
    Sequence: {fileID: 0}
    TrackID: 0
    Quantized: 0
    TargetBPM: 120
  DebugActive: 0
  Sfx: {fileID: 8300000, guid: 0c49c074d54cd0f47965129e3dd49630, type: 3}
  RandomSfx: []
  TestButton: 0
  TestStopButton: 0
  PlayMethod: 2
  PoolSize: 10
  MinVolume: 0.04
  MaxVolume: 0.04
  MinPitch: 1
  MaxPitch: 1
  SfxAudioMixerGroup: {fileID: 0}
