%YAML 1.1
%TAG !u! tag:unity3d.com,2011:
--- !u!74 &7400000
AnimationClip:
  m_ObjectHideFlags: 0
  m_CorrespondingSourceObject: {fileID: 0}
  m_PrefabInstance: {fileID: 0}
  m_PrefabAsset: {fileID: 0}
  m_Name: Emisordisp
  serializedVersion: 6
  m_Legacy: 0
  m_Compressed: 0
  m_UseHighQualityCurve: 1
  m_RotationCurves: []
  m_CompressedRotationCurves: []
  m_EulerCurves: []
  m_PositionCurves: []
  m_ScaleCurves: []
  m_FloatCurves: []
  m_PPtrCurves:
  - curve:
    - time: 0
      value: {fileID: 21300000, guid: e97aeec8879649d4685e06c257a60553, type: 3}
    - time: 0.041666668
      value: {fileID: 21300000, guid: 7a64024e393358244a2316b9df0217c7, type: 3}
    - time: 0.083333336
      value: {fileID: 21300000, guid: 863202feb73fe8b4d8e0ab6a8b85f0a7, type: 3}
    - time: 0.125
      value: {fileID: 21300000, guid: 34e5ea45f19349d4f8ff1ce6b40a2a0a, type: 3}
    - time: 0.16666667
      value: {fileID: 21300000, guid: 5173cb7900fd25e47bc4e92da3e02da8, type: 3}
    - time: 0.20833333
      value: {fileID: 21300000, guid: a20f6e55452038544a0b4bbfb3543a60, type: 3}
    - time: 0.25
      value: {fileID: 21300000, guid: 00039ef0f766ecc4bb70acd2a69b3f77, type: 3}
    - time: 0.29166666
      value: {fileID: 21300000, guid: 6ce31af2c7f012f47968d24c90c5e809, type: 3}
    - time: 0.33333334
      value: {fileID: 21300000, guid: b917244e1585b074fbbcddf4bb158a1b, type: 3}
    - time: 0.375
      value: {fileID: 21300000, guid: a51ded614b8268448ae36bc1c70596c3, type: 3}
    - time: 0.41666666
      value: {fileID: 21300000, guid: 0fef76a15a5299148980a3727bb50130, type: 3}
    - time: 0.45833334
      value: {fileID: 21300000, guid: 918731d3a741e03459a1345946464104, type: 3}
    - time: 0.5
      value: {fileID: 21300000, guid: ba1ec2db3c7017848a6097bf59594ab4, type: 3}
    - time: 0.5416667
      value: {fileID: 21300000, guid: d45b58d953c70f942bdb5fca8a9e5fda, type: 3}
    - time: 0.5833333
      value: {fileID: 21300000, guid: 2427b4de4697271429423efd9b1014ad, type: 3}
    - time: 0.625
      value: {fileID: 21300000, guid: 0ac27f117807bf44a977c5bf5522e8e3, type: 3}
    - time: 0.6666667
      value: {fileID: 21300000, guid: 2c5a15db248b5234d91374f62160a23a, type: 3}
    - time: 0.7083333
      value: {fileID: 21300000, guid: 3163c190ded72ec4b8c6bcd257318558, type: 3}
    - time: 0.75
      value: {fileID: 21300000, guid: 1433247e6f943a249bb0eddbeb5562f0, type: 3}
    - time: 0.7916667
      value: {fileID: 21300000, guid: 6177d91acd156734bb717ff685b82247, type: 3}
    - time: 0.8333333
      value: {fileID: 21300000, guid: 8d01da252492790488c3f1a01e4df88d, type: 3}
    - time: 0.875
      value: {fileID: 21300000, guid: d69d9bece6bd01042b335e32656fa997, type: 3}
    - time: 0.9166667
      value: {fileID: 21300000, guid: 719d6f8f8d0bdad458b9db2812d468f8, type: 3}
    - time: 0.9583333
      value: {fileID: 21300000, guid: 11009b200b7d3e247bf652dab065eb21, type: 3}
    attribute: m_Sprite
    path: 
    classID: 212
    script: {fileID: 0}
  m_SampleRate: 24
  m_WrapMode: 0
  m_Bounds:
    m_Center: {x: 0, y: 0, z: 0}
    m_Extent: {x: 0, y: 0, z: 0}
  m_ClipBindingConstant:
    genericBindings:
    - serializedVersion: 2
      path: 0
      attribute: 0
      script: {fileID: 0}
      typeID: 212
      customType: 23
      isPPtrCurve: 1
    pptrCurveMapping:
    - {fileID: 21300000, guid: e97aeec8879649d4685e06c257a60553, type: 3}
    - {fileID: 21300000, guid: 7a64024e393358244a2316b9df0217c7, type: 3}
    - {fileID: 21300000, guid: 863202feb73fe8b4d8e0ab6a8b85f0a7, type: 3}
    - {fileID: 21300000, guid: 34e5ea45f19349d4f8ff1ce6b40a2a0a, type: 3}
    - {fileID: 21300000, guid: 5173cb7900fd25e47bc4e92da3e02da8, type: 3}
    - {fileID: 21300000, guid: a20f6e55452038544a0b4bbfb3543a60, type: 3}
    - {fileID: 21300000, guid: 00039ef0f766ecc4bb70acd2a69b3f77, type: 3}
    - {fileID: 21300000, guid: 6ce31af2c7f012f47968d24c90c5e809, type: 3}
    - {fileID: 21300000, guid: b917244e1585b074fbbcddf4bb158a1b, type: 3}
    - {fileID: 21300000, guid: a51ded614b8268448ae36bc1c70596c3, type: 3}
    - {fileID: 21300000, guid: 0fef76a15a5299148980a3727bb50130, type: 3}
    - {fileID: 21300000, guid: 918731d3a741e03459a1345946464104, type: 3}
    - {fileID: 21300000, guid: ba1ec2db3c7017848a6097bf59594ab4, type: 3}
    - {fileID: 21300000, guid: d45b58d953c70f942bdb5fca8a9e5fda, type: 3}
    - {fileID: 21300000, guid: 2427b4de4697271429423efd9b1014ad, type: 3}
    - {fileID: 21300000, guid: 0ac27f117807bf44a977c5bf5522e8e3, type: 3}
    - {fileID: 21300000, guid: 2c5a15db248b5234d91374f62160a23a, type: 3}
    - {fileID: 21300000, guid: 3163c190ded72ec4b8c6bcd257318558, type: 3}
    - {fileID: 21300000, guid: 1433247e6f943a249bb0eddbeb5562f0, type: 3}
    - {fileID: 21300000, guid: 6177d91acd156734bb717ff685b82247, type: 3}
    - {fileID: 21300000, guid: 8d01da252492790488c3f1a01e4df88d, type: 3}
    - {fileID: 21300000, guid: d69d9bece6bd01042b335e32656fa997, type: 3}
    - {fileID: 21300000, guid: 719d6f8f8d0bdad458b9db2812d468f8, type: 3}
    - {fileID: 21300000, guid: 11009b200b7d3e247bf652dab065eb21, type: 3}
  m_AnimationClipSettings:
    serializedVersion: 2
    m_AdditiveReferencePoseClip: {fileID: 0}
    m_AdditiveReferencePoseTime: 0
    m_StartTime: 0
    m_StopTime: 1
    m_OrientationOffsetY: 0
    m_Level: 0
    m_CycleOffset: 0
    m_HasAdditiveReferencePose: 0
    m_LoopTime: 1
    m_LoopBlend: 0
    m_LoopBlendOrientation: 0
    m_LoopBlendPositionY: 0
    m_LoopBlendPositionXZ: 0
    m_KeepOriginalOrientation: 0
    m_KeepOriginalPositionY: 1
    m_KeepOriginalPositionXZ: 0
    m_HeightFromFeet: 0
    m_Mirror: 0
  m_EditorCurves: []
  m_EulerEditorCurves: []
  m_HasGenericRootTransform: 0
  m_HasMotionFloatCurves: 0
  m_Events: []
