%YAML 1.1
%TAG !u! tag:unity3d.com,2011:
--- !u!74 &7400000
AnimationClip:
  m_ObjectHideFlags: 0
  m_CorrespondingSourceObject: {fileID: 0}
  m_PrefabInstance: {fileID: 0}
  m_PrefabAsset: {fileID: 0}
  m_Name: EmisorCamina
  serializedVersion: 6
  m_Legacy: 0
  m_Compressed: 0
  m_UseHighQualityCurve: 1
  m_RotationCurves: []
  m_CompressedRotationCurves: []
  m_EulerCurves: []
  m_PositionCurves: []
  m_ScaleCurves: []
  m_FloatCurves: []
  m_PPtrCurves:
  - curve:
    - time: 0
      value: {fileID: 21300000, guid: 2c2ccee4505218c4fb64797b9b2d4d24, type: 3}
    - time: 0.041666668
      value: {fileID: 21300000, guid: 1afcb2a63034a9d419452dc967a6f76e, type: 3}
    - time: 0.083333336
      value: {fileID: 21300000, guid: c34c08db71567f446996faabbd93c4ba, type: 3}
    - time: 0.125
      value: {fileID: 21300000, guid: f9f12599644229c4bad90a10354b8eaa, type: 3}
    - time: 0.16666667
      value: {fileID: 21300000, guid: 19ad2c0a249a06b489d7b1de382be223, type: 3}
    - time: 0.20833333
      value: {fileID: 21300000, guid: 8e0538dce0974504eb044c2f13349b21, type: 3}
    - time: 0.25
      value: {fileID: 21300000, guid: 70649538730e350448c0911f2da904a9, type: 3}
    - time: 0.29166666
      value: {fileID: 21300000, guid: 1ff5ed7c32f57e14a9ad804f6f887aeb, type: 3}
    - time: 0.33333334
      value: {fileID: 21300000, guid: a632688e9c267f646aa2c165ff08d176, type: 3}
    - time: 0.375
      value: {fileID: 21300000, guid: 2c66a4a3e4ecd8042be0c7a4d5a9c27e, type: 3}
    - time: 0.41666666
      value: {fileID: 21300000, guid: 4a129b7fe12af4944a3a551dfa56ecdb, type: 3}
    - time: 0.45833334
      value: {fileID: 21300000, guid: 3b27e9a60bb31234a89c49b972fc172c, type: 3}
    - time: 0.5
      value: {fileID: 21300000, guid: 6ef4a83bc09cbe945beb1ffcdb801725, type: 3}
    - time: 0.5416667
      value: {fileID: 21300000, guid: 85d71cc347eeb6b48a295ab50233055d, type: 3}
    - time: 0.5833333
      value: {fileID: 21300000, guid: 499dbd836bbbabf40a404940cdfb281f, type: 3}
    - time: 0.625
      value: {fileID: 21300000, guid: 6fed9c560c47db9459eaf69cde408910, type: 3}
    - time: 0.6666667
      value: {fileID: 21300000, guid: a2f00f7eb03b646409579f95a17801d2, type: 3}
    - time: 0.7083333
      value: {fileID: 21300000, guid: e247de51b6926e349bdcfc2d9f9ddb88, type: 3}
    - time: 0.75
      value: {fileID: 21300000, guid: d22bcf6964dcc3b499ad8ef6836c4d33, type: 3}
    - time: 0.7916667
      value: {fileID: 21300000, guid: 5bb57ba6a6a012543bdeef15fd353522, type: 3}
    - time: 0.8333333
      value: {fileID: 21300000, guid: 78694b69487a65f42bf29453085e2834, type: 3}
    - time: 0.875
      value: {fileID: 21300000, guid: 6d60106e266123f488921bec338d0e12, type: 3}
    - time: 0.9166667
      value: {fileID: 21300000, guid: 759ed072025c85241b78d11814e146b5, type: 3}
    - time: 0.9583333
      value: {fileID: 21300000, guid: 5f13055a7823b7940b1c81d59993d6d8, type: 3}
    - time: 1
      value: {fileID: 21300000, guid: 56ff82dcec52f9441a4c16bfcf31ebc5, type: 3}
    - time: 1.0416666
      value: {fileID: 21300000, guid: f0a45b309242cea46a66297848fdee7f, type: 3}
    - time: 1.0833334
      value: {fileID: 21300000, guid: 07042b01c1574b1428443c7313234706, type: 3}
    - time: 1.125
      value: {fileID: 21300000, guid: 0300a3f3768c9f5458ad8f0725bdf688, type: 3}
    - time: 1.1666666
      value: {fileID: 21300000, guid: 775e559a83abd224cba92705409ced9c, type: 3}
    - time: 1.2083334
      value: {fileID: 21300000, guid: df7334578ef44b545a6b687bb08d987f, type: 3}
    - time: 1.25
      value: {fileID: 21300000, guid: 5f977e71a177d264099c956ada64c6c5, type: 3}
    - time: 1.2916666
      value: {fileID: 21300000, guid: 09db96ccffb8f4f4186eb675c8e9fd6e, type: 3}
    - time: 1.3333334
      value: {fileID: 21300000, guid: eb3f8458987622844bc817b48cebebcb, type: 3}
    - time: 1.375
      value: {fileID: 21300000, guid: 1e08da9c915e213478d04a1db2f1686e, type: 3}
    attribute: m_Sprite
    path: 
    classID: 212
    script: {fileID: 0}
  m_SampleRate: 24
  m_WrapMode: 0
  m_Bounds:
    m_Center: {x: 0, y: 0, z: 0}
    m_Extent: {x: 0, y: 0, z: 0}
  m_ClipBindingConstant:
    genericBindings:
    - serializedVersion: 2
      path: 0
      attribute: 0
      script: {fileID: 0}
      typeID: 212
      customType: 23
      isPPtrCurve: 1
    pptrCurveMapping:
    - {fileID: 21300000, guid: 2c2ccee4505218c4fb64797b9b2d4d24, type: 3}
    - {fileID: 21300000, guid: 1afcb2a63034a9d419452dc967a6f76e, type: 3}
    - {fileID: 21300000, guid: c34c08db71567f446996faabbd93c4ba, type: 3}
    - {fileID: 21300000, guid: f9f12599644229c4bad90a10354b8eaa, type: 3}
    - {fileID: 21300000, guid: 19ad2c0a249a06b489d7b1de382be223, type: 3}
    - {fileID: 21300000, guid: 8e0538dce0974504eb044c2f13349b21, type: 3}
    - {fileID: 21300000, guid: 70649538730e350448c0911f2da904a9, type: 3}
    - {fileID: 21300000, guid: 1ff5ed7c32f57e14a9ad804f6f887aeb, type: 3}
    - {fileID: 21300000, guid: a632688e9c267f646aa2c165ff08d176, type: 3}
    - {fileID: 21300000, guid: 2c66a4a3e4ecd8042be0c7a4d5a9c27e, type: 3}
    - {fileID: 21300000, guid: 4a129b7fe12af4944a3a551dfa56ecdb, type: 3}
    - {fileID: 21300000, guid: 3b27e9a60bb31234a89c49b972fc172c, type: 3}
    - {fileID: 21300000, guid: 6ef4a83bc09cbe945beb1ffcdb801725, type: 3}
    - {fileID: 21300000, guid: 85d71cc347eeb6b48a295ab50233055d, type: 3}
    - {fileID: 21300000, guid: 499dbd836bbbabf40a404940cdfb281f, type: 3}
    - {fileID: 21300000, guid: 6fed9c560c47db9459eaf69cde408910, type: 3}
    - {fileID: 21300000, guid: a2f00f7eb03b646409579f95a17801d2, type: 3}
    - {fileID: 21300000, guid: e247de51b6926e349bdcfc2d9f9ddb88, type: 3}
    - {fileID: 21300000, guid: d22bcf6964dcc3b499ad8ef6836c4d33, type: 3}
    - {fileID: 21300000, guid: 5bb57ba6a6a012543bdeef15fd353522, type: 3}
    - {fileID: 21300000, guid: 78694b69487a65f42bf29453085e2834, type: 3}
    - {fileID: 21300000, guid: 6d60106e266123f488921bec338d0e12, type: 3}
    - {fileID: 21300000, guid: 759ed072025c85241b78d11814e146b5, type: 3}
    - {fileID: 21300000, guid: 5f13055a7823b7940b1c81d59993d6d8, type: 3}
    - {fileID: 21300000, guid: 56ff82dcec52f9441a4c16bfcf31ebc5, type: 3}
    - {fileID: 21300000, guid: f0a45b309242cea46a66297848fdee7f, type: 3}
    - {fileID: 21300000, guid: 07042b01c1574b1428443c7313234706, type: 3}
    - {fileID: 21300000, guid: 0300a3f3768c9f5458ad8f0725bdf688, type: 3}
    - {fileID: 21300000, guid: 775e559a83abd224cba92705409ced9c, type: 3}
    - {fileID: 21300000, guid: df7334578ef44b545a6b687bb08d987f, type: 3}
    - {fileID: 21300000, guid: 5f977e71a177d264099c956ada64c6c5, type: 3}
    - {fileID: 21300000, guid: 09db96ccffb8f4f4186eb675c8e9fd6e, type: 3}
    - {fileID: 21300000, guid: eb3f8458987622844bc817b48cebebcb, type: 3}
    - {fileID: 21300000, guid: 1e08da9c915e213478d04a1db2f1686e, type: 3}
  m_AnimationClipSettings:
    serializedVersion: 2
    m_AdditiveReferencePoseClip: {fileID: 0}
    m_AdditiveReferencePoseTime: 0
    m_StartTime: 0
    m_StopTime: 1.4166666
    m_OrientationOffsetY: 0
    m_Level: 0
    m_CycleOffset: 0
    m_HasAdditiveReferencePose: 0
    m_LoopTime: 1
    m_LoopBlend: 0
    m_LoopBlendOrientation: 0
    m_LoopBlendPositionY: 0
    m_LoopBlendPositionXZ: 0
    m_KeepOriginalOrientation: 0
    m_KeepOriginalPositionY: 1
    m_KeepOriginalPositionXZ: 0
    m_HeightFromFeet: 0
    m_Mirror: 0
  m_EditorCurves: []
  m_EulerEditorCurves: []
  m_HasGenericRootTransform: 0
  m_HasMotionFloatCurves: 0
  m_Events: []
