%YAML 1.1
%TAG !u! tag:unity3d.com,2011:
--- !u!74 &7400000
AnimationClip:
  m_ObjectHideFlags: 0
  m_CorrespondingSourceObject: {fileID: 0}
  m_PrefabInstance: {fileID: 0}
  m_PrefabAsset: {fileID: 0}
  m_Name: Fire
  serializedVersion: 6
  m_Legacy: 0
  m_Compressed: 0
  m_UseHighQualityCurve: 1
  m_RotationCurves: []
  m_CompressedRotationCurves: []
  m_EulerCurves: []
  m_PositionCurves: []
  m_ScaleCurves: []
  m_FloatCurves: []
  m_PPtrCurves:
  - curve:
    - time: 0
      value: {fileID: 21300000, guid: d7120daaf2266db47b5d45caa6437bdc, type: 3}
    - time: 0.1
      value: {fileID: 21300000, guid: 8332fff6fa1c5b24db426ff9f7c5676e, type: 3}
    - time: 0.2
      value: {fileID: 21300000, guid: 96f68c5ac26edb948b4421036a9141e7, type: 3}
    - time: 0.3
      value: {fileID: 21300000, guid: c3f6c2feae1ce8749bfc21ab59ad1285, type: 3}
    - time: 0.4
      value: {fileID: 21300000, guid: f006b0e4e82e121498d21b2956544f9c, type: 3}
    - time: 0.5
      value: {fileID: 21300000, guid: 6bb7393b8ad023d43bb07ab07c4c9459, type: 3}
    - time: 0.6
      value: {fileID: 21300000, guid: 04a84c1c91014cd48b5580e4a27dd89a, type: 3}
    - time: 0.7
      value: {fileID: 21300000, guid: 517a5f76762738541acf005bd253ac0d, type: 3}
    attribute: m_Sprite
    path: 
    classID: 212
    script: {fileID: 0}
  m_SampleRate: 10
  m_WrapMode: 0
  m_Bounds:
    m_Center: {x: 0, y: 0, z: 0}
    m_Extent: {x: 0, y: 0, z: 0}
  m_ClipBindingConstant:
    genericBindings:
    - serializedVersion: 2
      path: 0
      attribute: 0
      script: {fileID: 0}
      typeID: 212
      customType: 23
      isPPtrCurve: 1
    pptrCurveMapping:
    - {fileID: 21300000, guid: d7120daaf2266db47b5d45caa6437bdc, type: 3}
    - {fileID: 21300000, guid: 8332fff6fa1c5b24db426ff9f7c5676e, type: 3}
    - {fileID: 21300000, guid: 96f68c5ac26edb948b4421036a9141e7, type: 3}
    - {fileID: 21300000, guid: c3f6c2feae1ce8749bfc21ab59ad1285, type: 3}
    - {fileID: 21300000, guid: f006b0e4e82e121498d21b2956544f9c, type: 3}
    - {fileID: 21300000, guid: 6bb7393b8ad023d43bb07ab07c4c9459, type: 3}
    - {fileID: 21300000, guid: 04a84c1c91014cd48b5580e4a27dd89a, type: 3}
    - {fileID: 21300000, guid: 517a5f76762738541acf005bd253ac0d, type: 3}
  m_AnimationClipSettings:
    serializedVersion: 2
    m_AdditiveReferencePoseClip: {fileID: 0}
    m_AdditiveReferencePoseTime: 0
    m_StartTime: 0
    m_StopTime: 0.8
    m_OrientationOffsetY: 0
    m_Level: 0
    m_CycleOffset: 0
    m_HasAdditiveReferencePose: 0
    m_LoopTime: 1
    m_LoopBlend: 0
    m_LoopBlendOrientation: 0
    m_LoopBlendPositionY: 0
    m_LoopBlendPositionXZ: 0
    m_KeepOriginalOrientation: 0
    m_KeepOriginalPositionY: 1
    m_KeepOriginalPositionXZ: 0
    m_HeightFromFeet: 0
    m_Mirror: 0
  m_EditorCurves: []
  m_EulerEditorCurves: []
  m_HasGenericRootTransform: 0
  m_HasMotionFloatCurves: 0
  m_Events: []
