{
"instructions_readme": "1) Open Chrome, 2) go to chrome://tracing, 3) click Load, 4) navigate to this file.",
"traceEvents":[
{ "cat":"", "pid":1, "tid":0, "ts":0, "ph":"M", "name":"process_name", "args": { "name":"tundra" } }
,{ "pid":1, "tid":0, "ts":281036114340, "dur":2721, "ph":"X", "name": "DriverCheckDagSignatures",  "args": { "durationMS":3, "detail":"" }}
,{ "pid":1, "tid":0, "ts":281036117061, "dur":262, "ph":"X", "name": "DriverInitData",  "args": { "durationMS":0, "detail":"" }}
,{ "pid":1, "tid":0, "ts":281036117379, "dur":7, "ph":"X", "name": "Tundra",  "args": { "durationMS":0, "detail":"RemoveStaleOutputs" }}
,{ "pid":1, "tid":0, "ts":281036117396, "dur":1, "ph":"X", "name": "Tundra",  "args": { "durationMS":0, "detail":"PrepareNodes" }}
,{ "pid":1, "tid":0, "ts":281036117396, "dur":311, "ph":"X", "name": "Tundra",  "args": { "durationMS":0, "detail":"BuildQueueInit" }}
,{ "pid":1, "tid":0, "ts":281036130298, "dur":22055, "ph":"X", "name": "JoinBuildThread",  "args": { "durationMS":22, "detail":"" }}
,{ "pid":1, "tid":0, "ts":281036152362, "dur":66, "ph":"X", "name": "JoinBuildThread",  "args": { "durationMS":0, "detail":"" }}
,{ "pid":1, "tid":0, "ts":281036152435, "dur":3, "ph":"X", "name": "JoinBuildThread",  "args": { "durationMS":0, "detail":"" }}
,{ "pid":1, "tid":0, "ts":281036152443, "dur":33, "ph":"X", "name": "JoinBuildThread",  "args": { "durationMS":0, "detail":"" }}
,{ "pid":1, "tid":0, "ts":281036152482, "dur":2, "ph":"X", "name": "JoinBuildThread",  "args": { "durationMS":0, "detail":"" }}
,{ "pid":1, "tid":0, "ts":281036152489, "dur":2, "ph":"X", "name": "JoinBuildThread",  "args": { "durationMS":0, "detail":"" }}
,{ "pid":1, "tid":0, "ts":281036152496, "dur":2, "ph":"X", "name": "JoinBuildThread",  "args": { "durationMS":0, "detail":"" }}
,{ "pid":1, "tid":0, "ts":281036152503, "dur":2, "ph":"X", "name": "JoinBuildThread",  "args": { "durationMS":0, "detail":"" }}
,{ "pid":1, "tid":0, "ts":281036152510, "dur":0, "ph":"X", "name": "SharedResourceDestroy",  "args": { "durationMS":0, "detail":"" }}
,{ "pid":1, "tid":0, "ts":281036152519, "dur":615, "ph":"X", "name": "Tundra",  "args": { "durationMS":1, "detail":"Write AllBuiltNodes" }}
,{ "pid":1, "tid":1, "ts":281036118070, "dur":10, "ph":"X", "name": "CheckInputSignature",  "args": { "durationMS":0, "detail":"WriteResponseFile artifacts/rsp/11973399186039057492.rsp" }}
,{ "pid":1, "tid":1, "ts":281036118140, "dur":12071, "ph":"X", "name": "CheckInputSignature",  "args": { "durationMS":12, "detail":"Il2Cpp D:/Practicas-Oniria World/Plataformas/PlantillaPlataformas/Library/Il2cppBuildCache/WebGL/Native/build.bc" }}
,{ "pid":1, "tid":1, "ts":281036130249, "dur":1, "ph":"X", "name": "CheckInputSignature",  "args": { "durationMS":0, "detail":"all_tundra_nodes" }}
,{ "pid":1, "tid":1, "ts":281036130253, "dur":67, "ph":"X", "name": "WaitingForWork", "cname":"thread_state_sleeping",  "args": { "durationMS":0, "detail":"" }}
,{ "pid":1, "tid":1, "ts":281036130319, "dur":21792, "ph":"X", "name": "Exiting",  "args": { "durationMS":22, "detail":"BuildLoop" }}
,{ "pid":1, "tid":2, "ts":281036118383, "dur":11977, "ph":"X", "name": "WaitingForWork", "cname":"thread_state_sleeping",  "args": { "durationMS":12, "detail":"" }}
,{ "pid":1, "tid":2, "ts":281036130360, "dur":21745, "ph":"X", "name": "Exiting",  "args": { "durationMS":22, "detail":"BuildLoop" }}
,{ "pid":1, "tid":3, "ts":281036118168, "dur":12133, "ph":"X", "name": "WaitingForWork", "cname":"thread_state_sleeping",  "args": { "durationMS":12, "detail":"" }}
,{ "pid":1, "tid":3, "ts":281036130301, "dur":21813, "ph":"X", "name": "Exiting",  "args": { "durationMS":22, "detail":"BuildLoop" }}
,{ "pid":1, "tid":4, "ts":281036118275, "dur":12025, "ph":"X", "name": "WaitingForWork", "cname":"thread_state_sleeping",  "args": { "durationMS":12, "detail":"" }}
,{ "pid":1, "tid":4, "ts":281036130300, "dur":21796, "ph":"X", "name": "Exiting",  "args": { "durationMS":22, "detail":"BuildLoop" }}
,{ "pid":1, "tid":5, "ts":281036118487, "dur":11872, "ph":"X", "name": "WaitingForWork", "cname":"thread_state_sleeping",  "args": { "durationMS":12, "detail":"" }}
,{ "pid":1, "tid":5, "ts":281036130360, "dur":21687, "ph":"X", "name": "Exiting",  "args": { "durationMS":22, "detail":"BuildLoop" }}
,{ "pid":1, "tid":6, "ts":281036118600, "dur":11758, "ph":"X", "name": "WaitingForWork", "cname":"thread_state_sleeping",  "args": { "durationMS":12, "detail":"" }}
,{ "pid":1, "tid":6, "ts":281036130358, "dur":21735, "ph":"X", "name": "Exiting",  "args": { "durationMS":22, "detail":"BuildLoop" }}
,{ "pid":1, "tid":7, "ts":281036118724, "dur":11634, "ph":"X", "name": "WaitingForWork", "cname":"thread_state_sleeping",  "args": { "durationMS":12, "detail":"" }}
,{ "pid":1, "tid":7, "ts":281036130358, "dur":21688, "ph":"X", "name": "Exiting",  "args": { "durationMS":22, "detail":"BuildLoop" }}
,{ "pid":1, "tid":8, "ts":281036118840, "dur":11519, "ph":"X", "name": "WaitingForWork", "cname":"thread_state_sleeping",  "args": { "durationMS":12, "detail":"" }}
,{ "pid":1, "tid":8, "ts":281036130359, "dur":21748, "ph":"X", "name": "Exiting",  "args": { "durationMS":22, "detail":"BuildLoop" }}

]
}
