[api-updater (non-obsolete-error-filter)] 31/03/2022 9:05:01 : Starting C:/Program Files/Unity/Hub/Editor/2020.3.26f1/Editor/Data/Tools/ScriptUpdater/APIUpdater.NonObsoleteApiUpdaterDetector.exe
[api-updater (non-obsolete-error-filter)] 
----------------------------------
jit/startup time      : 653,058ms
moved types parse time: 45ms
candidates parse time : 0ms
C# parse time         : 525ms
candidates check time : 37ms
console write time    : 0ms

[api-updater (non-obsolete-error-filter)] 31/03/2022 9:40:41 : Starting C:/Program Files/Unity/Hub/Editor/2020.3.26f1/Editor/Data/Tools/ScriptUpdater/APIUpdater.NonObsoleteApiUpdaterDetector.exe
[api-updater (non-obsolete-error-filter)] 
----------------------------------
jit/startup time      : 69,812ms
moved types parse time: 42ms
candidates parse time : 1ms
C# parse time         : 159ms
candidates check time : 33ms
console write time    : 0ms

[api-updater (non-obsolete-error-filter)] 31/03/2022 9:42:04 : Starting C:/Program Files/Unity/Hub/Editor/2020.3.26f1/Editor/Data/Tools/ScriptUpdater/APIUpdater.NonObsoleteApiUpdaterDetector.exe
[api-updater (non-obsolete-error-filter)] 
----------------------------------
jit/startup time      : 68,7521ms
moved types parse time: 41ms
candidates parse time : 0ms
C# parse time         : 164ms
candidates check time : 33ms
console write time    : 0ms

[api-updater (non-obsolete-error-filter)] 04/04/2022 9:08:00 : Starting C:/Program Files/Unity/Hub/Editor/2020.3.26f1/Editor/Data/Tools/ScriptUpdater/APIUpdater.NonObsoleteApiUpdaterDetector.exe
[api-updater (non-obsolete-error-filter)] 
----------------------------------
jit/startup time      : 658,2075ms
moved types parse time: 45ms
candidates parse time : 1ms
C# parse time         : 478ms
candidates check time : 26ms
console write time    : 0ms

[api-updater (non-obsolete-error-filter)] 19/04/2022 10:55:06 : Starting C:/Program Files/Unity/Hub/Editor/2020.3.26f1/Editor/Data/Tools/ScriptUpdater/APIUpdater.NonObsoleteApiUpdaterDetector.exe
[api-updater (non-obsolete-error-filter)] 
----------------------------------
jit/startup time      : 637,0993ms
moved types parse time: 44ms
candidates parse time : 0ms
C# parse time         : 464ms
candidates check time : 26ms
console write time    : 0ms

[api-updater (non-obsolete-error-filter)] 25/04/2022 14:10:40 : Starting C:/Program Files/Unity/Hub/Editor/2020.3.26f1/Editor/Data/Tools/ScriptUpdater/APIUpdater.NonObsoleteApiUpdaterDetector.exe
[api-updater (non-obsolete-error-filter)] 
----------------------------------
jit/startup time      : 685,4345ms
moved types parse time: 44ms
candidates parse time : 1ms
C# parse time         : 500ms
candidates check time : 23ms
console write time    : 0ms

[api-updater (non-obsolete-error-filter)] 25/04/2022 14:10:55 : Starting C:/Program Files/Unity/Hub/Editor/2020.3.26f1/Editor/Data/Tools/ScriptUpdater/APIUpdater.NonObsoleteApiUpdaterDetector.exe
[api-updater (non-obsolete-error-filter)] 
----------------------------------
jit/startup time      : 64,8397ms
moved types parse time: 41ms
candidates parse time : 0ms
C# parse time         : 143ms
candidates check time : 22ms
console write time    : 0ms

[api-updater (non-obsolete-error-filter)] 28/04/2022 9:37:04 : Starting C:/Program Files/Unity/Hub/Editor/2020.3.26f1/Editor/Data/Tools/ScriptUpdater/APIUpdater.NonObsoleteApiUpdaterDetector.exe
[api-updater (non-obsolete-error-filter)] 
----------------------------------
jit/startup time      : 705,1447ms
moved types parse time: 45ms
candidates parse time : 0ms
C# parse time         : 573ms
candidates check time : 29ms
console write time    : 0ms

[api-updater (non-obsolete-error-filter)] 28/04/2022 9:49:41 : Starting C:/Program Files/Unity/Hub/Editor/2020.3.26f1/Editor/Data/Tools/ScriptUpdater/APIUpdater.NonObsoleteApiUpdaterDetector.exe
[api-updater (non-obsolete-error-filter)] 
----------------------------------
jit/startup time      : 69,8437ms
moved types parse time: 42ms
candidates parse time : 0ms
C# parse time         : 162ms
candidates check time : 30ms
console write time    : 0ms

[api-updater (non-obsolete-error-filter)] 28/04/2022 9:49:54 : Starting C:/Program Files/Unity/Hub/Editor/2020.3.26f1/Editor/Data/Tools/ScriptUpdater/APIUpdater.NonObsoleteApiUpdaterDetector.exe
[api-updater (non-obsolete-error-filter)] 
----------------------------------
jit/startup time      : 65,8239ms
moved types parse time: 41ms
candidates parse time : 0ms
C# parse time         : 159ms
candidates check time : 29ms
console write time    : 0ms

[api-updater (non-obsolete-error-filter)] 11/05/2022 14:12:52 : Starting C:/Program Files/Unity/Hub/Editor/2020.3.26f1/Editor/Data/Tools/ScriptUpdater/APIUpdater.NonObsoleteApiUpdaterDetector.exe
[api-updater (non-obsolete-error-filter)] 
----------------------------------
jit/startup time      : 698,2826ms
moved types parse time: 47ms
candidates parse time : 0ms
C# parse time         : 558ms
candidates check time : 25ms
console write time    : 0ms

[api-updater (non-obsolete-error-filter)] 12/05/2022 10:04:23 : Starting C:/Program Files/Unity/Hub/Editor/2020.3.26f1/Editor/Data/Tools/ScriptUpdater/APIUpdater.NonObsoleteApiUpdaterDetector.exe
[api-updater (non-obsolete-error-filter)] 
----------------------------------
jit/startup time      : 709,9161ms
moved types parse time: 45ms
candidates parse time : 0ms
C# parse time         : 554ms
candidates check time : 34ms
console write time    : 0ms

[api-updater (non-obsolete-error-filter)] 12/05/2022 10:11:44 : Starting C:/Program Files/Unity/Hub/Editor/2020.3.26f1/Editor/Data/Tools/ScriptUpdater/APIUpdater.NonObsoleteApiUpdaterDetector.exe
[api-updater (non-obsolete-error-filter)] 
----------------------------------
jit/startup time      : 66,8501ms
moved types parse time: 40ms
candidates parse time : 0ms
C# parse time         : 130ms
candidates check time : 19ms
console write time    : 0ms

[api-updater (non-obsolete-error-filter)] 12/05/2022 10:23:15 : Starting C:/Program Files/Unity/Hub/Editor/2020.3.26f1/Editor/Data/Tools/ScriptUpdater/APIUpdater.NonObsoleteApiUpdaterDetector.exe
[api-updater (non-obsolete-error-filter)] 
----------------------------------
jit/startup time      : 68,8156ms
moved types parse time: 41ms
candidates parse time : 0ms
C# parse time         : 145ms
candidates check time : 22ms
console write time    : 0ms

[api-updater (non-obsolete-error-filter)] 12/05/2022 10:57:27 : Starting C:/Program Files/Unity/Hub/Editor/2020.3.26f1/Editor/Data/Tools/ScriptUpdater/APIUpdater.NonObsoleteApiUpdaterDetector.exe
[api-updater (non-obsolete-error-filter)] 
----------------------------------
jit/startup time      : 67,8217ms
moved types parse time: 43ms
candidates parse time : 0ms
C# parse time         : 157ms
candidates check time : 27ms
console write time    : 0ms

[api-updater (non-obsolete-error-filter)] 12/05/2022 10:57:37 : Starting C:/Program Files/Unity/Hub/Editor/2020.3.26f1/Editor/Data/Tools/ScriptUpdater/APIUpdater.NonObsoleteApiUpdaterDetector.exe
[api-updater (non-obsolete-error-filter)] 
----------------------------------
jit/startup time      : 66,8216ms
moved types parse time: 42ms
candidates parse time : 0ms
C# parse time         : 155ms
candidates check time : 28ms
console write time    : 0ms

[api-updater (non-obsolete-error-filter)] 12/05/2022 10:57:41 : Starting C:/Program Files/Unity/Hub/Editor/2020.3.26f1/Editor/Data/Tools/ScriptUpdater/APIUpdater.NonObsoleteApiUpdaterDetector.exe
[api-updater (non-obsolete-error-filter)] 
----------------------------------
jit/startup time      : 70,8101ms
moved types parse time: 42ms
candidates parse time : 0ms
C# parse time         : 151ms
candidates check time : 29ms
console write time    : 0ms

[api-updater (non-obsolete-error-filter)] 12/05/2022 11:01:02 : Starting C:/Program Files/Unity/Hub/Editor/2020.3.26f1/Editor/Data/Tools/ScriptUpdater/APIUpdater.NonObsoleteApiUpdaterDetector.exe
[api-updater (non-obsolete-error-filter)] 
----------------------------------
jit/startup time      : 66,1041ms
moved types parse time: 41ms
candidates parse time : 0ms
C# parse time         : 162ms
candidates check time : 22ms
console write time    : 0ms

[api-updater (non-obsolete-error-filter)] 13/05/2022 10:49:34 : Starting C:/Program Files/Unity/Hub/Editor/2020.3.26f1/Editor/Data/Tools/ScriptUpdater/APIUpdater.NonObsoleteApiUpdaterDetector.exe
[api-updater (non-obsolete-error-filter)] 
----------------------------------
jit/startup time      : 696,2275ms
moved types parse time: 45ms
candidates parse time : 1ms
C# parse time         : 512ms
candidates check time : 26ms
console write time    : 0ms

[api-updater (non-obsolete-error-filter)] 17/05/2022 13:56:12 : Starting C:/Program Files/Unity/Hub/Editor/2020.3.26f1/Editor/Data/Tools/ScriptUpdater/APIUpdater.NonObsoleteApiUpdaterDetector.exe
[api-updater (non-obsolete-error-filter)] 
----------------------------------
jit/startup time      : 706,0015ms
moved types parse time: 49ms
candidates parse time : 0ms
C# parse time         : 508ms
candidates check time : 24ms
console write time    : 0ms

[api-updater (non-obsolete-error-filter)] 17/05/2022 13:56:28 : Starting C:/Program Files/Unity/Hub/Editor/2020.3.26f1/Editor/Data/Tools/ScriptUpdater/APIUpdater.NonObsoleteApiUpdaterDetector.exe
[api-updater (non-obsolete-error-filter)] 
----------------------------------
jit/startup time      : 67,2ms
moved types parse time: 41ms
candidates parse time : 0ms
C# parse time         : 138ms
candidates check time : 21ms
console write time    : 0ms

[api-updater (non-obsolete-error-filter)] 23/05/2022 12:52:40 : Starting C:/Program Files/Unity/Hub/Editor/2020.3.26f1/Editor/Data/Tools/ScriptUpdater/APIUpdater.NonObsoleteApiUpdaterDetector.exe
[api-updater (non-obsolete-error-filter)] 
----------------------------------
jit/startup time      : 710,1042ms
moved types parse time: 44ms
candidates parse time : 0ms
C# parse time         : 564ms
candidates check time : 26ms
console write time    : 0ms

[api-updater (non-obsolete-error-filter)] 23/05/2022 12:53:00 : Starting C:/Program Files/Unity/Hub/Editor/2020.3.26f1/Editor/Data/Tools/ScriptUpdater/APIUpdater.NonObsoleteApiUpdaterDetector.exe
[api-updater (non-obsolete-error-filter)] 
----------------------------------
jit/startup time      : 68,7223ms
moved types parse time: 41ms
candidates parse time : 0ms
C# parse time         : 169ms
candidates check time : 24ms
console write time    : 0ms

[api-updater (non-obsolete-error-filter)] 23/05/2022 12:53:09 : Starting C:/Program Files/Unity/Hub/Editor/2020.3.26f1/Editor/Data/Tools/ScriptUpdater/APIUpdater.NonObsoleteApiUpdaterDetector.exe
[api-updater (non-obsolete-error-filter)] 
----------------------------------
jit/startup time      : 70,1425ms
moved types parse time: 42ms
candidates parse time : 1ms
C# parse time         : 168ms
candidates check time : 25ms
console write time    : 0ms

[api-updater (non-obsolete-error-filter)] 23/05/2022 13:24:50 : Starting C:/Program Files/Unity/Hub/Editor/2020.3.26f1/Editor/Data/Tools/ScriptUpdater/APIUpdater.NonObsoleteApiUpdaterDetector.exe
[api-updater (non-obsolete-error-filter)] 
----------------------------------
jit/startup time      : 72,0694ms
moved types parse time: 42ms
candidates parse time : 1ms
C# parse time         : 172ms
candidates check time : 28ms
console write time    : 0ms

[api-updater (non-obsolete-error-filter)] 24/05/2022 12:26:47 : Starting C:/Program Files/Unity/Hub/Editor/2020.3.26f1/Editor/Data/Tools/ScriptUpdater/APIUpdater.NonObsoleteApiUpdaterDetector.exe
[api-updater (non-obsolete-error-filter)] 
----------------------------------
jit/startup time      : 701,4891ms
moved types parse time: 46ms
candidates parse time : 0ms
C# parse time         : 558ms
candidates check time : 27ms
console write time    : 0ms

[api-updater (non-obsolete-error-filter)] 25/05/2022 10:16:43 : Starting C:/Program Files/Unity/Hub/Editor/2020.3.26f1/Editor/Data/Tools/ScriptUpdater/APIUpdater.NonObsoleteApiUpdaterDetector.exe
[api-updater (non-obsolete-error-filter)] 
----------------------------------
jit/startup time      : 735,1113ms
moved types parse time: 47ms
candidates parse time : 0ms
C# parse time         : 511ms
candidates check time : 25ms
console write time    : 0ms

[api-updater (non-obsolete-error-filter)] 26/05/2022 10:05:18 : Starting C:/Program Files/Unity/Hub/Editor/2020.3.26f1/Editor/Data/Tools/ScriptUpdater/APIUpdater.NonObsoleteApiUpdaterDetector.exe
[api-updater (non-obsolete-error-filter)] 
----------------------------------
jit/startup time      : 732,0577ms
moved types parse time: 45ms
candidates parse time : 0ms
C# parse time         : 509ms
candidates check time : 23ms
console write time    : 0ms

[api-updater (non-obsolete-error-filter)] 26/05/2022 14:28:16 : Starting C:/Program Files/Unity/Hub/Editor/2020.3.26f1/Editor/Data/Tools/ScriptUpdater/APIUpdater.NonObsoleteApiUpdaterDetector.exe
[api-updater (non-obsolete-error-filter)] 
----------------------------------
jit/startup time      : 683,0657ms
moved types parse time: 42ms
candidates parse time : 0ms
C# parse time         : 523ms
candidates check time : 23ms
console write time    : 0ms

[api-updater (non-obsolete-error-filter)] 01/06/2022 11:22:21 : Starting C:/Program Files/Unity/Hub/Editor/2020.3.26f1/Editor/Data/Tools/ScriptUpdater/APIUpdater.NonObsoleteApiUpdaterDetector.exe
[api-updater (non-obsolete-error-filter)] 
----------------------------------
jit/startup time      : 731,5525ms
moved types parse time: 46ms
candidates parse time : 1ms
C# parse time         : 562ms
candidates check time : 30ms
console write time    : 0ms

[api-updater (non-obsolete-error-filter)] 02/06/2022 10:33:00 : Starting C:/Program Files/Unity/Hub/Editor/2020.3.26f1/Editor/Data/Tools/ScriptUpdater/APIUpdater.NonObsoleteApiUpdaterDetector.exe
[api-updater (non-obsolete-error-filter)] 
----------------------------------
jit/startup time      : 690,3921ms
moved types parse time: 44ms
candidates parse time : 0ms
C# parse time         : 497ms
candidates check time : 26ms
console write time    : 0ms

[api-updater (non-obsolete-error-filter)] 02/06/2022 10:33:07 : Starting C:/Program Files/Unity/Hub/Editor/2020.3.26f1/Editor/Data/Tools/ScriptUpdater/APIUpdater.NonObsoleteApiUpdaterDetector.exe
[api-updater (non-obsolete-error-filter)] 
----------------------------------
jit/startup time      : 66,8483ms
moved types parse time: 43ms
candidates parse time : 0ms
C# parse time         : 154ms
candidates check time : 26ms
console write time    : 0ms

[api-updater (non-obsolete-error-filter)] 02/06/2022 10:33:16 : Starting C:/Program Files/Unity/Hub/Editor/2020.3.26f1/Editor/Data/Tools/ScriptUpdater/APIUpdater.NonObsoleteApiUpdaterDetector.exe
[api-updater (non-obsolete-error-filter)] 
----------------------------------
jit/startup time      : 65,5235ms
moved types parse time: 42ms
candidates parse time : 1ms
C# parse time         : 147ms
candidates check time : 23ms
console write time    : 0ms

[api-updater (non-obsolete-error-filter)] 02/06/2022 11:25:14 : Starting C:/Program Files/Unity/Hub/Editor/2020.3.26f1/Editor/Data/Tools/ScriptUpdater/APIUpdater.NonObsoleteApiUpdaterDetector.exe
[api-updater (non-obsolete-error-filter)] 
----------------------------------
jit/startup time      : 67,8365ms
moved types parse time: 41ms
candidates parse time : 1ms
C# parse time         : 153ms
candidates check time : 36ms
console write time    : 0ms

[api-updater (non-obsolete-error-filter)] 02/06/2022 11:25:24 : Starting C:/Program Files/Unity/Hub/Editor/2020.3.26f1/Editor/Data/Tools/ScriptUpdater/APIUpdater.NonObsoleteApiUpdaterDetector.exe
[api-updater (non-obsolete-error-filter)] 
----------------------------------
jit/startup time      : 68,8294ms
moved types parse time: 42ms
candidates parse time : 0ms
C# parse time         : 150ms
candidates check time : 35ms
console write time    : 0ms

[api-updater (non-obsolete-error-filter)] 02/06/2022 11:29:16 : Starting C:/Program Files/Unity/Hub/Editor/2020.3.26f1/Editor/Data/Tools/ScriptUpdater/APIUpdater.NonObsoleteApiUpdaterDetector.exe
[api-updater (non-obsolete-error-filter)] 
----------------------------------
jit/startup time      : 69,8512ms
moved types parse time: 41ms
candidates parse time : 0ms
C# parse time         : 152ms
candidates check time : 32ms
console write time    : 0ms

[api-updater (non-obsolete-error-filter)] 02/06/2022 11:29:32 : Starting C:/Program Files/Unity/Hub/Editor/2020.3.26f1/Editor/Data/Tools/ScriptUpdater/APIUpdater.NonObsoleteApiUpdaterDetector.exe
[api-updater (non-obsolete-error-filter)] 
----------------------------------
jit/startup time      : 66,8514ms
moved types parse time: 42ms
candidates parse time : 0ms
C# parse time         : 155ms
candidates check time : 33ms
console write time    : 0ms

[api-updater (non-obsolete-error-filter)] 02/06/2022 11:30:14 : Starting C:/Program Files/Unity/Hub/Editor/2020.3.26f1/Editor/Data/Tools/ScriptUpdater/APIUpdater.NonObsoleteApiUpdaterDetector.exe
[api-updater (non-obsolete-error-filter)] 
----------------------------------
jit/startup time      : 65,823ms
moved types parse time: 42ms
candidates parse time : 1ms
C# parse time         : 154ms
candidates check time : 33ms
console write time    : 0ms

[api-updater (non-obsolete-error-filter)] 02/06/2022 11:30:22 : Starting C:/Program Files/Unity/Hub/Editor/2020.3.26f1/Editor/Data/Tools/ScriptUpdater/APIUpdater.NonObsoleteApiUpdaterDetector.exe
[api-updater (non-obsolete-error-filter)] 
----------------------------------
jit/startup time      : 67,3202ms
moved types parse time: 41ms
candidates parse time : 0ms
C# parse time         : 149ms
candidates check time : 34ms
console write time    : 0ms

