%YAML 1.1
%TAG !u! tag:unity3d.com,2011:
--- !u!74 &7400000
AnimationClip:
  m_ObjectHideFlags: 0
  m_CorrespondingSourceObject: {fileID: 0}
  m_PrefabInstance: {fileID: 0}
  m_PrefabAsset: {fileID: 0}
  m_Name: Player_Idle
  serializedVersion: 6
  m_Legacy: 0
  m_Compressed: 0
  m_UseHighQualityCurve: 1
  m_RotationCurves: []
  m_CompressedRotationCurves: []
  m_EulerCurves: []
  m_PositionCurves: []
  m_ScaleCurves: []
  m_FloatCurves: []
  m_PPtrCurves:
  - curve:
    - time: 0
      value: {fileID: 4388500775590203611, guid: 2129318cb3d0c6b42902082e0a757762,
        type: 3}
    - time: 0.11111111
      value: {fileID: -8185967770842574802, guid: 55043d28c9892c94aa910f205a7c1b85,
        type: 3}
    - time: 0.22222222
      value: {fileID: -1788031828665887709, guid: 3056765f060988247a6c923d54742df6,
        type: 3}
    - time: 0.33333334
      value: {fileID: -3888555325206463293, guid: 703b0642ccf331745b578185b60ec2ee,
        type: 3}
    - time: 0.44444445
      value: {fileID: 7030136633399648771, guid: 998d772b32ef0754f98afdb92037af84,
        type: 3}
    attribute: m_Sprite
    path: 
    classID: 212
    script: {fileID: 0}
  m_SampleRate: 9
  m_WrapMode: 0
  m_Bounds:
    m_Center: {x: 0, y: 0, z: 0}
    m_Extent: {x: 0, y: 0, z: 0}
  m_ClipBindingConstant:
    genericBindings:
    - serializedVersion: 2
      path: 0
      attribute: 0
      script: {fileID: 0}
      typeID: 212
      customType: 23
      isPPtrCurve: 1
    pptrCurveMapping:
    - {fileID: 4388500775590203611, guid: 2129318cb3d0c6b42902082e0a757762, type: 3}
    - {fileID: -8185967770842574802, guid: 55043d28c9892c94aa910f205a7c1b85, type: 3}
    - {fileID: -1788031828665887709, guid: 3056765f060988247a6c923d54742df6, type: 3}
    - {fileID: -3888555325206463293, guid: 703b0642ccf331745b578185b60ec2ee, type: 3}
    - {fileID: 7030136633399648771, guid: 998d772b32ef0754f98afdb92037af84, type: 3}
  m_AnimationClipSettings:
    serializedVersion: 2
    m_AdditiveReferencePoseClip: {fileID: 0}
    m_AdditiveReferencePoseTime: 0
    m_StartTime: 0
    m_StopTime: 0.5555556
    m_OrientationOffsetY: 0
    m_Level: 0
    m_CycleOffset: 0
    m_HasAdditiveReferencePose: 0
    m_LoopTime: 1
    m_LoopBlend: 0
    m_LoopBlendOrientation: 0
    m_LoopBlendPositionY: 0
    m_LoopBlendPositionXZ: 0
    m_KeepOriginalOrientation: 0
    m_KeepOriginalPositionY: 1
    m_KeepOriginalPositionXZ: 0
    m_HeightFromFeet: 0
    m_Mirror: 0
  m_EditorCurves: []
  m_EulerEditorCurves: []
  m_HasGenericRootTransform: 0
  m_HasMotionFloatCurves: 0
  m_Events: []
