%YAML 1.1
%TAG !u! tag:unity3d.com,2011:
--- !u!74 &7400000
AnimationClip:
  m_ObjectHideFlags: 0
  m_CorrespondingSourceObject: {fileID: 0}
  m_PrefabInstance: {fileID: 0}
  m_PrefabAsset: {fileID: 0}
  m_Name: Player_Huevo
  serializedVersion: 6
  m_Legacy: 0
  m_Compressed: 0
  m_UseHighQualityCurve: 1
  m_RotationCurves: []
  m_CompressedRotationCurves: []
  m_EulerCurves: []
  m_PositionCurves: []
  m_ScaleCurves: []
  m_FloatCurves: []
  m_PPtrCurves:
  - curve:
    - time: 0
      value: {fileID: 21300000, guid: 426580ea30227db4e9f1f796ac201f10, type: 3}
    - time: 0.125
      value: {fileID: 21300000, guid: 561b35375778e8645bfecaf6ab221ef8, type: 3}
    - time: 0.25
      value: {fileID: 21300000, guid: 9fedeadfba8646c4b99d964f571b486c, type: 3}
    - time: 0.375
      value: {fileID: 21300000, guid: 81fcc10261ff4b240a1bda89613aaa16, type: 3}
    - time: 0.5
      value: {fileID: 21300000, guid: 826553465b13f634f8db5c87b376d1ce, type: 3}
    - time: 0.625
      value: {fileID: 21300000, guid: bb26ee6e661e55743b5acc36677f9793, type: 3}
    - time: 0.75
      value: {fileID: 21300000, guid: 71b0a33f46666d2448d256ba1b59a43e, type: 3}
    - time: 0.875
      value: {fileID: 21300000, guid: 01000938c62fb5a4e8805d0081249f04, type: 3}
    - time: 1
      value: {fileID: 21300000, guid: 77ed8b17ac34b4d4eb27b0f056af843e, type: 3}
    - time: 1.125
      value: {fileID: 21300000, guid: 8d5c6f9deaacf5844989b7cf29735fcf, type: 3}
    - time: 1.25
      value: {fileID: 21300000, guid: 2f01c05028ac48545bceeb21d8ec922f, type: 3}
    - time: 1.375
      value: {fileID: 21300000, guid: 43b25570b0d3e3847b2af9e543acb1c6, type: 3}
    - time: 1.5
      value: {fileID: 21300000, guid: d7cf086126d4e604b9fa7e902a6dd47e, type: 3}
    - time: 1.625
      value: {fileID: 21300000, guid: 426580ea30227db4e9f1f796ac201f10, type: 3}
    attribute: m_Sprite
    path: 
    classID: 212
    script: {fileID: 0}
  m_SampleRate: 8
  m_WrapMode: 0
  m_Bounds:
    m_Center: {x: 0, y: 0, z: 0}
    m_Extent: {x: 0, y: 0, z: 0}
  m_ClipBindingConstant:
    genericBindings:
    - serializedVersion: 2
      path: 0
      attribute: 0
      script: {fileID: 0}
      typeID: 212
      customType: 23
      isPPtrCurve: 1
    pptrCurveMapping:
    - {fileID: 21300000, guid: 426580ea30227db4e9f1f796ac201f10, type: 3}
    - {fileID: 21300000, guid: 561b35375778e8645bfecaf6ab221ef8, type: 3}
    - {fileID: 21300000, guid: 9fedeadfba8646c4b99d964f571b486c, type: 3}
    - {fileID: 21300000, guid: 81fcc10261ff4b240a1bda89613aaa16, type: 3}
    - {fileID: 21300000, guid: 826553465b13f634f8db5c87b376d1ce, type: 3}
    - {fileID: 21300000, guid: bb26ee6e661e55743b5acc36677f9793, type: 3}
    - {fileID: 21300000, guid: 71b0a33f46666d2448d256ba1b59a43e, type: 3}
    - {fileID: 21300000, guid: 01000938c62fb5a4e8805d0081249f04, type: 3}
    - {fileID: 21300000, guid: 77ed8b17ac34b4d4eb27b0f056af843e, type: 3}
    - {fileID: 21300000, guid: 8d5c6f9deaacf5844989b7cf29735fcf, type: 3}
    - {fileID: 21300000, guid: 2f01c05028ac48545bceeb21d8ec922f, type: 3}
    - {fileID: 21300000, guid: 43b25570b0d3e3847b2af9e543acb1c6, type: 3}
    - {fileID: 21300000, guid: d7cf086126d4e604b9fa7e902a6dd47e, type: 3}
    - {fileID: 21300000, guid: 426580ea30227db4e9f1f796ac201f10, type: 3}
  m_AnimationClipSettings:
    serializedVersion: 2
    m_AdditiveReferencePoseClip: {fileID: 0}
    m_AdditiveReferencePoseTime: 0
    m_StartTime: 0
    m_StopTime: 4.875
    m_OrientationOffsetY: 0
    m_Level: 0
    m_CycleOffset: 0
    m_HasAdditiveReferencePose: 0
    m_LoopTime: 0
    m_LoopBlend: 0
    m_LoopBlendOrientation: 0
    m_LoopBlendPositionY: 0
    m_LoopBlendPositionXZ: 0
    m_KeepOriginalOrientation: 0
    m_KeepOriginalPositionY: 1
    m_KeepOriginalPositionXZ: 0
    m_HeightFromFeet: 0
    m_Mirror: 0
  m_EditorCurves: []
  m_EulerEditorCurves: []
  m_HasGenericRootTransform: 0
  m_HasMotionFloatCurves: 0
  m_Events:
  - time: 0
    functionName: ActivarAudio
    data: 
    objectReferenceParameter: {fileID: 0}
    floatParameter: 0
    intParameter: 0
    messageOptions: 0
  - time: 0.125
    functionName: EjecutarSonidoRecoger
    data: 
    objectReferenceParameter: {fileID: 0}
    floatParameter: 0
    intParameter: 0
    messageOptions: 0
  - time: 0.75
    functionName: Huevo
    data: 
    objectReferenceParameter: {fileID: 0}
    floatParameter: 0
    intParameter: 0
    messageOptions: 0
  - time: 0.875
    functionName: EjecutarSonidoExplosion
    data: 
    objectReferenceParameter: {fileID: 0}
    floatParameter: 0
    intParameter: 0
    messageOptions: 0
  - time: 1.625
    functionName: Victory
    data: 
    objectReferenceParameter: {fileID: 0}
    floatParameter: 0
    intParameter: 0
    messageOptions: 0
  - time: 4.875
    functionName: ActivarCanvas
    data: 
    objectReferenceParameter: {fileID: 0}
    floatParameter: 0
    intParameter: 0
    messageOptions: 0
