%YAML 1.1
%TAG !u! tag:unity3d.com,2011:
--- !u!74 &7400000
AnimationClip:
  m_ObjectHideFlags: 0
  m_CorrespondingSourceObject: {fileID: 0}
  m_PrefabInstance: {fileID: 0}
  m_PrefabAsset: {fileID: 0}
  m_Name: Player_EntrarCalavera
  serializedVersion: 6
  m_Legacy: 0
  m_Compressed: 0
  m_UseHighQualityCurve: 1
  m_RotationCurves: []
  m_CompressedRotationCurves: []
  m_EulerCurves: []
  m_PositionCurves:
  - curve:
      serializedVersion: 2
      m_Curve:
      - serializedVersion: 3
        time: 0
        value: {x: -5.2983346, y: 0.1510071, z: 0}
        inSlope: {x: 0, y: 0, z: 0}
        outSlope: {x: 0, y: 0, z: 0}
        tangentMode: 0
        weightedMode: 0
        inWeight: {x: 0.33333334, y: 0.33333334, z: 0.33333334}
        outWeight: {x: 0.33333334, y: 0.33333334, z: 0.33333334}
      - serializedVersion: 3
        time: 1.5
        value: {x: 3.97, y: 0.15100706, z: 0}
        inSlope: {x: 0, y: 0, z: 0}
        outSlope: {x: 0, y: 0, z: 0}
        tangentMode: 0
        weightedMode: 0
        inWeight: {x: 0.33333334, y: 0.33333334, z: 0.33333334}
        outWeight: {x: 0.33333334, y: 0.33333334, z: 0.33333334}
      m_PreInfinity: 2
      m_PostInfinity: 2
      m_RotationOrder: 4
    path: 
  m_ScaleCurves: []
  m_FloatCurves: []
  m_PPtrCurves:
  - curve:
    - time: 0
      value: {fileID: -5978910429337724351, guid: 7d0deee70035d954ba40e71c93c03327,
        type: 3}
    - time: 0.1
      value: {fileID: -8815690469023772995, guid: d3233f334fc93c94ba024505880ee2ea,
        type: 3}
    - time: 0.2
      value: {fileID: 9004626832138950023, guid: 2be8cc60d8c23144eb44eb1e8e404a47,
        type: 3}
    - time: 0.3
      value: {fileID: 7117649646110864043, guid: 04bcb3115fae4474e8318b0b0776b101,
        type: 3}
    - time: 0.4
      value: {fileID: 3261909053106485636, guid: 829e8ab99af831e44a1d54e8a35ee7cb,
        type: 3}
    - time: 0.5
      value: {fileID: 2973477616007473073, guid: a18037848164da74d9f077787e7c97a5,
        type: 3}
    - time: 0.6
      value: {fileID: -6573688373877975680, guid: f13b8f7425c46fc4c9e0144008cac72c,
        type: 3}
    - time: 0.7
      value: {fileID: 6246083387815462902, guid: 04949cf3e56138f4f98f413bf260dc4d,
        type: 3}
    - time: 0.8
      value: {fileID: -5978910429337724351, guid: 7d0deee70035d954ba40e71c93c03327,
        type: 3}
    - time: 0.9
      value: {fileID: -8815690469023772995, guid: d3233f334fc93c94ba024505880ee2ea,
        type: 3}
    - time: 1
      value: {fileID: 9004626832138950023, guid: 2be8cc60d8c23144eb44eb1e8e404a47,
        type: 3}
    - time: 1.1
      value: {fileID: 7117649646110864043, guid: 04bcb3115fae4474e8318b0b0776b101,
        type: 3}
    - time: 1.2
      value: {fileID: 3261909053106485636, guid: 829e8ab99af831e44a1d54e8a35ee7cb,
        type: 3}
    - time: 1.3
      value: {fileID: 2973477616007473073, guid: a18037848164da74d9f077787e7c97a5,
        type: 3}
    - time: 1.4
      value: {fileID: -6573688373877975680, guid: f13b8f7425c46fc4c9e0144008cac72c,
        type: 3}
    - time: 1.5
      value: {fileID: 6246083387815462902, guid: 04949cf3e56138f4f98f413bf260dc4d,
        type: 3}
    attribute: m_Sprite
    path: 
    classID: 212
    script: {fileID: 0}
  m_SampleRate: 10
  m_WrapMode: 0
  m_Bounds:
    m_Center: {x: 0, y: 0, z: 0}
    m_Extent: {x: 0, y: 0, z: 0}
  m_ClipBindingConstant:
    genericBindings:
    - serializedVersion: 2
      path: 0
      attribute: 1
      script: {fileID: 0}
      typeID: 4
      customType: 0
      isPPtrCurve: 0
    - serializedVersion: 2
      path: 0
      attribute: 0
      script: {fileID: 0}
      typeID: 212
      customType: 23
      isPPtrCurve: 1
    pptrCurveMapping:
    - {fileID: -5978910429337724351, guid: 7d0deee70035d954ba40e71c93c03327, type: 3}
    - {fileID: -8815690469023772995, guid: d3233f334fc93c94ba024505880ee2ea, type: 3}
    - {fileID: 9004626832138950023, guid: 2be8cc60d8c23144eb44eb1e8e404a47, type: 3}
    - {fileID: 7117649646110864043, guid: 04bcb3115fae4474e8318b0b0776b101, type: 3}
    - {fileID: 3261909053106485636, guid: 829e8ab99af831e44a1d54e8a35ee7cb, type: 3}
    - {fileID: 2973477616007473073, guid: a18037848164da74d9f077787e7c97a5, type: 3}
    - {fileID: -6573688373877975680, guid: f13b8f7425c46fc4c9e0144008cac72c, type: 3}
    - {fileID: 6246083387815462902, guid: 04949cf3e56138f4f98f413bf260dc4d, type: 3}
    - {fileID: -5978910429337724351, guid: 7d0deee70035d954ba40e71c93c03327, type: 3}
    - {fileID: -8815690469023772995, guid: d3233f334fc93c94ba024505880ee2ea, type: 3}
    - {fileID: 9004626832138950023, guid: 2be8cc60d8c23144eb44eb1e8e404a47, type: 3}
    - {fileID: 7117649646110864043, guid: 04bcb3115fae4474e8318b0b0776b101, type: 3}
    - {fileID: 3261909053106485636, guid: 829e8ab99af831e44a1d54e8a35ee7cb, type: 3}
    - {fileID: 2973477616007473073, guid: a18037848164da74d9f077787e7c97a5, type: 3}
    - {fileID: -6573688373877975680, guid: f13b8f7425c46fc4c9e0144008cac72c, type: 3}
    - {fileID: 6246083387815462902, guid: 04949cf3e56138f4f98f413bf260dc4d, type: 3}
  m_AnimationClipSettings:
    serializedVersion: 2
    m_AdditiveReferencePoseClip: {fileID: 0}
    m_AdditiveReferencePoseTime: 0
    m_StartTime: 0
    m_StopTime: 2
    m_OrientationOffsetY: 0
    m_Level: 0
    m_CycleOffset: 0
    m_HasAdditiveReferencePose: 0
    m_LoopTime: 1
    m_LoopBlend: 0
    m_LoopBlendOrientation: 0
    m_LoopBlendPositionY: 0
    m_LoopBlendPositionXZ: 0
    m_KeepOriginalOrientation: 0
    m_KeepOriginalPositionY: 1
    m_KeepOriginalPositionXZ: 0
    m_HeightFromFeet: 0
    m_Mirror: 0
  m_EditorCurves:
  - curve:
      serializedVersion: 2
      m_Curve:
      - serializedVersion: 3
        time: 0
        value: -5.2983346
        inSlope: 0
        outSlope: 0
        tangentMode: 136
        weightedMode: 0
        inWeight: 0.33333334
        outWeight: 0.33333334
      - serializedVersion: 3
        time: 1.5
        value: 3.97
        inSlope: 0
        outSlope: 0
        tangentMode: 136
        weightedMode: 0
        inWeight: 0.33333334
        outWeight: 0.33333334
      m_PreInfinity: 2
      m_PostInfinity: 2
      m_RotationOrder: 4
    attribute: m_LocalPosition.x
    path: 
    classID: 4
    script: {fileID: 0}
  - curve:
      serializedVersion: 2
      m_Curve:
      - serializedVersion: 3
        time: 0
        value: 0.1510071
        inSlope: 0
        outSlope: 0
        tangentMode: 136
        weightedMode: 0
        inWeight: 0.33333334
        outWeight: 0.33333334
      - serializedVersion: 3
        time: 1.5
        value: 0.15100706
        inSlope: 0
        outSlope: 0
        tangentMode: 136
        weightedMode: 0
        inWeight: 0.33333334
        outWeight: 0.33333334
      m_PreInfinity: 2
      m_PostInfinity: 2
      m_RotationOrder: 4
    attribute: m_LocalPosition.y
    path: 
    classID: 4
    script: {fileID: 0}
  - curve:
      serializedVersion: 2
      m_Curve:
      - serializedVersion: 3
        time: 0
        value: 0
        inSlope: 0
        outSlope: 0
        tangentMode: 136
        weightedMode: 0
        inWeight: 0.33333334
        outWeight: 0.33333334
      - serializedVersion: 3
        time: 1.5
        value: 0
        inSlope: 0
        outSlope: 0
        tangentMode: 136
        weightedMode: 0
        inWeight: 0.33333334
        outWeight: 0.33333334
      m_PreInfinity: 2
      m_PostInfinity: 2
      m_RotationOrder: 4
    attribute: m_LocalPosition.z
    path: 
    classID: 4
    script: {fileID: 0}
  m_EulerEditorCurves: []
  m_HasGenericRootTransform: 1
  m_HasMotionFloatCurves: 0
  m_Events:
  - time: 2
    functionName: Victory
    data: 
    objectReferenceParameter: {fileID: 0}
    floatParameter: 0
    intParameter: 0
    messageOptions: 0
