%YAML 1.1
%TAG !u! tag:unity3d.com,2011:
--- !u!74 &7400000
AnimationClip:
  m_ObjectHideFlags: 0
  m_CorrespondingSourceObject: {fileID: 0}
  m_PrefabInstance: {fileID: 0}
  m_PrefabAsset: {fileID: 0}
  m_Name: BulletAnimEmisive
  serializedVersion: 6
  m_Legacy: 0
  m_Compressed: 0
  m_UseHighQualityCurve: 1
  m_RotationCurves: []
  m_CompressedRotationCurves: []
  m_EulerCurves: []
  m_PositionCurves: []
  m_ScaleCurves: []
  m_FloatCurves: []
  m_PPtrCurves:
  - curve:
    - time: 0
      value: {fileID: -833913084945862876, guid: 827fc9ed0b302ec48a8f1f24ca9ffc9a,
        type: 3}
    - time: 0.05
      value: {fileID: -7509462172869558410, guid: 192f8ea4c417a5040a4bcbf401259629,
        type: 3}
    - time: 0.1
      value: {fileID: -4478739990690642913, guid: 48c3580097a9db0449e9f9972bf5ba40,
        type: 3}
    - time: 0.15
      value: {fileID: -5072091431715212041, guid: 80651af0e0176324986459245cc0f607,
        type: 3}
    - time: 0.2
      value: {fileID: -4356229644316002236, guid: 25ec21f2ede01134f968eb5f46538ede,
        type: 3}
    - time: 0.25
      value: {fileID: 7800649921083350610, guid: 292ee589be08b9c4fa233726b98c14e8,
        type: 3}
    - time: 0.3
      value: {fileID: -7539646463927187763, guid: e38abf1bb346edd40bb8b50e0664dc8e,
        type: 3}
    attribute: m_Sprite
    path: 
    classID: 212
    script: {fileID: 0}
  m_SampleRate: 20
  m_WrapMode: 0
  m_Bounds:
    m_Center: {x: 0, y: 0, z: 0}
    m_Extent: {x: 0, y: 0, z: 0}
  m_ClipBindingConstant:
    genericBindings:
    - serializedVersion: 2
      path: 0
      attribute: 0
      script: {fileID: 0}
      typeID: 212
      customType: 23
      isPPtrCurve: 1
    pptrCurveMapping:
    - {fileID: -833913084945862876, guid: 827fc9ed0b302ec48a8f1f24ca9ffc9a, type: 3}
    - {fileID: -7509462172869558410, guid: 192f8ea4c417a5040a4bcbf401259629, type: 3}
    - {fileID: -4478739990690642913, guid: 48c3580097a9db0449e9f9972bf5ba40, type: 3}
    - {fileID: -5072091431715212041, guid: 80651af0e0176324986459245cc0f607, type: 3}
    - {fileID: -4356229644316002236, guid: 25ec21f2ede01134f968eb5f46538ede, type: 3}
    - {fileID: 7800649921083350610, guid: 292ee589be08b9c4fa233726b98c14e8, type: 3}
    - {fileID: -7539646463927187763, guid: e38abf1bb346edd40bb8b50e0664dc8e, type: 3}
  m_AnimationClipSettings:
    serializedVersion: 2
    m_AdditiveReferencePoseClip: {fileID: 0}
    m_AdditiveReferencePoseTime: 0
    m_StartTime: 0
    m_StopTime: 0.35000002
    m_OrientationOffsetY: 0
    m_Level: 0
    m_CycleOffset: 0
    m_HasAdditiveReferencePose: 0
    m_LoopTime: 1
    m_LoopBlend: 0
    m_LoopBlendOrientation: 0
    m_LoopBlendPositionY: 0
    m_LoopBlendPositionXZ: 0
    m_KeepOriginalOrientation: 0
    m_KeepOriginalPositionY: 1
    m_KeepOriginalPositionXZ: 0
    m_HeightFromFeet: 0
    m_Mirror: 0
  m_EditorCurves: []
  m_EulerEditorCurves: []
  m_HasGenericRootTransform: 0
  m_HasMotionFloatCurves: 0
  m_Events: []
