%YAML 1.1
%TAG !u! tag:unity3d.com,2011:
--- !u!162 &1
EditorUserSettings:
  m_ObjectHideFlags: 0
  serializedVersion: 4
  m_ConfigSettings:
    RecentlyUsedScenePath-0:
      value: 22424703114646680e0b0227036c731f171311242b1b2522282c137df7ee3d2cfb
      flags: 0
    RecentlyUsedScenePath-1:
      value: 22424703114646680e0b0227036c6f0203121a2b623d28393930
      flags: 0
    RecentlyUsedScenePath-2:
      value: 22424703114646680e0b0227036c71190012146a7f680702190c5326ece92021
      flags: 0
    RecentlyUsedScenePath-3:
      value: 22424703114646680e0b0227036c7e1e1f1a19292527281624271c3facf53a31f6fe
      flags: 0
    RecentlyUsedScenePath-4:
      value: 22424703114646680e0b0227036c78191b19193925276662633c133af6f9
      flags: 0
    RecentlyUsedScenePath-5:
      value: 22424703114646680e0b0227036c72111f1958072926337e38271427fb
      flags: 0
    RecentlyUsedScenePath-6:
      value: 22424703114646680e0b0227036c6c151a121b3e233a08393b2c117df7ee3d2cfb
      flags: 0
    RecentlyUsedScenePath-7:
      value: 22424703114646680e0b0227036c71190012146a7d66333e243d04
      flags: 0
    RecentlyUsedScenePath-8:
      value: 22424703114646680e0b0227036c71190012146a7f66333e243d04
      flags: 0
    RecentlyUsedScenePath-9:
      value: 22424703114646680e0b0227036c71190012146a7e66333e243d04
      flags: 0
    vcSharedLogLevel:
      value: 0d5e400f0650
      flags: 0
  m_VCAutomaticAdd: 1
  m_VCDebugCom: 0
  m_VCDebugCmd: 0
  m_VCDebugOut: 0
  m_SemanticMergeMode: 2
  m_VCShowFailedCheckout: 1
  m_VCOverwriteFailedCheckoutAssets: 1
  m_VCProjectOverlayIcons: 1
  m_VCHierarchyOverlayIcons: 1
  m_VCOtherOverlayIcons: 1
  m_VCAllowAsyncUpdate: 1
