%YAML 1.1
%TAG !u! tag:unity3d.com,2011:
--- !u!74 &7400000
AnimationClip:
  m_ObjectHideFlags: 0
  m_CorrespondingSourceObject: {fileID: 0}
  m_PrefabInstance: {fileID: 0}
  m_PrefabAsset: {fileID: 0}
  m_Name: Huevos
  serializedVersion: 6
  m_Legacy: 0
  m_Compressed: 0
  m_UseHighQualityCurve: 1
  m_RotationCurves: []
  m_CompressedRotationCurves: []
  m_EulerCurves: []
  m_PositionCurves: []
  m_ScaleCurves: []
  m_FloatCurves: []
  m_PPtrCurves:
  - curve:
    - time: 0
      value: {fileID: 21300000, guid: 9358110c5f383a44e84d8f0db3b5df4f, type: 3}
    - time: 0.083333336
      value: {fileID: 21300000, guid: f9f9d4296cbab394ea153cd270c51679, type: 3}
    - time: 0.16666667
      value: {fileID: 21300000, guid: 562fdb8b48229524dad04f6fb4348366, type: 3}
    - time: 0.25
      value: {fileID: 21300000, guid: af26a717d4948664686f9a5b323cf36d, type: 3}
    - time: 0.33333334
      value: {fileID: 21300000, guid: ba699a52dfd388445b662b4d120ae018, type: 3}
    - time: 0.41666666
      value: {fileID: 21300000, guid: ce288068917932d46a8ced64e65eea98, type: 3}
    - time: 0.5
      value: {fileID: 21300000, guid: 36d67828f1eeec641b552a224ffc9572, type: 3}
    - time: 0.5833333
      value: {fileID: 21300000, guid: 42e2bc55933d429418fed14c2db56c02, type: 3}
    - time: 0.6666667
      value: {fileID: 21300000, guid: b05e7ba89098fc343a4c40cdeac5a080, type: 3}
    - time: 0.75
      value: {fileID: 21300000, guid: 599acaf5d8e9da240af184d99086c299, type: 3}
    - time: 0.8333333
      value: {fileID: 21300000, guid: 2a3ff20fe6ae8004e8b87dc3d3e04782, type: 3}
    - time: 0.9166667
      value: {fileID: 21300000, guid: 742c3fb2a29fa904fa2c9a5f2607d5ca, type: 3}
    - time: 1
      value: {fileID: 21300000, guid: 23044bd3162ceca49981e5abfb576e90, type: 3}
    - time: 1.0833334
      value: {fileID: 21300000, guid: ece6b2613a01e2b4983083702a587577, type: 3}
    - time: 1.1666666
      value: {fileID: 21300000, guid: ebe8c84916f184d4bab55023115f09a6, type: 3}
    - time: 1.25
      value: {fileID: 21300000, guid: 6dc6771638307e94e9eef470bd251f43, type: 3}
    - time: 1.9166666
      value: {fileID: 21300000, guid: 6dc6771638307e94e9eef470bd251f43, type: 3}
    - time: 2
      value: {fileID: 21300000, guid: 9358110c5f383a44e84d8f0db3b5df4f, type: 3}
    attribute: m_Sprite
    path: 
    classID: 212
    script: {fileID: 0}
  m_SampleRate: 12
  m_WrapMode: 0
  m_Bounds:
    m_Center: {x: 0, y: 0, z: 0}
    m_Extent: {x: 0, y: 0, z: 0}
  m_ClipBindingConstant:
    genericBindings:
    - serializedVersion: 2
      path: 0
      attribute: 0
      script: {fileID: 0}
      typeID: 212
      customType: 23
      isPPtrCurve: 1
    pptrCurveMapping:
    - {fileID: 21300000, guid: 9358110c5f383a44e84d8f0db3b5df4f, type: 3}
    - {fileID: 21300000, guid: f9f9d4296cbab394ea153cd270c51679, type: 3}
    - {fileID: 21300000, guid: 562fdb8b48229524dad04f6fb4348366, type: 3}
    - {fileID: 21300000, guid: af26a717d4948664686f9a5b323cf36d, type: 3}
    - {fileID: 21300000, guid: ba699a52dfd388445b662b4d120ae018, type: 3}
    - {fileID: 21300000, guid: ce288068917932d46a8ced64e65eea98, type: 3}
    - {fileID: 21300000, guid: 36d67828f1eeec641b552a224ffc9572, type: 3}
    - {fileID: 21300000, guid: 42e2bc55933d429418fed14c2db56c02, type: 3}
    - {fileID: 21300000, guid: b05e7ba89098fc343a4c40cdeac5a080, type: 3}
    - {fileID: 21300000, guid: 599acaf5d8e9da240af184d99086c299, type: 3}
    - {fileID: 21300000, guid: 2a3ff20fe6ae8004e8b87dc3d3e04782, type: 3}
    - {fileID: 21300000, guid: 742c3fb2a29fa904fa2c9a5f2607d5ca, type: 3}
    - {fileID: 21300000, guid: 23044bd3162ceca49981e5abfb576e90, type: 3}
    - {fileID: 21300000, guid: ece6b2613a01e2b4983083702a587577, type: 3}
    - {fileID: 21300000, guid: ebe8c84916f184d4bab55023115f09a6, type: 3}
    - {fileID: 21300000, guid: 6dc6771638307e94e9eef470bd251f43, type: 3}
    - {fileID: 21300000, guid: 6dc6771638307e94e9eef470bd251f43, type: 3}
    - {fileID: 21300000, guid: 9358110c5f383a44e84d8f0db3b5df4f, type: 3}
  m_AnimationClipSettings:
    serializedVersion: 2
    m_AdditiveReferencePoseClip: {fileID: 0}
    m_AdditiveReferencePoseTime: 0
    m_StartTime: 0
    m_StopTime: 2.0833333
    m_OrientationOffsetY: 0
    m_Level: 0
    m_CycleOffset: 0
    m_HasAdditiveReferencePose: 0
    m_LoopTime: 1
    m_LoopBlend: 0
    m_LoopBlendOrientation: 0
    m_LoopBlendPositionY: 0
    m_LoopBlendPositionXZ: 0
    m_KeepOriginalOrientation: 0
    m_KeepOriginalPositionY: 1
    m_KeepOriginalPositionXZ: 0
    m_HeightFromFeet: 0
    m_Mirror: 0
  m_EditorCurves: []
  m_EulerEditorCurves: []
  m_HasGenericRootTransform: 0
  m_HasMotionFloatCurves: 0
  m_Events: []
