%YAML 1.1
%TAG !u! tag:unity3d.com,2011:
--- !u!74 &7400000
AnimationClip:
  m_ObjectHideFlags: 0
  m_CorrespondingSourceObject: {fileID: 0}
  m_PrefabInstance: {fileID: 0}
  m_PrefabAsset: {fileID: 0}
  m_Name: ala tortuga
  serializedVersion: 6
  m_Legacy: 0
  m_Compressed: 0
  m_UseHighQualityCurve: 1
  m_RotationCurves: []
  m_CompressedRotationCurves: []
  m_EulerCurves: []
  m_PositionCurves: []
  m_ScaleCurves: []
  m_FloatCurves: []
  m_PPtrCurves:
  - curve:
    - time: 0
      value: {fileID: -5750353039905602045, guid: ec9b7622afc343842ac25f31061e3bcc,
        type: 3}
    - time: 0.083333336
      value: {fileID: -7371509505491802261, guid: 707d4ec3cd5e6db44a339401252c4c94,
        type: 3}
    - time: 0.16666667
      value: {fileID: 2720535173406242035, guid: 62f0c3be5d478e84a99778a5eb127032,
        type: 3}
    - time: 0.25
      value: {fileID: 8102358098348255977, guid: 9c4b8be40a4663f4298b12dce3de0914,
        type: 3}
    - time: 0.33333334
      value: {fileID: 6894999169920593895, guid: 120b51e52cf5aa445bf6f544c3e47b99,
        type: 3}
    - time: 0.41666666
      value: {fileID: -1045133410153605164, guid: c25ad02453a67b44fb19e05e26db833c,
        type: 3}
    - time: 0.5
      value: {fileID: -5622901713081898559, guid: f350d78975022574cbdff9b16d6aefb9,
        type: 3}
    - time: 0.5833333
      value: {fileID: -796155573255488767, guid: 27b9e7cfdf4a0864c87857b3f4c0e406,
        type: 3}
    - time: 0.6666667
      value: {fileID: 5181654206020448988, guid: 71e1cf3caad345a4fa59f1e1ddeeb30b,
        type: 3}
    attribute: m_Sprite
    path: 
    classID: 212
    script: {fileID: 0}
  m_SampleRate: 12
  m_WrapMode: 0
  m_Bounds:
    m_Center: {x: 0, y: 0, z: 0}
    m_Extent: {x: 0, y: 0, z: 0}
  m_ClipBindingConstant:
    genericBindings:
    - serializedVersion: 2
      path: 0
      attribute: 0
      script: {fileID: 0}
      typeID: 212
      customType: 23
      isPPtrCurve: 1
    pptrCurveMapping:
    - {fileID: -5750353039905602045, guid: ec9b7622afc343842ac25f31061e3bcc, type: 3}
    - {fileID: -7371509505491802261, guid: 707d4ec3cd5e6db44a339401252c4c94, type: 3}
    - {fileID: 2720535173406242035, guid: 62f0c3be5d478e84a99778a5eb127032, type: 3}
    - {fileID: 8102358098348255977, guid: 9c4b8be40a4663f4298b12dce3de0914, type: 3}
    - {fileID: 6894999169920593895, guid: 120b51e52cf5aa445bf6f544c3e47b99, type: 3}
    - {fileID: -1045133410153605164, guid: c25ad02453a67b44fb19e05e26db833c, type: 3}
    - {fileID: -5622901713081898559, guid: f350d78975022574cbdff9b16d6aefb9, type: 3}
    - {fileID: -796155573255488767, guid: 27b9e7cfdf4a0864c87857b3f4c0e406, type: 3}
    - {fileID: 5181654206020448988, guid: 71e1cf3caad345a4fa59f1e1ddeeb30b, type: 3}
  m_AnimationClipSettings:
    serializedVersion: 2
    m_AdditiveReferencePoseClip: {fileID: 0}
    m_AdditiveReferencePoseTime: 0
    m_StartTime: 0
    m_StopTime: 0.75
    m_OrientationOffsetY: 0
    m_Level: 0
    m_CycleOffset: 0
    m_HasAdditiveReferencePose: 0
    m_LoopTime: 1
    m_LoopBlend: 0
    m_LoopBlendOrientation: 0
    m_LoopBlendPositionY: 0
    m_LoopBlendPositionXZ: 0
    m_KeepOriginalOrientation: 0
    m_KeepOriginalPositionY: 1
    m_KeepOriginalPositionXZ: 0
    m_HeightFromFeet: 0
    m_Mirror: 0
  m_EditorCurves: []
  m_EulerEditorCurves: []
  m_HasGenericRootTransform: 0
  m_HasMotionFloatCurves: 0
  m_Events: []
